   -1    1    1    CASTOR_EM    0.0118603    0.0118603    0.0118603    0.0118603   56000001
   -1    1    2    CASTOR_EM   0.00692398   0.00692398   0.00692398   0.00692398   56000002
   -1    1    3   CASTOR_HAD    0.0173485    0.0173485    0.0173485    0.0173485   56000003
   -1    1    4   CASTOR_HAD   0.00900354   0.00900354   0.00900354   0.00900354   56000004
   -1    1    5   CASTOR_HAD   0.00169783   0.00169783   0.00169783   0.00169783   56000005
   -1    1    6   CASTOR_HAD   0.00631512   0.00631512   0.00631512   0.00631512   56000006
   -1    1    7   CASTOR_HAD      6.07425      6.07425      6.07425      6.07425   56000007
   -1    1    8   CASTOR_HAD   0.00243542   0.00243542   0.00243542   0.00243542   56000008
   -1    1    9   CASTOR_HAD   0.00476835   0.00476835   0.00476835   0.00476835   56000009
   -1    1   10   CASTOR_HAD   0.00433584   0.00433584   0.00433584   0.00433584   5600000A
   -1    1   11   CASTOR_HAD   0.00534797   0.00534797   0.00534797   0.00534797   5600000B
   -1    1   12   CASTOR_HAD    0.0033075    0.0033075    0.0033075    0.0033075   5600000C
   -1    1   13   CASTOR_HAD    0.0052293    0.0052293    0.0052293    0.0052293   5600000D
   -1    1   14   CASTOR_HAD   0.00271888   0.00271888   0.00271888   0.00271888   5600000E
   -1    2    1    CASTOR_EM   0.00190418   0.00190418   0.00190418   0.00190418   56000011
   -1    2    2    CASTOR_EM   0.00110328   0.00110328   0.00110328   0.00110328   56000012
   -1    2    3   CASTOR_HAD    0.0170141    0.0170141    0.0170141    0.0170141   56000013
   -1    2    4   CASTOR_HAD    0.0346696    0.0346696    0.0346696    0.0346696   56000014
   -1    2    5   CASTOR_HAD    0.0448253    0.0448253    0.0448253    0.0448253   56000015
   -1    2    6   CASTOR_HAD    0.0337395    0.0337395    0.0337395    0.0337395   56000016
   -1    2    7   CASTOR_HAD         -nan         -nan         -nan         -nan   56000017
   -1    2    8   CASTOR_HAD   0.00608991   0.00608991   0.00608991   0.00608991   56000018
   -1    2    9   CASTOR_HAD   0.00241099   0.00241099   0.00241099   0.00241099   56000019
   -1    2   10   CASTOR_HAD         -nan         -nan         -nan         -nan   5600001A
   -1    2   11   CASTOR_HAD   0.00473991   0.00473991   0.00473991   0.00473991   5600001B
   -1    2   12   CASTOR_HAD   0.00593401   0.00593401   0.00593401   0.00593401   5600001C
   -1    2   13   CASTOR_HAD   0.00539067   0.00539067   0.00539067   0.00539067   5600001D
   -1    2   14   CASTOR_HAD   0.00269744   0.00269744   0.00269744   0.00269744   5600001E
   -1    3    1    CASTOR_EM   0.00380657   0.00380657   0.00380657   0.00380657   56000021
   -1    3    2    CASTOR_EM   0.00303144   0.00303144   0.00303144   0.00303144   56000022
   -1    3    3   CASTOR_HAD   0.00412182   0.00412182   0.00412182   0.00412182   56000023
   -1    3    4   CASTOR_HAD    0.0128412    0.0128412    0.0128412    0.0128412   56000024
   -1    3    5   CASTOR_HAD   0.00791445   0.00791445   0.00791445   0.00791445   56000025
   -1    3    6   CASTOR_HAD    0.0157053    0.0157053    0.0157053    0.0157053   56000026
   -1    3    7   CASTOR_HAD     0.178696     0.178696     0.178696     0.178696   56000027
   -1    3    8   CASTOR_HAD      1.53564      1.53564      1.53564      1.53564   56000028
   -1    3    9   CASTOR_HAD     0.003786     0.003786     0.003786     0.003786   56000029
   -1    3   10   CASTOR_HAD    0.0125423    0.0125423    0.0125423    0.0125423   5600002A
   -1    3   11   CASTOR_HAD   0.00265395   0.00265395   0.00265395   0.00265395   5600002B
   -1    3   12   CASTOR_HAD   0.00937577   0.00937577   0.00937577   0.00937577   5600002C
   -1    3   13   CASTOR_HAD   0.00607054   0.00607054   0.00607054   0.00607054   5600002D
   -1    3   14   CASTOR_HAD   0.00395143   0.00395143   0.00395143   0.00395143   5600002E
   -1    4    1    CASTOR_EM    0.0432832    0.0432832    0.0432832    0.0432832   56000031
   -1    4    2    CASTOR_EM    0.0201678    0.0201678    0.0201678    0.0201678   56000032
   -1    4    3   CASTOR_HAD    0.0350258    0.0350258    0.0350258    0.0350258   56000033
   -1    4    4   CASTOR_HAD    0.0132402    0.0132402    0.0132402    0.0132402   56000034
   -1    4    5   CASTOR_HAD   0.00142318   0.00142318   0.00142318   0.00142318   56000035
   -1    4    6   CASTOR_HAD    0.0173873    0.0173873    0.0173873    0.0173873   56000036
   -1    4    7   CASTOR_HAD     0.145419     0.145419     0.145419     0.145419   56000037
   -1    4    8   CASTOR_HAD         -nan         -nan         -nan         -nan   56000038
   -1    4    9   CASTOR_HAD         -nan         -nan         -nan         -nan   56000039
   -1    4   10   CASTOR_HAD    0.0100712    0.0100712    0.0100712    0.0100712   5600003A
   -1    4   11   CASTOR_HAD   0.00879976   0.00879976   0.00879976   0.00879976   5600003B
   -1    4   12   CASTOR_HAD   0.00576044   0.00576044   0.00576044   0.00576044   5600003C
   -1    4   13   CASTOR_HAD   0.00476978   0.00476978   0.00476978   0.00476978   5600003D
   -1    4   14   CASTOR_HAD   0.00686733   0.00686733   0.00686733   0.00686733   5600003E
   -1    5    1    CASTOR_EM    0.0233882    0.0233882    0.0233882    0.0233882   56000041
   -1    5    2    CASTOR_EM    0.0151434    0.0151434    0.0151434    0.0151434   56000042
   -1    5    3   CASTOR_HAD    0.0698756    0.0698756    0.0698756    0.0698756   56000043
   -1    5    4   CASTOR_HAD   0.00363618   0.00363618   0.00363618   0.00363618   56000044
   -1    5    5   CASTOR_HAD   0.00101779   0.00101779   0.00101779   0.00101779   56000045
   -1    5    6   CASTOR_HAD   0.00247953   0.00247953   0.00247953   0.00247953   56000046
   -1    5    7   CASTOR_HAD   0.00674763   0.00674763   0.00674763   0.00674763   56000047
   -1    5    8   CASTOR_HAD     0.652196     0.652196     0.652196     0.652196   56000048
   -1    5    9   CASTOR_HAD     0.146318     0.146318     0.146318     0.146318   56000049
   -1    5   10   CASTOR_HAD   0.00895035   0.00895035   0.00895035   0.00895035   5600004A
   -1    5   11   CASTOR_HAD     0.005189     0.005189     0.005189     0.005189   5600004B
   -1    5   12   CASTOR_HAD   0.00304075   0.00304075   0.00304075   0.00304075   5600004C
   -1    5   13   CASTOR_HAD   0.00647444   0.00647444   0.00647444   0.00647444   5600004D
   -1    5   14   CASTOR_HAD   0.00602663   0.00602663   0.00602663   0.00602663   5600004E
   -1    6    1    CASTOR_EM    0.0780194    0.0780194    0.0780194    0.0780194   56000051
   -1    6    2    CASTOR_EM   0.00644564   0.00644564   0.00644564   0.00644564   56000052
   -1    6    3   CASTOR_HAD    0.0152357    0.0152357    0.0152357    0.0152357   56000053
   -1    6    4   CASTOR_HAD   0.00471683   0.00471683   0.00471683   0.00471683   56000054
   -1    6    5   CASTOR_HAD   0.00268752   0.00268752   0.00268752   0.00268752   56000055
   -1    6    6   CASTOR_HAD   0.00497505   0.00497505   0.00497505   0.00497505   56000056
   -1    6    7   CASTOR_HAD   0.00892819   0.00892819   0.00892819   0.00892819   56000057
   -1    6    8   CASTOR_HAD    -0.163175    -0.163175    -0.163175    -0.163175   56000058
   -1    6    9   CASTOR_HAD   0.00367216   0.00367216   0.00367216   0.00367216   56000059
   -1    6   10   CASTOR_HAD   0.00570571   0.00570571   0.00570571   0.00570571   5600005A
   -1    6   11   CASTOR_HAD   0.00372272   0.00372272   0.00372272   0.00372272   5600005B
   -1    6   12   CASTOR_HAD    0.0145072    0.0145072    0.0145072    0.0145072   5600005C
   -1    6   13   CASTOR_HAD   0.00253805   0.00253805   0.00253805   0.00253805   5600005D
   -1    6   14   CASTOR_HAD   0.00539645   0.00539645   0.00539645   0.00539645   5600005E
   -1    7    1    CASTOR_EM    0.0563711    0.0563711    0.0563711    0.0563711   56000061
   -1    7    2    CASTOR_EM     0.018044     0.018044     0.018044     0.018044   56000062
   -1    7    3   CASTOR_HAD   0.00693997   0.00693997   0.00693997   0.00693997   56000063
   -1    7    4   CASTOR_HAD    0.0321069    0.0321069    0.0321069    0.0321069   56000064
   -1    7    5   CASTOR_HAD   0.00785263   0.00785263   0.00785263   0.00785263   56000065
   -1    7    6   CASTOR_HAD   0.00292178   0.00292178   0.00292178   0.00292178   56000066
   -1    7    7   CASTOR_HAD     0.106997     0.106997     0.106997     0.106997   56000067
   -1    7    8   CASTOR_HAD   0.00155316   0.00155316   0.00155316   0.00155316   56000068
   -1    7    9   CASTOR_HAD    0.0330985    0.0330985    0.0330985    0.0330985   56000069
   -1    7   10   CASTOR_HAD    0.0253825    0.0253825    0.0253825    0.0253825   5600006A
   -1    7   11   CASTOR_HAD    0.0156833    0.0156833    0.0156833    0.0156833   5600006B
   -1    7   12   CASTOR_HAD    0.0116629    0.0116629    0.0116629    0.0116629   5600006C
   -1    7   13   CASTOR_HAD    0.0281236    0.0281236    0.0281236    0.0281236   5600006D
   -1    7   14   CASTOR_HAD         -nan         -nan         -nan         -nan   5600006E
   -1    8    1    CASTOR_EM    0.0339772    0.0339772    0.0339772    0.0339772   56000071
   -1    8    2    CASTOR_EM    0.0342253    0.0342253    0.0342253    0.0342253   56000072
   -1    8    3   CASTOR_HAD    0.0765076    0.0765076    0.0765076    0.0765076   56000073
   -1    8    4   CASTOR_HAD    0.0154893    0.0154893    0.0154893    0.0154893   56000074
   -1    8    5   CASTOR_HAD   0.00238972   0.00238972   0.00238972   0.00238972   56000075
   -1    8    6   CASTOR_HAD   0.00153578   0.00153578   0.00153578   0.00153578   56000076
   -1    8    7   CASTOR_HAD         -nan         -nan         -nan         -nan   56000077
   -1    8    8   CASTOR_HAD   0.00064314   0.00064314   0.00064314   0.00064314   56000078
   -1    8    9   CASTOR_HAD   0.00173878   0.00173878   0.00173878   0.00173878   56000079
   -1    8   10   CASTOR_HAD    0.0176554    0.0176554    0.0176554    0.0176554   5600007A
   -1    8   11   CASTOR_HAD    0.0292342    0.0292342    0.0292342    0.0292342   5600007B
   -1    8   12   CASTOR_HAD   0.00918505   0.00918505   0.00918505   0.00918505   5600007C
   -1    8   13   CASTOR_HAD    0.0370075    0.0370075    0.0370075    0.0370075   5600007D
   -1    8   14   CASTOR_HAD   0.00458636   0.00458636   0.00458636   0.00458636   5600007E
   -1    9    1    CASTOR_EM    0.0273871    0.0273871    0.0273871    0.0273871   56000081
   -1    9    2    CASTOR_EM    0.0279749    0.0279749    0.0279749    0.0279749   56000082
   -1    9    3   CASTOR_HAD    0.0590153    0.0590153    0.0590153    0.0590153   56000083
   -1    9    4   CASTOR_HAD    0.0255005    0.0255005    0.0255005    0.0255005   56000084
   -1    9    5   CASTOR_HAD    0.0105279    0.0105279    0.0105279    0.0105279   56000085
   -1    9    6   CASTOR_HAD   0.00795192   0.00795192   0.00795192   0.00795192   56000086
   -1    9    7   CASTOR_HAD     0.163643     0.163643     0.163643     0.163643   56000087
   -1    9    8   CASTOR_HAD   0.00328785   0.00328785   0.00328785   0.00328785   56000088
   -1    9    9   CASTOR_HAD   0.00233666   0.00233666   0.00233666   0.00233666   56000089
   -1    9   10   CASTOR_HAD   0.00611885   0.00611885   0.00611885   0.00611885   5600008A
   -1    9   11   CASTOR_HAD   0.00694442   0.00694442   0.00694442   0.00694442   5600008B
   -1    9   12   CASTOR_HAD   0.00732339   0.00732339   0.00732339   0.00732339   5600008C
   -1    9   13   CASTOR_HAD   0.00841968   0.00841968   0.00841968   0.00841968   5600008D
   -1    9   14   CASTOR_HAD   0.00302193   0.00302193   0.00302193   0.00302193   5600008E
   -1   10    1    CASTOR_EM   0.00538349   0.00538349   0.00538349   0.00538349   56000091
   -1   10    2    CASTOR_EM   0.00478068   0.00478068   0.00478068   0.00478068   56000092
   -1   10    3   CASTOR_HAD    0.0276804    0.0276804    0.0276804    0.0276804   56000093
   -1   10    4   CASTOR_HAD     0.019063     0.019063     0.019063     0.019063   56000094
   -1   10    5   CASTOR_HAD   0.00438951   0.00438951   0.00438951   0.00438951   56000095
   -1   10    6   CASTOR_HAD    0.0200213    0.0200213    0.0200213    0.0200213   56000096
   -1   10    7   CASTOR_HAD         -nan         -nan         -nan         -nan   56000097
   -1   10    8   CASTOR_HAD   0.00282463   0.00282463   0.00282463   0.00282463   56000098
   -1   10    9   CASTOR_HAD   0.00746083   0.00746083   0.00746083   0.00746083   56000099
   -1   10   10   CASTOR_HAD   0.00575382   0.00575382   0.00575382   0.00575382   5600009A
   -1   10   11   CASTOR_HAD   0.00296098   0.00296098   0.00296098   0.00296098   5600009B
   -1   10   12   CASTOR_HAD   0.00522838   0.00522838   0.00522838   0.00522838   5600009C
   -1   10   13   CASTOR_HAD   0.00553734   0.00553734   0.00553734   0.00553734   5600009D
   -1   10   14   CASTOR_HAD   0.00770259   0.00770259   0.00770259   0.00770259   5600009E
   -1   11    1    CASTOR_EM    0.0229048    0.0229048    0.0229048    0.0229048   560000A1
   -1   11    2    CASTOR_EM    0.0134636    0.0134636    0.0134636    0.0134636   560000A2
   -1   11    3   CASTOR_HAD    0.0331349    0.0331349    0.0331349    0.0331349   560000A3
   -1   11    4   CASTOR_HAD    0.0184401    0.0184401    0.0184401    0.0184401   560000A4
   -1   11    5   CASTOR_HAD   0.00222741   0.00222741   0.00222741   0.00222741   560000A5
   -1   11    6   CASTOR_HAD   0.00295509   0.00295509   0.00295509   0.00295509   560000A6
   -1   11    7   CASTOR_HAD     0.153013     0.153013     0.153013     0.153013   560000A7
   -1   11    8   CASTOR_HAD     0.013554     0.013554     0.013554     0.013554   560000A8
   -1   11    9   CASTOR_HAD    0.0133415    0.0133415    0.0133415    0.0133415   560000A9
   -1   11   10   CASTOR_HAD   0.00740417   0.00740417   0.00740417   0.00740417   560000AA
   -1   11   11   CASTOR_HAD    0.0147087    0.0147087    0.0147087    0.0147087   560000AB
   -1   11   12   CASTOR_HAD    0.0106686    0.0106686    0.0106686    0.0106686   560000AC
   -1   11   13   CASTOR_HAD   0.00767329   0.00767329   0.00767329   0.00767329   560000AD
   -1   11   14   CASTOR_HAD   0.00700881   0.00700881   0.00700881   0.00700881   560000AE
   -1   12    1    CASTOR_EM    -0.167572    -0.167572    -0.167572    -0.167572   560000B1
   -1   12    2    CASTOR_EM    0.0348275    0.0348275    0.0348275    0.0348275   560000B2
   -1   12    3   CASTOR_HAD    0.0235399    0.0235399    0.0235399    0.0235399   560000B3
   -1   12    4   CASTOR_HAD    0.0178706    0.0178706    0.0178706    0.0178706   560000B4
   -1   12    5   CASTOR_HAD   0.00165812   0.00165812   0.00165812   0.00165812   560000B5
   -1   12    6   CASTOR_HAD   0.00659215   0.00659215   0.00659215   0.00659215   560000B6
   -1   12    7   CASTOR_HAD         -nan         -nan         -nan         -nan   560000B7
   -1   12    8   CASTOR_HAD     -2.49096     -2.49096     -2.49096     -2.49096   560000B8
   -1   12    9   CASTOR_HAD   0.00637424   0.00637424   0.00637424   0.00637424   560000B9
   -1   12   10   CASTOR_HAD    0.0100197    0.0100197    0.0100197    0.0100197   560000BA
   -1   12   11   CASTOR_HAD    0.0961927    0.0961927    0.0961927    0.0961927   560000BB
   -1   12   12   CASTOR_HAD   0.00657461   0.00657461   0.00657461   0.00657461   560000BC
   -1   12   13   CASTOR_HAD   0.00335644   0.00335644   0.00335644   0.00335644   560000BD
   -1   12   14   CASTOR_HAD    0.0069875    0.0069875    0.0069875    0.0069875   560000BE
   -1   13    1    CASTOR_EM    0.0166187    0.0166187    0.0166187    0.0166187   560000C1
   -1   13    2    CASTOR_EM    0.0252375    0.0252375    0.0252375    0.0252375   560000C2
   -1   13    3   CASTOR_HAD    0.0193523    0.0193523    0.0193523    0.0193523   560000C3
   -1   13    4   CASTOR_HAD    0.0431595    0.0431595    0.0431595    0.0431595   560000C4
   -1   13    5   CASTOR_HAD   0.00404953   0.00404953   0.00404953   0.00404953   560000C5
   -1   13    6   CASTOR_HAD     0.021729     0.021729     0.021729     0.021729   560000C6
   -1   13    7   CASTOR_HAD     0.147085     0.147085     0.147085     0.147085   560000C7
   -1   13    8   CASTOR_HAD      1.75399      1.75399      1.75399      1.75399   560000C8
   -1   13    9   CASTOR_HAD   0.00577402   0.00577402   0.00577402   0.00577402   560000C9
   -1   13   10   CASTOR_HAD   0.00871106   0.00871106   0.00871106   0.00871106   560000CA
   -1   13   11   CASTOR_HAD    0.0522579    0.0522579    0.0522579    0.0522579   560000CB
   -1   13   12   CASTOR_HAD   0.00628826   0.00628826   0.00628826   0.00628826   560000CC
   -1   13   13   CASTOR_HAD   0.00789847   0.00789847   0.00789847   0.00789847   560000CD
   -1   13   14   CASTOR_HAD   0.00446256   0.00446256   0.00446256   0.00446256   560000CE
   -1   14    1    CASTOR_EM    0.0147917    0.0147917    0.0147917    0.0147917   560000D1
   -1   14    2    CASTOR_EM    0.0205713    0.0205713    0.0205713    0.0205713   560000D2
   -1   14    3   CASTOR_HAD    0.0573406    0.0573406    0.0573406    0.0573406   560000D3
   -1   14    4   CASTOR_HAD    0.0185197    0.0185197    0.0185197    0.0185197   560000D4
   -1   14    5   CASTOR_HAD   0.00150017   0.00150017   0.00150017   0.00150017   560000D5
   -1   14    6   CASTOR_HAD   0.00951299   0.00951299   0.00951299   0.00951299   560000D6
   -1   14    7   CASTOR_HAD      4.44476      4.44476      4.44476      4.44476   560000D7
   -1   14    8   CASTOR_HAD    -0.153669    -0.153669    -0.153669    -0.153669   560000D8
   -1   14    9   CASTOR_HAD   0.00707326   0.00707326   0.00707326   0.00707326   560000D9
   -1   14   10   CASTOR_HAD   0.00491311   0.00491311   0.00491311   0.00491311   560000DA
   -1   14   11   CASTOR_HAD    0.0460894    0.0460894    0.0460894    0.0460894   560000DB
   -1   14   12   CASTOR_HAD    0.0073215    0.0073215    0.0073215    0.0073215   560000DC
   -1   14   13   CASTOR_HAD   0.00900703   0.00900703   0.00900703   0.00900703   560000DD
   -1   14   14   CASTOR_HAD   0.00987184   0.00987184   0.00987184   0.00987184   560000DE
   -1   15    1    CASTOR_EM     0.024574     0.024574     0.024574     0.024574   560000E1
   -1   15    2    CASTOR_EM    0.0167528    0.0167528    0.0167528    0.0167528   560000E2
   -1   15    3   CASTOR_HAD    0.0263996    0.0263996    0.0263996    0.0263996   560000E3
   -1   15    4   CASTOR_HAD    0.0137393    0.0137393    0.0137393    0.0137393   560000E4
   -1   15    5   CASTOR_HAD   0.00298878   0.00298878   0.00298878   0.00298878   560000E5
   -1   15    6   CASTOR_HAD    0.0119155    0.0119155    0.0119155    0.0119155   560000E6
   -1   15    7   CASTOR_HAD    -0.154345    -0.154345    -0.154345    -0.154345   560000E7
   -1   15    8   CASTOR_HAD    0.0190386    0.0190386    0.0190386    0.0190386   560000E8
   -1   15    9   CASTOR_HAD   0.00136212   0.00136212   0.00136212   0.00136212   560000E9
   -1   15   10   CASTOR_HAD   0.00502655   0.00502655   0.00502655   0.00502655   560000EA
   -1   15   11   CASTOR_HAD   0.00515246   0.00515246   0.00515246   0.00515246   560000EB
   -1   15   12   CASTOR_HAD   0.00550749   0.00550749   0.00550749   0.00550749   560000EC
   -1   15   13   CASTOR_HAD   0.00572557   0.00572557   0.00572557   0.00572557   560000ED
   -1   15   14   CASTOR_HAD   0.00769259   0.00769259   0.00769259   0.00769259   560000EE
   -1   16    1    CASTOR_EM    0.0107861    0.0107861    0.0107861    0.0107861   560000F1
   -1   16    2    CASTOR_EM    0.0340712    0.0340712    0.0340712    0.0340712   560000F2
   -1   16    3   CASTOR_HAD    0.0294459    0.0294459    0.0294459    0.0294459   560000F3
   -1   16    4   CASTOR_HAD    0.0181829    0.0181829    0.0181829    0.0181829   560000F4
   -1   16    5   CASTOR_HAD   0.00943914   0.00943914   0.00943914   0.00943914   560000F5
   -1   16    6   CASTOR_HAD   0.00606201   0.00606201   0.00606201   0.00606201   560000F6
   -1   16    7   CASTOR_HAD    0.0653877    0.0653877    0.0653877    0.0653877   560000F7
   -1   16    8   CASTOR_HAD   0.00239205   0.00239205   0.00239205   0.00239205   560000F8
   -1   16    9   CASTOR_HAD   0.00536324   0.00536324   0.00536324   0.00536324   560000F9
   -1   16   10   CASTOR_HAD   0.00635369   0.00635369   0.00635369   0.00635369   560000FA
   -1   16   11   CASTOR_HAD   0.00381415   0.00381415   0.00381415   0.00381415   560000FB
   -1   16   12   CASTOR_HAD   0.00241716   0.00241716   0.00241716   0.00241716   560000FC
   -1   16   13   CASTOR_HAD   0.00532739   0.00532739   0.00532739   0.00532739   560000FD
   -1   16   14   CASTOR_HAD   0.00397639   0.00397639   0.00397639   0.00397639   560000FE
