   -1    1    1    CASTOR_EM    0.0183696    0.0183696    0.0183696    0.0183696   56000001
   -1    1    2    CASTOR_EM    0.0096667    0.0096667    0.0096667    0.0096667   56000002
   -1    1    3   CASTOR_HAD    0.0161851    0.0161851    0.0161851    0.0161851   56000003
   -1    1    4   CASTOR_HAD   0.00752319   0.00752319   0.00752319   0.00752319   56000004
   -1    1    5   CASTOR_HAD   0.00167167   0.00167167   0.00167167   0.00167167   56000005
   -1    1    6   CASTOR_HAD   0.00437564   0.00437564   0.00437564   0.00437564   56000006
   -1    1    7   CASTOR_HAD         -nan         -nan         -nan         -nan   56000007
   -1    1    8   CASTOR_HAD   0.00864049   0.00864049   0.00864049   0.00864049   56000008
   -1    1    9   CASTOR_HAD   0.00374387   0.00374387   0.00374387   0.00374387   56000009
   -1    1   10   CASTOR_HAD   0.00685742   0.00685742   0.00685742   0.00685742   5600000A
   -1    1   11   CASTOR_HAD   0.00237664   0.00237664   0.00237664   0.00237664   5600000B
   -1    1   12   CASTOR_HAD   0.00687827   0.00687827   0.00687827   0.00687827   5600000C
   -1    1   13   CASTOR_HAD   0.00668031   0.00668031   0.00668031   0.00668031   5600000D
   -1    1   14   CASTOR_HAD   0.00302677   0.00302677   0.00302677   0.00302677   5600000E
   -1    2    1    CASTOR_EM    0.0126449    0.0126449    0.0126449    0.0126449   56000011
   -1    2    2    CASTOR_EM   0.00923137   0.00923137   0.00923137   0.00923137   56000012
   -1    2    3   CASTOR_HAD    0.0330735    0.0330735    0.0330735    0.0330735   56000013
   -1    2    4   CASTOR_HAD    0.0266343    0.0266343    0.0266343    0.0266343   56000014
   -1    2    5   CASTOR_HAD         -nan         -nan         -nan         -nan   56000015
   -1    2    6   CASTOR_HAD    0.0203491    0.0203491    0.0203491    0.0203491   56000016
   -1    2    7   CASTOR_HAD     0.412348     0.412348     0.412348     0.412348   56000017
   -1    2    8   CASTOR_HAD   0.00880544   0.00880544   0.00880544   0.00880544   56000018
   -1    2    9   CASTOR_HAD   0.00500301   0.00500301   0.00500301   0.00500301   56000019
   -1    2   10   CASTOR_HAD         -nan         -nan         -nan         -nan   5600001A
   -1    2   11   CASTOR_HAD   0.00715623   0.00715623   0.00715623   0.00715623   5600001B
   -1    2   12   CASTOR_HAD    0.0106068    0.0106068    0.0106068    0.0106068   5600001C
   -1    2   13   CASTOR_HAD   0.00640384   0.00640384   0.00640384   0.00640384   5600001D
   -1    2   14   CASTOR_HAD   0.00314825   0.00314825   0.00314825   0.00314825   5600001E
   -1    3    1    CASTOR_EM    0.0149398    0.0149398    0.0149398    0.0149398   56000021
   -1    3    2    CASTOR_EM   0.00756231   0.00756231   0.00756231   0.00756231   56000022
   -1    3    3   CASTOR_HAD     0.020285     0.020285     0.020285     0.020285   56000023
   -1    3    4   CASTOR_HAD     0.016589     0.016589     0.016589     0.016589   56000024
   -1    3    5   CASTOR_HAD   0.00471999   0.00471999   0.00471999   0.00471999   56000025
   -1    3    6   CASTOR_HAD   0.00101498   0.00101498   0.00101498   0.00101498   56000026
   -1    3    7   CASTOR_HAD     0.251593     0.251593     0.251593     0.251593   56000027
   -1    3    8   CASTOR_HAD      1.99492      1.99492      1.99492      1.99492   56000028
   -1    3    9   CASTOR_HAD   0.00578745   0.00578745   0.00578745   0.00578745   56000029
   -1    3   10   CASTOR_HAD   0.00855518   0.00855518   0.00855518   0.00855518   5600002A
   -1    3   11   CASTOR_HAD    0.0050067    0.0050067    0.0050067    0.0050067   5600002B
   -1    3   12   CASTOR_HAD   0.00805331   0.00805331   0.00805331   0.00805331   5600002C
   -1    3   13   CASTOR_HAD    0.0136813    0.0136813    0.0136813    0.0136813   5600002D
   -1    3   14   CASTOR_HAD   0.00592283   0.00592283   0.00592283   0.00592283   5600002E
   -1    4    1    CASTOR_EM   0.00879439   0.00879439   0.00879439   0.00879439   56000031
   -1    4    2    CASTOR_EM   0.00558363   0.00558363   0.00558363   0.00558363   56000032
   -1    4    3   CASTOR_HAD    0.0153057    0.0153057    0.0153057    0.0153057   56000033
   -1    4    4   CASTOR_HAD    0.0154411    0.0154411    0.0154411    0.0154411   56000034
   -1    4    5   CASTOR_HAD   0.00429764   0.00429764   0.00429764   0.00429764   56000035
   -1    4    6   CASTOR_HAD   0.00551962   0.00551962   0.00551962   0.00551962   56000036
   -1    4    7   CASTOR_HAD     0.389702     0.389702     0.389702     0.389702   56000037
   -1    4    8   CASTOR_HAD         -nan         -nan         -nan         -nan   56000038
   -1    4    9   CASTOR_HAD         -nan         -nan         -nan         -nan   56000039
   -1    4   10   CASTOR_HAD    0.0100901    0.0100901    0.0100901    0.0100901   5600003A
   -1    4   11   CASTOR_HAD   0.00906471   0.00906471   0.00906471   0.00906471   5600003B
   -1    4   12   CASTOR_HAD   0.00517476   0.00517476   0.00517476   0.00517476   5600003C
   -1    4   13   CASTOR_HAD   0.00108826   0.00108826   0.00108826   0.00108826   5600003D
   -1    4   14   CASTOR_HAD   0.00220509   0.00220509   0.00220509   0.00220509   5600003E
   -1    5    1    CASTOR_EM    0.0360389    0.0360389    0.0360389    0.0360389   56000041
   -1    5    2    CASTOR_EM    0.0236104    0.0236104    0.0236104    0.0236104   56000042
   -1    5    3   CASTOR_HAD     0.034837     0.034837     0.034837     0.034837   56000043
   -1    5    4   CASTOR_HAD    0.0133035    0.0133035    0.0133035    0.0133035   56000044
   -1    5    5   CASTOR_HAD   0.00467313   0.00467313   0.00467313   0.00467313   56000045
   -1    5    6   CASTOR_HAD   0.00331931   0.00331931   0.00331931   0.00331931   56000046
   -1    5    7   CASTOR_HAD    0.0620965    0.0620965    0.0620965    0.0620965   56000047
   -1    5    8   CASTOR_HAD         -nan         -nan         -nan         -nan   56000048
   -1    5    9   CASTOR_HAD         -nan         -nan         -nan         -nan   56000049
   -1    5   10   CASTOR_HAD   0.00616471   0.00616471   0.00616471   0.00616471   5600004A
   -1    5   11   CASTOR_HAD   0.00650415   0.00650415   0.00650415   0.00650415   5600004B
   -1    5   12   CASTOR_HAD   0.00765088   0.00765088   0.00765088   0.00765088   5600004C
   -1    5   13   CASTOR_HAD   0.00523149   0.00523149   0.00523149   0.00523149   5600004D
   -1    5   14   CASTOR_HAD   0.00648767   0.00648767   0.00648767   0.00648767   5600004E
   -1    6    1    CASTOR_EM    0.0134231    0.0134231    0.0134231    0.0134231   56000051
   -1    6    2    CASTOR_EM    0.0153309    0.0153309    0.0153309    0.0153309   56000052
   -1    6    3   CASTOR_HAD    0.0526704    0.0526704    0.0526704    0.0526704   56000053
   -1    6    4   CASTOR_HAD     0.017003     0.017003     0.017003     0.017003   56000054
   -1    6    5   CASTOR_HAD   0.00686212   0.00686212   0.00686212   0.00686212   56000055
   -1    6    6   CASTOR_HAD    0.0150918    0.0150918    0.0150918    0.0150918   56000056
   -1    6    7   CASTOR_HAD    0.0507391    0.0507391    0.0507391    0.0507391   56000057
   -1    6    8   CASTOR_HAD         -nan         -nan         -nan         -nan   56000058
   -1    6    9   CASTOR_HAD   0.00857539   0.00857539   0.00857539   0.00857539   56000059
   -1    6   10   CASTOR_HAD      0.01309      0.01309      0.01309      0.01309   5600005A
   -1    6   11   CASTOR_HAD   0.00631338   0.00631338   0.00631338   0.00631338   5600005B
   -1    6   12   CASTOR_HAD   0.00287674   0.00287674   0.00287674   0.00287674   5600005C
   -1    6   13   CASTOR_HAD    0.0145616    0.0145616    0.0145616    0.0145616   5600005D
   -1    6   14   CASTOR_HAD   0.00967427   0.00967427   0.00967427   0.00967427   5600005E
   -1    7    1    CASTOR_EM    0.0283274    0.0283274    0.0283274    0.0283274   56000061
   -1    7    2    CASTOR_EM    0.0213279    0.0213279    0.0213279    0.0213279   56000062
   -1    7    3   CASTOR_HAD    0.0509725    0.0509725    0.0509725    0.0509725   56000063
   -1    7    4   CASTOR_HAD    0.0212366    0.0212366    0.0212366    0.0212366   56000064
   -1    7    5   CASTOR_HAD   0.00567048   0.00567048   0.00567048   0.00567048   56000065
   -1    7    6   CASTOR_HAD    0.0155835    0.0155835    0.0155835    0.0155835   56000066
   -1    7    7   CASTOR_HAD     0.304855     0.304855     0.304855     0.304855   56000067
   -1    7    8   CASTOR_HAD   0.00657016   0.00657016   0.00657016   0.00657016   56000068
   -1    7    9   CASTOR_HAD    0.0095317    0.0095317    0.0095317    0.0095317   56000069
   -1    7   10   CASTOR_HAD     0.201622     0.201622     0.201622     0.201622   5600006A
   -1    7   11   CASTOR_HAD     0.257276     0.257276     0.257276     0.257276   5600006B
   -1    7   12   CASTOR_HAD    0.0732326    0.0732326    0.0732326    0.0732326   5600006C
   -1    7   13   CASTOR_HAD     0.019364     0.019364     0.019364     0.019364   5600006D
   -1    7   14   CASTOR_HAD     0.011707     0.011707     0.011707     0.011707   5600006E
   -1    8    1    CASTOR_EM    0.0135834    0.0135834    0.0135834    0.0135834   56000071
   -1    8    2    CASTOR_EM    0.0163806    0.0163806    0.0163806    0.0163806   56000072
   -1    8    3   CASTOR_HAD    0.0624097    0.0624097    0.0624097    0.0624097   56000073
   -1    8    4   CASTOR_HAD    0.0448738    0.0448738    0.0448738    0.0448738   56000074
   -1    8    5   CASTOR_HAD    0.0146524    0.0146524    0.0146524    0.0146524   56000075
   -1    8    6   CASTOR_HAD    0.0659804    0.0659804    0.0659804    0.0659804   56000076
   -1    8    7   CASTOR_HAD     0.431096     0.431096     0.431096     0.431096   56000077
   -1    8    8   CASTOR_HAD    0.0277662    0.0277662    0.0277662    0.0277662   56000078
   -1    8    9   CASTOR_HAD    0.0058272    0.0058272    0.0058272    0.0058272   56000079
   -1    8   10   CASTOR_HAD    0.0414515    0.0414515    0.0414515    0.0414515   5600007A
   -1    8   11   CASTOR_HAD    0.0228538    0.0228538    0.0228538    0.0228538   5600007B
   -1    8   12   CASTOR_HAD    0.0602037    0.0602037    0.0602037    0.0602037   5600007C
   -1    8   13   CASTOR_HAD    0.0595247    0.0595247    0.0595247    0.0595247   5600007D
   -1    8   14   CASTOR_HAD    0.0474376    0.0474376    0.0474376    0.0474376   5600007E
   -1    9    1    CASTOR_EM    0.0105915    0.0105915    0.0105915    0.0105915   56000081
   -1    9    2    CASTOR_EM    0.0211527    0.0211527    0.0211527    0.0211527   56000082
   -1    9    3   CASTOR_HAD    0.0340788    0.0340788    0.0340788    0.0340788   56000083
   -1    9    4   CASTOR_HAD    0.0217681    0.0217681    0.0217681    0.0217681   56000084
   -1    9    5   CASTOR_HAD    0.0015412    0.0015412    0.0015412    0.0015412   56000085
   -1    9    6   CASTOR_HAD    0.0102108    0.0102108    0.0102108    0.0102108   56000086
   -1    9    7   CASTOR_HAD       0.4912       0.4912       0.4912       0.4912   56000087
   -1    9    8   CASTOR_HAD   0.00949203   0.00949203   0.00949203   0.00949203   56000088
   -1    9    9   CASTOR_HAD   0.00373001   0.00373001   0.00373001   0.00373001   56000089
   -1    9   10   CASTOR_HAD   0.00488032   0.00488032   0.00488032   0.00488032   5600008A
   -1    9   11   CASTOR_HAD   0.00408138   0.00408138   0.00408138   0.00408138   5600008B
   -1    9   12   CASTOR_HAD   0.00540573   0.00540573   0.00540573   0.00540573   5600008C
   -1    9   13   CASTOR_HAD   0.00489726   0.00489726   0.00489726   0.00489726   5600008D
   -1    9   14   CASTOR_HAD   0.00437436   0.00437436   0.00437436   0.00437436   5600008E
   -1   10    1    CASTOR_EM    0.0119776    0.0119776    0.0119776    0.0119776   56000091
   -1   10    2    CASTOR_EM     0.021942     0.021942     0.021942     0.021942   56000092
   -1   10    3   CASTOR_HAD    0.0524204    0.0524204    0.0524204    0.0524204   56000093
   -1   10    4   CASTOR_HAD    0.0164233    0.0164233    0.0164233    0.0164233   56000094
   -1   10    5   CASTOR_HAD   0.00258369   0.00258369   0.00258369   0.00258369   56000095
   -1   10    6   CASTOR_HAD    0.0435529    0.0435529    0.0435529    0.0435529   56000096
   -1   10    7   CASTOR_HAD     0.437993     0.437993     0.437993     0.437993   56000097
   -1   10    8   CASTOR_HAD   0.00412933   0.00412933   0.00412933   0.00412933   56000098
   -1   10    9   CASTOR_HAD   0.00163324   0.00163324   0.00163324   0.00163324   56000099
   -1   10   10   CASTOR_HAD   0.00492717   0.00492717   0.00492717   0.00492717   5600009A
   -1   10   11   CASTOR_HAD   0.00402259   0.00402259   0.00402259   0.00402259   5600009B
   -1   10   12   CASTOR_HAD   0.00283172   0.00283172   0.00283172   0.00283172   5600009C
   -1   10   13   CASTOR_HAD   0.00296729   0.00296729   0.00296729   0.00296729   5600009D
   -1   10   14   CASTOR_HAD   0.00536218   0.00536218   0.00536218   0.00536218   5600009E
   -1   11    1    CASTOR_EM    0.0150101    0.0150101    0.0150101    0.0150101   560000A1
   -1   11    2    CASTOR_EM    0.0187699    0.0187699    0.0187699    0.0187699   560000A2
   -1   11    3   CASTOR_HAD     0.025967     0.025967     0.025967     0.025967   560000A3
   -1   11    4   CASTOR_HAD   0.00960224   0.00960224   0.00960224   0.00960224   560000A4
   -1   11    5   CASTOR_HAD   0.00589829   0.00589829   0.00589829   0.00589829   560000A5
   -1   11    6   CASTOR_HAD    0.0128471    0.0128471    0.0128471    0.0128471   560000A6
   -1   11    7   CASTOR_HAD         -nan         -nan         -nan         -nan   560000A7
   -1   11    8   CASTOR_HAD     0.159483     0.159483     0.159483     0.159483   560000A8
   -1   11    9   CASTOR_HAD   0.00645511   0.00645511   0.00645511   0.00645511   560000A9
   -1   11   10   CASTOR_HAD   0.00405531   0.00405531   0.00405531   0.00405531   560000AA
   -1   11   11   CASTOR_HAD    0.0370512    0.0370512    0.0370512    0.0370512   560000AB
   -1   11   12   CASTOR_HAD   0.00960026   0.00960026   0.00960026   0.00960026   560000AC
   -1   11   13   CASTOR_HAD    0.0165674    0.0165674    0.0165674    0.0165674   560000AD
   -1   11   14   CASTOR_HAD   0.00761697   0.00761697   0.00761697   0.00761697   560000AE
   -1   12    1    CASTOR_EM    0.0350567    0.0350567    0.0350567    0.0350567   560000B1
   -1   12    2    CASTOR_EM    0.0192652    0.0192652    0.0192652    0.0192652   560000B2
   -1   12    3   CASTOR_HAD    0.0317615    0.0317615    0.0317615    0.0317615   560000B3
   -1   12    4   CASTOR_HAD    0.0215053    0.0215053    0.0215053    0.0215053   560000B4
   -1   12    5   CASTOR_HAD   0.00721634   0.00721634   0.00721634   0.00721634   560000B5
   -1   12    6   CASTOR_HAD    0.0115553    0.0115553    0.0115553    0.0115553   560000B6
   -1   12    7   CASTOR_HAD         -nan         -nan         -nan         -nan   560000B7
   -1   12    8   CASTOR_HAD     0.456308     0.456308     0.456308     0.456308   560000B8
   -1   12    9   CASTOR_HAD   0.00861767   0.00861767   0.00861767   0.00861767   560000B9
   -1   12   10   CASTOR_HAD    0.0065356    0.0065356    0.0065356    0.0065356   560000BA
   -1   12   11   CASTOR_HAD    0.0406571    0.0406571    0.0406571    0.0406571   560000BB
   -1   12   12   CASTOR_HAD   0.00637007   0.00637007   0.00637007   0.00637007   560000BC
   -1   12   13   CASTOR_HAD   0.00171058   0.00171058   0.00171058   0.00171058   560000BD
   -1   12   14   CASTOR_HAD   0.00613358   0.00613358   0.00613358   0.00613358   560000BE
   -1   13    1    CASTOR_EM    0.0198376    0.0198376    0.0198376    0.0198376   560000C1
   -1   13    2    CASTOR_EM    0.0203904    0.0203904    0.0203904    0.0203904   560000C2
   -1   13    3   CASTOR_HAD    0.0710023    0.0710023    0.0710023    0.0710023   560000C3
   -1   13    4   CASTOR_HAD     0.035748     0.035748     0.035748     0.035748   560000C4
   -1   13    5   CASTOR_HAD   0.00642811   0.00642811   0.00642811   0.00642811   560000C5
   -1   13    6   CASTOR_HAD    0.0413037    0.0413037    0.0413037    0.0413037   560000C6
   -1   13    7   CASTOR_HAD         -nan         -nan         -nan         -nan   560000C7
   -1   13    8   CASTOR_HAD      3.18039      3.18039      3.18039      3.18039   560000C8
   -1   13    9   CASTOR_HAD   0.00494556   0.00494556   0.00494556   0.00494556   560000C9
   -1   13   10   CASTOR_HAD   0.00466449   0.00466449   0.00466449   0.00466449   560000CA
   -1   13   11   CASTOR_HAD     0.101189     0.101189     0.101189     0.101189   560000CB
   -1   13   12   CASTOR_HAD     0.022935     0.022935     0.022935     0.022935   560000CC
   -1   13   13   CASTOR_HAD   0.00629285   0.00629285   0.00629285   0.00629285   560000CD
   -1   13   14   CASTOR_HAD    0.0177037    0.0177037    0.0177037    0.0177037   560000CE
   -1   14    1    CASTOR_EM    0.0187432    0.0187432    0.0187432    0.0187432   560000D1
   -1   14    2    CASTOR_EM    0.0175334    0.0175334    0.0175334    0.0175334   560000D2
   -1   14    3   CASTOR_HAD    0.0356824    0.0356824    0.0356824    0.0356824   560000D3
   -1   14    4   CASTOR_HAD     0.014211     0.014211     0.014211     0.014211   560000D4
   -1   14    5   CASTOR_HAD    0.0050788    0.0050788    0.0050788    0.0050788   560000D5
   -1   14    6   CASTOR_HAD     0.022426     0.022426     0.022426     0.022426   560000D6
   -1   14    7   CASTOR_HAD         -nan         -nan         -nan         -nan   560000D7
   -1   14    8   CASTOR_HAD     0.414654     0.414654     0.414654     0.414654   560000D8
   -1   14    9   CASTOR_HAD   0.00454384   0.00454384   0.00454384   0.00454384   560000D9
   -1   14   10   CASTOR_HAD   0.00654134   0.00654134   0.00654134   0.00654134   560000DA
   -1   14   11   CASTOR_HAD    0.0827084    0.0827084    0.0827084    0.0827084   560000DB
   -1   14   12   CASTOR_HAD   0.00891577   0.00891577   0.00891577   0.00891577   560000DC
   -1   14   13   CASTOR_HAD   0.00864759   0.00864759   0.00864759   0.00864759   560000DD
   -1   14   14   CASTOR_HAD   0.00944327   0.00944327   0.00944327   0.00944327   560000DE
   -1   15    1    CASTOR_EM   0.00966562   0.00966562   0.00966562   0.00966562   560000E1
   -1   15    2    CASTOR_EM    0.0204518    0.0204518    0.0204518    0.0204518   560000E2
   -1   15    3   CASTOR_HAD    0.0201104    0.0201104    0.0201104    0.0201104   560000E3
   -1   15    4   CASTOR_HAD     0.022619     0.022619     0.022619     0.022619   560000E4
   -1   15    5   CASTOR_HAD   0.00490068   0.00490068   0.00490068   0.00490068   560000E5
   -1   15    6   CASTOR_HAD    0.0889446    0.0889446    0.0889446    0.0889446   560000E6
   -1   15    7   CASTOR_HAD         -nan         -nan         -nan         -nan   560000E7
   -1   15    8   CASTOR_HAD    0.0765734    0.0765734    0.0765734    0.0765734   560000E8
   -1   15    9   CASTOR_HAD   0.00430898   0.00430898   0.00430898   0.00430898   560000E9
   -1   15   10   CASTOR_HAD    0.0054369    0.0054369    0.0054369    0.0054369   560000EA
   -1   15   11   CASTOR_HAD     0.001525     0.001525     0.001525     0.001525   560000EB
   -1   15   12   CASTOR_HAD   0.00418017   0.00418017   0.00418017   0.00418017   560000EC
   -1   15   13   CASTOR_HAD    0.0101505    0.0101505    0.0101505    0.0101505   560000ED
   -1   15   14   CASTOR_HAD   0.00709336   0.00709336   0.00709336   0.00709336   560000EE
   -1   16    1    CASTOR_EM     0.045689     0.045689     0.045689     0.045689   560000F1
   -1   16    2    CASTOR_EM    0.0138203    0.0138203    0.0138203    0.0138203   560000F2
   -1   16    3   CASTOR_HAD    0.0420418    0.0420418    0.0420418    0.0420418   560000F3
   -1   16    4   CASTOR_HAD     0.022011     0.022011     0.022011     0.022011   560000F4
   -1   16    5   CASTOR_HAD   0.00414114   0.00414114   0.00414114   0.00414114   560000F5
   -1   16    6   CASTOR_HAD    0.0169682    0.0169682    0.0169682    0.0169682   560000F6
   -1   16    7   CASTOR_HAD    0.0778163    0.0778163    0.0778163    0.0778163   560000F7
   -1   16    8   CASTOR_HAD   0.00963274   0.00963274   0.00963274   0.00963274   560000F8
   -1   16    9   CASTOR_HAD   0.00325435   0.00325435   0.00325435   0.00325435   560000F9
   -1   16   10   CASTOR_HAD   0.00359014   0.00359014   0.00359014   0.00359014   560000FA
   -1   16   11   CASTOR_HAD   0.00340621   0.00340621   0.00340621   0.00340621   560000FB
   -1   16   12   CASTOR_HAD   0.00290853   0.00290853   0.00290853   0.00290853   560000FC
   -1   16   13   CASTOR_HAD   0.00474033   0.00474033   0.00474033   0.00474033   560000FD
   -1   16   14   CASTOR_HAD   0.00298541   0.00298541   0.00298541   0.00298541   560000FE
