   -1    1    1    CASTOR_EM     0.020984     0.020984     0.020984     0.020984   56000001
   -1    1    2    CASTOR_EM    0.0171197    0.0171197    0.0171197    0.0171197   56000002
   -1    1    3   CASTOR_HAD    0.0343197    0.0343197    0.0343197    0.0343197   56000003
   -1    1    4   CASTOR_HAD    0.0138191    0.0138191    0.0138191    0.0138191   56000004
   -1    1    5   CASTOR_HAD  0.000615644  0.000615644  0.000615644  0.000615644   56000005
   -1    1    6   CASTOR_HAD   0.00173245   0.00173245   0.00173245   0.00173245   56000006
   -1    1    7   CASTOR_HAD    -0.277411    -0.277411    -0.277411    -0.277411   56000007
   -1    1    8   CASTOR_HAD  0.000863675  0.000863675  0.000863675  0.000863675   56000008
   -1    1    9   CASTOR_HAD  0.000599141  0.000599141  0.000599141  0.000599141   56000009
   -1    1   10   CASTOR_HAD   0.00100871   0.00100871   0.00100871   0.00100871   5600000A
   -1    1   11   CASTOR_HAD   0.00123462   0.00123462   0.00123462   0.00123462   5600000B
   -1    1   12   CASTOR_HAD  0.000653521  0.000653521  0.000653521  0.000653521   5600000C
   -1    1   13   CASTOR_HAD   0.00126438   0.00126438   0.00126438   0.00126438   5600000D
   -1    1   14   CASTOR_HAD  0.000650097  0.000650097  0.000650097  0.000650097   5600000E
   -1    2    1    CASTOR_EM    0.0297036    0.0297036    0.0297036    0.0297036   56000011
   -1    2    2    CASTOR_EM    0.0140328    0.0140328    0.0140328    0.0140328   56000012
   -1    2    3   CASTOR_HAD    0.0477767    0.0477767    0.0477767    0.0477767   56000013
   -1    2    4   CASTOR_HAD     0.026357     0.026357     0.026357     0.026357   56000014
   -1    2    5   CASTOR_HAD   0.00120169   0.00120169   0.00120169   0.00120169   56000015
   -1    2    6   CASTOR_HAD   0.00521386   0.00521386   0.00521386   0.00521386   56000016
   -1    2    7   CASTOR_HAD    -0.258874    -0.258874    -0.258874    -0.258874   56000017
   -1    2    8   CASTOR_HAD   0.00124232   0.00124232   0.00124232   0.00124232   56000018
   -1    2    9   CASTOR_HAD  0.000696367  0.000696367  0.000696367  0.000696367   56000019
   -1    2   10   CASTOR_HAD   0.00132579   0.00132579   0.00132579   0.00132579   5600001A
   -1    2   11   CASTOR_HAD   0.00118715   0.00118715   0.00118715   0.00118715   5600001B
   -1    2   12   CASTOR_HAD    0.0020046    0.0020046    0.0020046    0.0020046   5600001C
   -1    2   13   CASTOR_HAD   0.00239124   0.00239124   0.00239124   0.00239124   5600001D
   -1    2   14   CASTOR_HAD   0.00064984   0.00064984   0.00064984   0.00064984   5600001E
   -1    3    1    CASTOR_EM    0.0209074    0.0209074    0.0209074    0.0209074   56000021
   -1    3    2    CASTOR_EM    0.0111498    0.0111498    0.0111498    0.0111498   56000022
   -1    3    3   CASTOR_HAD    0.0402679    0.0402679    0.0402679    0.0402679   56000023
   -1    3    4   CASTOR_HAD      0.01674      0.01674      0.01674      0.01674   56000024
   -1    3    5   CASTOR_HAD  0.000937422  0.000937422  0.000937422  0.000937422   56000025
   -1    3    6   CASTOR_HAD   0.00173552   0.00173552   0.00173552   0.00173552   56000026
   -1    3    7   CASTOR_HAD    -0.210955    -0.210955    -0.210955    -0.210955   56000027
   -1    3    8   CASTOR_HAD    0.0255678    0.0255678    0.0255678    0.0255678   56000028
   -1    3    9   CASTOR_HAD   0.00126944   0.00126944   0.00126944   0.00126944   56000029
   -1    3   10   CASTOR_HAD    0.0014604    0.0014604    0.0014604    0.0014604   5600002A
   -1    3   11   CASTOR_HAD  -0.00432682  -0.00432682  -0.00432682  -0.00432682   5600002B
   -1    3   12   CASTOR_HAD   0.00152541   0.00152541   0.00152541   0.00152541   5600002C
   -1    3   13   CASTOR_HAD   0.00129496   0.00129496   0.00129496   0.00129496   5600002D
   -1    3   14   CASTOR_HAD   0.00108273   0.00108273   0.00108273   0.00108273   5600002E
   -1    4    1    CASTOR_EM    0.0412628    0.0412628    0.0412628    0.0412628   56000031
   -1    4    2    CASTOR_EM    0.0139658    0.0139658    0.0139658    0.0139658   56000032
   -1    4    3   CASTOR_HAD    0.0245599    0.0245599    0.0245599    0.0245599   56000033
   -1    4    4   CASTOR_HAD    0.0165033    0.0165033    0.0165033    0.0165033   56000034
   -1    4    5   CASTOR_HAD    0.0004967    0.0004967    0.0004967    0.0004967   56000035
   -1    4    6   CASTOR_HAD    0.0034147    0.0034147    0.0034147    0.0034147   56000036
   -1    4    7   CASTOR_HAD    -0.170207    -0.170207    -0.170207    -0.170207   56000037
   -1    4    8   CASTOR_HAD     0.154761     0.154761     0.154761     0.154761   56000038
   -1    4    9   CASTOR_HAD     -1.75017     -1.75017     -1.75017     -1.75017   56000039
   -1    4   10   CASTOR_HAD   0.00122866   0.00122866   0.00122866   0.00122866   5600003A
   -1    4   11   CASTOR_HAD  0.000849826  0.000849826  0.000849826  0.000849826   5600003B
   -1    4   12   CASTOR_HAD  0.000647599  0.000647599  0.000647599  0.000647599   5600003C
   -1    4   13   CASTOR_HAD  0.000214767  0.000214767  0.000214767  0.000214767   5600003D
   -1    4   14   CASTOR_HAD  0.000913925  0.000913925  0.000913925  0.000913925   5600003E
   -1    5    1    CASTOR_EM    0.0234343    0.0234343    0.0234343    0.0234343   56000041
   -1    5    2    CASTOR_EM    0.0159084    0.0159084    0.0159084    0.0159084   56000042
   -1    5    3   CASTOR_HAD    0.0369192    0.0369192    0.0369192    0.0369192   56000043
   -1    5    4   CASTOR_HAD    0.0169709    0.0169709    0.0169709    0.0169709   56000044
   -1    5    5   CASTOR_HAD  0.000651206  0.000651206  0.000651206  0.000651206   56000045
   -1    5    6   CASTOR_HAD   0.00204464   0.00204464   0.00204464   0.00204464   56000046
   -1    5    7   CASTOR_HAD    0.0126402    0.0126402    0.0126402    0.0126402   56000047
   -1    5    8   CASTOR_HAD    -0.553761    -0.553761    -0.553761    -0.553761   56000048
   -1    5    9   CASTOR_HAD     -1.31682     -1.31682     -1.31682     -1.31682   56000049
   -1    5   10   CASTOR_HAD   0.00160087   0.00160087   0.00160087   0.00160087   5600004A
   -1    5   11   CASTOR_HAD  0.000953408  0.000953408  0.000953408  0.000953408   5600004B
   -1    5   12   CASTOR_HAD  0.000920116  0.000920116  0.000920116  0.000920116   5600004C
   -1    5   13   CASTOR_HAD   0.00130092   0.00130092   0.00130092   0.00130092   5600004D
   -1    5   14   CASTOR_HAD   0.00102058   0.00102058   0.00102058   0.00102058   5600004E
   -1    6    1    CASTOR_EM    0.0238599    0.0238599    0.0238599    0.0238599   56000051
   -1    6    2    CASTOR_EM    0.0172369    0.0172369    0.0172369    0.0172369   56000052
   -1    6    3   CASTOR_HAD    0.0203682    0.0203682    0.0203682    0.0203682   56000053
   -1    6    4   CASTOR_HAD   0.00814416   0.00814416   0.00814416   0.00814416   56000054
   -1    6    5   CASTOR_HAD  0.000625274  0.000625274  0.000625274  0.000625274   56000055
   -1    6    6   CASTOR_HAD   0.00391169   0.00391169   0.00391169   0.00391169   56000056
   -1    6    7   CASTOR_HAD    0.0364943    0.0364943    0.0364943    0.0364943   56000057
   -1    6    8   CASTOR_HAD     0.336092     0.336092     0.336092     0.336092   56000058
   -1    6    9   CASTOR_HAD    0.0014811    0.0014811    0.0014811    0.0014811   56000059
   -1    6   10   CASTOR_HAD    0.0019235    0.0019235    0.0019235    0.0019235   5600005A
   -1    6   11   CASTOR_HAD  0.000840068  0.000840068  0.000840068  0.000840068   5600005B
   -1    6   12   CASTOR_HAD  0.000234904  0.000234904  0.000234904  0.000234904   5600005C
   -1    6   13   CASTOR_HAD   0.00435807   0.00435807   0.00435807   0.00435807   5600005D
   -1    6   14   CASTOR_HAD   0.00130943   0.00130943   0.00130943   0.00130943   5600005E
   -1    7    1    CASTOR_EM    0.0172289    0.0172289    0.0172289    0.0172289   56000061
   -1    7    2    CASTOR_EM    0.0238102    0.0238102    0.0238102    0.0238102   56000062
   -1    7    3   CASTOR_HAD    0.0362427    0.0362427    0.0362427    0.0362427   56000063
   -1    7    4   CASTOR_HAD    0.0172339    0.0172339    0.0172339    0.0172339   56000064
   -1    7    5   CASTOR_HAD  0.000638651  0.000638651  0.000638651  0.000638651   56000065
   -1    7    6   CASTOR_HAD  0.000990285  0.000990285  0.000990285  0.000990285   56000066
   -1    7    7   CASTOR_HAD      1.15944      1.15944      1.15944      1.15944   56000067
   -1    7    8   CASTOR_HAD    0.0124877    0.0124877    0.0124877    0.0124877   56000068
   -1    7    9   CASTOR_HAD   0.00175918   0.00175918   0.00175918   0.00175918   56000069
   -1    7   10   CASTOR_HAD   0.00589989   0.00589989   0.00589989   0.00589989   5600006A
   -1    7   11   CASTOR_HAD   0.00226696   0.00226696   0.00226696   0.00226696   5600006B
   -1    7   12   CASTOR_HAD    0.0231139    0.0231139    0.0231139    0.0231139   5600006C
   -1    7   13   CASTOR_HAD    0.0194707    0.0194707    0.0194707    0.0194707   5600006D
   -1    7   14   CASTOR_HAD    0.0824804    0.0824804    0.0824804    0.0824804   5600006E
   -1    8    1    CASTOR_EM    0.0099192    0.0099192    0.0099192    0.0099192   56000071
   -1    8    2    CASTOR_EM    0.0107377    0.0107377    0.0107377    0.0107377   56000072
   -1    8    3   CASTOR_HAD     0.033354     0.033354     0.033354     0.033354   56000073
   -1    8    4   CASTOR_HAD     0.031724     0.031724     0.031724     0.031724   56000074
   -1    8    5   CASTOR_HAD  0.000773072  0.000773072  0.000773072  0.000773072   56000075
   -1    8    6   CASTOR_HAD   0.00556712   0.00556712   0.00556712   0.00556712   56000076
   -1    8    7   CASTOR_HAD   -0.0570806   -0.0570806   -0.0570806   -0.0570806   56000077
   -1    8    8   CASTOR_HAD  0.000589388  0.000589388  0.000589388  0.000589388   56000078
   -1    8    9   CASTOR_HAD  0.000760077  0.000760077  0.000760077  0.000760077   56000079
   -1    8   10   CASTOR_HAD    0.0136083    0.0136083    0.0136083    0.0136083   5600007A
   -1    8   11   CASTOR_HAD    0.0378527    0.0378527    0.0378527    0.0378527   5600007B
   -1    8   12   CASTOR_HAD    0.0127927    0.0127927    0.0127927    0.0127927   5600007C
   -1    8   13   CASTOR_HAD   0.00787278   0.00787278   0.00787278   0.00787278   5600007D
   -1    8   14   CASTOR_HAD   0.00339462   0.00339462   0.00339462   0.00339462   5600007E
   -1    9    1    CASTOR_EM    0.0198666    0.0198666    0.0198666    0.0198666   56000081
   -1    9    2    CASTOR_EM    0.0306602    0.0306602    0.0306602    0.0306602   56000082
   -1    9    3   CASTOR_HAD    0.0300911    0.0300911    0.0300911    0.0300911   56000083
   -1    9    4   CASTOR_HAD    0.0183592    0.0183592    0.0183592    0.0183592   56000084
   -1    9    5   CASTOR_HAD  0.000846943  0.000846943  0.000846943  0.000846943   56000085
   -1    9    6   CASTOR_HAD    0.0041022    0.0041022    0.0041022    0.0041022   56000086
   -1    9    7   CASTOR_HAD    -0.458339    -0.458339    -0.458339    -0.458339   56000087
   -1    9    8   CASTOR_HAD  0.000757597  0.000757597  0.000757597  0.000757597   56000088
   -1    9    9   CASTOR_HAD  0.000798625  0.000798625  0.000798625  0.000798625   56000089
   -1    9   10   CASTOR_HAD   0.00103365   0.00103365   0.00103365   0.00103365   5600008A
   -1    9   11   CASTOR_HAD  0.000713697  0.000713697  0.000713697  0.000713697   5600008B
   -1    9   12   CASTOR_HAD  0.000976259  0.000976259  0.000976259  0.000976259   5600008C
   -1    9   13   CASTOR_HAD  0.000914167  0.000914167  0.000914167  0.000914167   5600008D
   -1    9   14   CASTOR_HAD   0.00117012   0.00117012   0.00117012   0.00117012   5600008E
   -1   10    1    CASTOR_EM    0.0210565    0.0210565    0.0210565    0.0210565   56000091
   -1   10    2    CASTOR_EM    0.0296057    0.0296057    0.0296057    0.0296057   56000092
   -1   10    3   CASTOR_HAD    0.0492591    0.0492591    0.0492591    0.0492591   56000093
   -1   10    4   CASTOR_HAD     0.020679     0.020679     0.020679     0.020679   56000094
   -1   10    5   CASTOR_HAD   0.00101803   0.00101803   0.00101803   0.00101803   56000095
   -1   10    6   CASTOR_HAD    0.0141823    0.0141823    0.0141823    0.0141823   56000096
   -1   10    7   CASTOR_HAD    -0.664791    -0.664791    -0.664791    -0.664791   56000097
   -1   10    8   CASTOR_HAD   0.00109105   0.00109105   0.00109105   0.00109105   56000098
   -1   10    9   CASTOR_HAD  0.000702141  0.000702141  0.000702141  0.000702141   56000099
   -1   10   10   CASTOR_HAD   0.00109235   0.00109235   0.00109235   0.00109235   5600009A
   -1   10   11   CASTOR_HAD   0.00058926   0.00058926   0.00058926   0.00058926   5600009B
   -1   10   12   CASTOR_HAD  0.000636267  0.000636267  0.000636267  0.000636267   5600009C
   -1   10   13   CASTOR_HAD   0.00118097   0.00118097   0.00118097   0.00118097   5600009D
   -1   10   14   CASTOR_HAD   0.00107751   0.00107751   0.00107751   0.00107751   5600009E
   -1   11    1    CASTOR_EM    0.0219253    0.0219253    0.0219253    0.0219253   560000A1
   -1   11    2    CASTOR_EM    0.0207054    0.0207054    0.0207054    0.0207054   560000A2
   -1   11    3   CASTOR_HAD    0.0340842    0.0340842    0.0340842    0.0340842   560000A3
   -1   11    4   CASTOR_HAD     0.020679     0.020679     0.020679     0.020679   560000A4
   -1   11    5   CASTOR_HAD  0.000742075  0.000742075  0.000742075  0.000742075   560000A5
   -1   11    6   CASTOR_HAD   0.00277292   0.00277292   0.00277292   0.00277292   560000A6
   -1   11    7   CASTOR_HAD    -0.268741    -0.268741    -0.268741    -0.268741   560000A7
   -1   11    8   CASTOR_HAD    0.0263409    0.0263409    0.0263409    0.0263409   560000A8
   -1   11    9   CASTOR_HAD   0.00148829   0.00148829   0.00148829   0.00148829   560000A9
   -1   11   10   CASTOR_HAD   0.00100571   0.00100571   0.00100571   0.00100571   560000AA
   -1   11   11   CASTOR_HAD    0.0334656    0.0334656    0.0334656    0.0334656   560000AB
   -1   11   12   CASTOR_HAD   0.00149957   0.00149957   0.00149957   0.00149957   560000AC
   -1   11   13   CASTOR_HAD   0.00209626   0.00209626   0.00209626   0.00209626   560000AD
   -1   11   14   CASTOR_HAD    0.0012224    0.0012224    0.0012224    0.0012224   560000AE
   -1   12    1    CASTOR_EM    0.0249194    0.0249194    0.0249194    0.0249194   560000B1
   -1   12    2    CASTOR_EM    0.0218501    0.0218501    0.0218501    0.0218501   560000B2
   -1   12    3   CASTOR_HAD    0.0408238    0.0408238    0.0408238    0.0408238   560000B3
   -1   12    4   CASTOR_HAD    0.0300212    0.0300212    0.0300212    0.0300212   560000B4
   -1   12    5   CASTOR_HAD  0.000783655  0.000783655  0.000783655  0.000783655   560000B5
   -1   12    6   CASTOR_HAD   0.00411556   0.00411556   0.00411556   0.00411556   560000B6
   -1   12    7   CASTOR_HAD     0.125781     0.125781     0.125781     0.125781   560000B7
   -1   12    8   CASTOR_HAD     0.223695     0.223695     0.223695     0.223695   560000B8
   -1   12    9   CASTOR_HAD   0.00243935   0.00243935   0.00243935   0.00243935   560000B9
   -1   12   10   CASTOR_HAD   0.00102834   0.00102834   0.00102834   0.00102834   560000BA
   -1   12   11   CASTOR_HAD    0.0273332    0.0273332    0.0273332    0.0273332   560000BB
   -1   12   12   CASTOR_HAD   0.00145402   0.00145402   0.00145402   0.00145402   560000BC
   -1   12   13   CASTOR_HAD  0.000717908  0.000717908  0.000717908  0.000717908   560000BD
   -1   12   14   CASTOR_HAD    0.0011794    0.0011794    0.0011794    0.0011794   560000BE
   -1   13    1    CASTOR_EM    0.0152682    0.0152682    0.0152682    0.0152682   560000C1
   -1   13    2    CASTOR_EM    0.0230882    0.0230882    0.0230882    0.0230882   560000C2
   -1   13    3   CASTOR_HAD    0.0377731    0.0377731    0.0377731    0.0377731   560000C3
   -1   13    4   CASTOR_HAD    0.0198272    0.0198272    0.0198272    0.0198272   560000C4
   -1   13    5   CASTOR_HAD   0.00108676   0.00108676   0.00108676   0.00108676   560000C5
   -1   13    6   CASTOR_HAD    0.0147001    0.0147001    0.0147001    0.0147001   560000C6
   -1   13    7   CASTOR_HAD    -0.355582    -0.355582    -0.355582    -0.355582   560000C7
   -1   13    8   CASTOR_HAD    -0.183127    -0.183127    -0.183127    -0.183127   560000C8
   -1   13    9   CASTOR_HAD   0.00101635   0.00101635   0.00101635   0.00101635   560000C9
   -1   13   10   CASTOR_HAD   0.00127752   0.00127752   0.00127752   0.00127752   560000CA
   -1   13   11   CASTOR_HAD    0.0236698    0.0236698    0.0236698    0.0236698   560000CB
   -1   13   12   CASTOR_HAD   0.00121574   0.00121574   0.00121574   0.00121574   560000CC
   -1   13   13   CASTOR_HAD  0.000922885  0.000922885  0.000922885  0.000922885   560000CD
   -1   13   14   CASTOR_HAD   0.00108585   0.00108585   0.00108585   0.00108585   560000CE
   -1   14    1    CASTOR_EM    0.0189238    0.0189238    0.0189238    0.0189238   560000D1
   -1   14    2    CASTOR_EM     0.023726     0.023726     0.023726     0.023726   560000D2
   -1   14    3   CASTOR_HAD    0.0392175    0.0392175    0.0392175    0.0392175   560000D3
   -1   14    4   CASTOR_HAD    0.0215613    0.0215613    0.0215613    0.0215613   560000D4
   -1   14    5   CASTOR_HAD  0.000682304  0.000682304  0.000682304  0.000682304   560000D5
   -1   14    6   CASTOR_HAD    0.0104364    0.0104364    0.0104364    0.0104364   560000D6
   -1   14    7   CASTOR_HAD    -0.285997    -0.285997    -0.285997    -0.285997   560000D7
   -1   14    8   CASTOR_HAD    -0.364761    -0.364761    -0.364761    -0.364761   560000D8
   -1   14    9   CASTOR_HAD  0.000884336  0.000884336  0.000884336  0.000884336   560000D9
   -1   14   10   CASTOR_HAD   0.00110834   0.00110834   0.00110834   0.00110834   560000DA
   -1   14   11   CASTOR_HAD    0.0542726    0.0542726    0.0542726    0.0542726   560000DB
   -1   14   12   CASTOR_HAD   0.00119113   0.00119113   0.00119113   0.00119113   560000DC
   -1   14   13   CASTOR_HAD    0.0013897    0.0013897    0.0013897    0.0013897   560000DD
   -1   14   14   CASTOR_HAD  0.000942733  0.000942733  0.000942733  0.000942733   560000DE
   -1   15    1    CASTOR_EM    0.0170053    0.0170053    0.0170053    0.0170053   560000E1
   -1   15    2    CASTOR_EM    0.0256573    0.0256573    0.0256573    0.0256573   560000E2
   -1   15    3   CASTOR_HAD    0.0422812    0.0422812    0.0422812    0.0422812   560000E3
   -1   15    4   CASTOR_HAD    0.0261264    0.0261264    0.0261264    0.0261264   560000E4
   -1   15    5   CASTOR_HAD  0.000852611  0.000852611  0.000852611  0.000852611   560000E5
   -1   15    6   CASTOR_HAD   0.00237956   0.00237956   0.00237956   0.00237956   560000E6
   -1   15    7   CASTOR_HAD    -0.393878    -0.393878    -0.393878    -0.393878   560000E7
   -1   15    8   CASTOR_HAD   0.00240941   0.00240941   0.00240941   0.00240941   560000E8
   -1   15    9   CASTOR_HAD  0.000735818  0.000735818  0.000735818  0.000735818   560000E9
   -1   15   10   CASTOR_HAD  0.000746262  0.000746262  0.000746262  0.000746262   560000EA
   -1   15   11   CASTOR_HAD  0.000276905  0.000276905  0.000276905  0.000276905   560000EB
   -1   15   12   CASTOR_HAD   0.00106024   0.00106024   0.00106024   0.00106024   560000EC
   -1   15   13   CASTOR_HAD  0.000921113  0.000921113  0.000921113  0.000921113   560000ED
   -1   15   14   CASTOR_HAD   0.00126416   0.00126416   0.00126416   0.00126416   560000EE
   -1   16    1    CASTOR_EM    0.0194801    0.0194801    0.0194801    0.0194801   560000F1
   -1   16    2    CASTOR_EM    0.0154709    0.0154709    0.0154709    0.0154709   560000F2
   -1   16    3   CASTOR_HAD    0.0321978    0.0321978    0.0321978    0.0321978   560000F3
   -1   16    4   CASTOR_HAD    0.0212281    0.0212281    0.0212281    0.0212281   560000F4
   -1   16    5   CASTOR_HAD  0.000941607  0.000941607  0.000941607  0.000941607   560000F5
   -1   16    6   CASTOR_HAD -0.000751527 -0.000751527 -0.000751527 -0.000751527   560000F6
   -1   16    7   CASTOR_HAD      0.11283      0.11283      0.11283      0.11283   560000F7
   -1   16    8   CASTOR_HAD  0.000909965  0.000909965  0.000909965  0.000909965   560000F8
   -1   16    9   CASTOR_HAD  0.000842998  0.000842998  0.000842998  0.000842998   560000F9
   -1   16   10   CASTOR_HAD   0.00104264   0.00104264   0.00104264   0.00104264   560000FA
   -1   16   11   CASTOR_HAD  0.000547402  0.000547402  0.000547402  0.000547402   560000FB
   -1   16   12   CASTOR_HAD  0.000560004  0.000560004  0.000560004  0.000560004   560000FC
   -1   16   13   CASTOR_HAD   0.00117819   0.00117819   0.00117819   0.00117819   560000FD
   -1   16   14   CASTOR_HAD  0.000965517  0.000965517  0.000965517  0.000965517   560000FE
