   -1    1    1    CASTOR_EM    0.0326775    0.0326775    0.0326775    0.0326775   56000001
   -1    1    2    CASTOR_EM    0.0256919    0.0256919    0.0256919    0.0256919   56000002
   -1    1    3   CASTOR_HAD     0.021813     0.021813     0.021813     0.021813   56000003
   -1    1    4   CASTOR_HAD    0.0107628    0.0107628    0.0107628    0.0107628   56000004
   -1    1    5   CASTOR_HAD   0.00140122   0.00140122   0.00140122   0.00140122   56000005
   -1    1    6   CASTOR_HAD   0.00174337   0.00174337   0.00174337   0.00174337   56000006
   -1    1    7   CASTOR_HAD  0.000923212  0.000923212  0.000923212  0.000923212   56000007
   -1    1    8   CASTOR_HAD  0.000697294  0.000697294  0.000697294  0.000697294   56000008
   -1    1    9   CASTOR_HAD  0.000618729  0.000618729  0.000618729  0.000618729   56000009
   -1    1   10   CASTOR_HAD   0.00141733   0.00141733   0.00141733   0.00141733   5600000A
   -1    1   11   CASTOR_HAD   0.00145866   0.00145866   0.00145866   0.00145866   5600000B
   -1    1   12   CASTOR_HAD  0.000945803  0.000945803  0.000945803  0.000945803   5600000C
   -1    1   13   CASTOR_HAD   0.00196674   0.00196674   0.00196674   0.00196674   5600000D
   -1    1   14   CASTOR_HAD  0.000810628  0.000810628  0.000810628  0.000810628   5600000E
   -1    2    1    CASTOR_EM    0.0289678    0.0289678    0.0289678    0.0289678   56000011
   -1    2    2    CASTOR_EM    0.0240811    0.0240811    0.0240811    0.0240811   56000012
   -1    2    3   CASTOR_HAD     0.023527     0.023527     0.023527     0.023527   56000013
   -1    2    4   CASTOR_HAD    0.0107851    0.0107851    0.0107851    0.0107851   56000014
   -1    2    5   CASTOR_HAD   0.00148126   0.00148126   0.00148126   0.00148126   56000015
   -1    2    6   CASTOR_HAD   0.00180098   0.00180098   0.00180098   0.00180098   56000016
   -1    2    7   CASTOR_HAD   0.00105913   0.00105913   0.00105913   0.00105913   56000017
   -1    2    8   CASTOR_HAD  0.000759241  0.000759241  0.000759241  0.000759241   56000018
   -1    2    9   CASTOR_HAD  0.000891698  0.000891698  0.000891698  0.000891698   56000019
   -1    2   10   CASTOR_HAD  3.72649e-06  3.72649e-06  3.72649e-06  3.72649e-06   5600001A
   -1    2   11   CASTOR_HAD    0.0015589    0.0015589    0.0015589    0.0015589   5600001B
   -1    2   12   CASTOR_HAD   0.00268838   0.00268838   0.00268838   0.00268838   5600001C
   -1    2   13   CASTOR_HAD   0.00249218   0.00249218   0.00249218   0.00249218   5600001D
   -1    2   14   CASTOR_HAD   0.00109691   0.00109691   0.00109691   0.00109691   5600001E
   -1    3    1    CASTOR_EM    0.0344645    0.0344645    0.0344645    0.0344645   56000021
   -1    3    2    CASTOR_EM    0.0213922    0.0213922    0.0213922    0.0213922   56000022
   -1    3    3   CASTOR_HAD    0.0195523    0.0195523    0.0195523    0.0195523   56000023
   -1    3    4   CASTOR_HAD    0.0115383    0.0115383    0.0115383    0.0115383   56000024
   -1    3    5   CASTOR_HAD   0.00163727   0.00163727   0.00163727   0.00163727   56000025
   -1    3    6   CASTOR_HAD   0.00165438   0.00165438   0.00165438   0.00165438   56000026
   -1    3    7   CASTOR_HAD   0.00116022   0.00116022   0.00116022   0.00116022   56000027
   -1    3    8   CASTOR_HAD  0.000884592  0.000884592  0.000884592  0.000884592   56000028
   -1    3    9   CASTOR_HAD  0.000776459  0.000776459  0.000776459  0.000776459   56000029
   -1    3   10   CASTOR_HAD  0.000996603  0.000996603  0.000996603  0.000996603   5600002A
   -1    3   11   CASTOR_HAD    0.0042915    0.0042915    0.0042915    0.0042915   5600002B
   -1    3   12   CASTOR_HAD   0.00239428   0.00239428   0.00239428   0.00239428   5600002C
   -1    3   13   CASTOR_HAD   0.00248427   0.00248427   0.00248427   0.00248427   5600002D
   -1    3   14   CASTOR_HAD   0.00159886   0.00159886   0.00159886   0.00159886   5600002E
   -1    4    1    CASTOR_EM    0.0517405    0.0517405    0.0517405    0.0517405   56000031
   -1    4    2    CASTOR_EM    0.0232544    0.0232544    0.0232544    0.0232544   56000032
   -1    4    3   CASTOR_HAD    0.0199148    0.0199148    0.0199148    0.0199148   56000033
   -1    4    4   CASTOR_HAD    0.0104105    0.0104105    0.0104105    0.0104105   56000034
   -1    4    5   CASTOR_HAD   0.00134031   0.00134031   0.00134031   0.00134031   56000035
   -1    4    6   CASTOR_HAD   0.00156747   0.00156747   0.00156747   0.00156747   56000036
   -1    4    7   CASTOR_HAD   0.00141252   0.00141252   0.00141252   0.00141252   56000037
   -1    4    8   CASTOR_HAD   0.00106941   0.00106941   0.00106941   0.00106941   56000038
   -1    4    9   CASTOR_HAD  0.000787823  0.000787823  0.000787823  0.000787823   56000039
   -1    4   10   CASTOR_HAD   0.00140411   0.00140411   0.00140411   0.00140411   5600003A
   -1    4   11   CASTOR_HAD    0.0016234    0.0016234    0.0016234    0.0016234   5600003B
   -1    4   12   CASTOR_HAD    0.0012653    0.0012653    0.0012653    0.0012653   5600003C
   -1    4   13   CASTOR_HAD   0.00060781   0.00060781   0.00060781   0.00060781   5600003D
   -1    4   14   CASTOR_HAD   0.00166883   0.00166883   0.00166883   0.00166883   5600003E
   -1    5    1    CASTOR_EM    0.0350455    0.0350455    0.0350455    0.0350455   56000041
   -1    5    2    CASTOR_EM    0.0227454    0.0227454    0.0227454    0.0227454   56000042
   -1    5    3   CASTOR_HAD    0.0286804    0.0286804    0.0286804    0.0286804   56000043
   -1    5    4   CASTOR_HAD    0.0130407    0.0130407    0.0130407    0.0130407   56000044
   -1    5    5   CASTOR_HAD   0.00135314   0.00135314   0.00135314   0.00135314   56000045
   -1    5    6   CASTOR_HAD   0.00165081   0.00165081   0.00165081   0.00165081   56000046
   -1    5    7   CASTOR_HAD   0.00113138   0.00113138   0.00113138   0.00113138   56000047
   -1    5    8   CASTOR_HAD   0.00136883   0.00136883   0.00136883   0.00136883   56000048
   -1    5    9   CASTOR_HAD   0.00112109   0.00112109   0.00112109   0.00112109   56000049
   -1    5   10   CASTOR_HAD   0.00153013   0.00153013   0.00153013   0.00153013   5600004A
   -1    5   11   CASTOR_HAD   0.00120743   0.00120743   0.00120743   0.00120743   5600004B
   -1    5   12   CASTOR_HAD   0.00234839   0.00234839   0.00234839   0.00234839   5600004C
   -1    5   13   CASTOR_HAD   0.00255253   0.00255253   0.00255253   0.00255253   5600004D
   -1    5   14   CASTOR_HAD   0.00212647   0.00212647   0.00212647   0.00212647   5600004E
   -1    6    1    CASTOR_EM    0.0300938    0.0300938    0.0300938    0.0300938   56000051
   -1    6    2    CASTOR_EM    0.0253882    0.0253882    0.0253882    0.0253882   56000052
   -1    6    3   CASTOR_HAD    0.0175386    0.0175386    0.0175386    0.0175386   56000053
   -1    6    4   CASTOR_HAD   0.00863862   0.00863862   0.00863862   0.00863862   56000054
   -1    6    5   CASTOR_HAD   0.00145123   0.00145123   0.00145123   0.00145123   56000055
   -1    6    6   CASTOR_HAD   0.00155602   0.00155602   0.00155602   0.00155602   56000056
   -1    6    7   CASTOR_HAD   0.00131538   0.00131538   0.00131538   0.00131538   56000057
   -1    6    8   CASTOR_HAD   0.00135494   0.00135494   0.00135494   0.00135494   56000058
   -1    6    9   CASTOR_HAD    0.0013522    0.0013522    0.0013522    0.0013522   56000059
   -1    6   10   CASTOR_HAD   0.00128824   0.00128824   0.00128824   0.00128824   5600005A
   -1    6   11   CASTOR_HAD   0.00108233   0.00108233   0.00108233   0.00108233   5600005B
   -1    6   12   CASTOR_HAD  0.000624261  0.000624261  0.000624261  0.000624261   5600005C
   -1    6   13   CASTOR_HAD   0.00886299   0.00886299   0.00886299   0.00886299   5600005D
   -1    6   14   CASTOR_HAD   0.00201958   0.00201958   0.00201958   0.00201958   5600005E
   -1    7    1    CASTOR_EM    0.0197656    0.0197656    0.0197656    0.0197656   56000061
   -1    7    2    CASTOR_EM    0.0237497    0.0237497    0.0237497    0.0237497   56000062
   -1    7    3   CASTOR_HAD    0.0106008    0.0106008    0.0106008    0.0106008   56000063
   -1    7    4   CASTOR_HAD   0.00639871   0.00639871   0.00639871   0.00639871   56000064
   -1    7    5   CASTOR_HAD  0.000947769  0.000947769  0.000947769  0.000947769   56000065
   -1    7    6   CASTOR_HAD  0.000567294  0.000567294  0.000567294  0.000567294   56000066
   -1    7    7   CASTOR_HAD     0.001267     0.001267     0.001267     0.001267   56000067
   -1    7    8   CASTOR_HAD  0.000698676  0.000698676  0.000698676  0.000698676   56000068
   -1    7    9   CASTOR_HAD   0.00160757   0.00160757   0.00160757   0.00160757   56000069
   -1    7   10   CASTOR_HAD    0.0259431    0.0259431    0.0259431    0.0259431   5600006A
   -1    7   11   CASTOR_HAD    0.0486143    0.0486143    0.0486143    0.0486143   5600006B
   -1    7   12   CASTOR_HAD    0.0618785    0.0618785    0.0618785    0.0618785   5600006C
   -1    7   13   CASTOR_HAD   0.00525104   0.00525104   0.00525104   0.00525104   5600006D
   -1    7   14   CASTOR_HAD    0.0048876    0.0048876    0.0048876    0.0048876   5600006E
   -1    8    1    CASTOR_EM    0.0140192    0.0140192    0.0140192    0.0140192   56000071
   -1    8    2    CASTOR_EM    0.0155136    0.0155136    0.0155136    0.0155136   56000072
   -1    8    3   CASTOR_HAD    0.0141015    0.0141015    0.0141015    0.0141015   56000073
   -1    8    4   CASTOR_HAD    0.0100085    0.0100085    0.0100085    0.0100085   56000074
   -1    8    5   CASTOR_HAD   0.00144214   0.00144214   0.00144214   0.00144214   56000075
   -1    8    6   CASTOR_HAD  0.000813707  0.000813707  0.000813707  0.000813707   56000076
   -1    8    7   CASTOR_HAD   0.00124364   0.00124364   0.00124364   0.00124364   56000077
   -1    8    8   CASTOR_HAD  0.000972194  0.000972194  0.000972194  0.000972194   56000078
   -1    8    9   CASTOR_HAD   0.00134085   0.00134085   0.00134085   0.00134085   56000079
   -1    8   10   CASTOR_HAD    0.0526177    0.0526177    0.0526177    0.0526177   5600007A
   -1    8   11   CASTOR_HAD     0.097762     0.097762     0.097762     0.097762   5600007B
   -1    8   12   CASTOR_HAD    0.0346843    0.0346843    0.0346843    0.0346843   5600007C
   -1    8   13   CASTOR_HAD   0.00668715   0.00668715   0.00668715   0.00668715   5600007D
   -1    8   14   CASTOR_HAD   0.00143355   0.00143355   0.00143355   0.00143355   5600007E
   -1    9    1    CASTOR_EM    0.0304012    0.0304012    0.0304012    0.0304012   56000081
   -1    9    2    CASTOR_EM    0.0450489    0.0450489    0.0450489    0.0450489   56000082
   -1    9    3   CASTOR_HAD    0.0225137    0.0225137    0.0225137    0.0225137   56000083
   -1    9    4   CASTOR_HAD    0.0145816    0.0145816    0.0145816    0.0145816   56000084
   -1    9    5   CASTOR_HAD   0.00158895   0.00158895   0.00158895   0.00158895   56000085
   -1    9    6   CASTOR_HAD   0.00173497   0.00173497   0.00173497   0.00173497   56000086
   -1    9    7   CASTOR_HAD   0.00117236   0.00117236   0.00117236   0.00117236   56000087
   -1    9    8   CASTOR_HAD  0.000828706  0.000828706  0.000828706  0.000828706   56000088
   -1    9    9   CASTOR_HAD  0.000973703  0.000973703  0.000973703  0.000973703   56000089
   -1    9   10   CASTOR_HAD   0.00146303   0.00146303   0.00146303   0.00146303   5600008A
   -1    9   11   CASTOR_HAD   0.00104389   0.00104389   0.00104389   0.00104389   5600008B
   -1    9   12   CASTOR_HAD   0.00159933   0.00159933   0.00159933   0.00159933   5600008C
   -1    9   13   CASTOR_HAD   0.00182328   0.00182328   0.00182328   0.00182328   5600008D
   -1    9   14   CASTOR_HAD   0.00170799   0.00170799   0.00170799   0.00170799   5600008E
   -1   10    1    CASTOR_EM    0.0301284    0.0301284    0.0301284    0.0301284   56000091
   -1   10    2    CASTOR_EM    0.0447524    0.0447524    0.0447524    0.0447524   56000092
   -1   10    3   CASTOR_HAD    0.0225261    0.0225261    0.0225261    0.0225261   56000093
   -1   10    4   CASTOR_HAD    0.0115363    0.0115363    0.0115363    0.0115363   56000094
   -1   10    5   CASTOR_HAD   0.00155934   0.00155934   0.00155934   0.00155934   56000095
   -1   10    6   CASTOR_HAD    0.0018434    0.0018434    0.0018434    0.0018434   56000096
   -1   10    7   CASTOR_HAD   0.00097978   0.00097978   0.00097978   0.00097978   56000097
   -1   10    8   CASTOR_HAD  0.000778741  0.000778741  0.000778741  0.000778741   56000098
   -1   10    9   CASTOR_HAD   0.00108438   0.00108438   0.00108438   0.00108438   56000099
   -1   10   10   CASTOR_HAD   0.00152552   0.00152552   0.00152552   0.00152552   5600009A
   -1   10   11   CASTOR_HAD  0.000943753  0.000943753  0.000943753  0.000943753   5600009B
   -1   10   12   CASTOR_HAD  0.000909242  0.000909242  0.000909242  0.000909242   5600009C
   -1   10   13   CASTOR_HAD   0.00161173   0.00161173   0.00161173   0.00161173   5600009D
   -1   10   14   CASTOR_HAD   0.00212906   0.00212906   0.00212906   0.00212906   5600009E
   -1   11    1    CASTOR_EM    0.0331889    0.0331889    0.0331889    0.0331889   560000A1
   -1   11    2    CASTOR_EM    0.0255545    0.0255545    0.0255545    0.0255545   560000A2
   -1   11    3   CASTOR_HAD    0.0268122    0.0268122    0.0268122    0.0268122   560000A3
   -1   11    4   CASTOR_HAD    0.0166754    0.0166754    0.0166754    0.0166754   560000A4
   -1   11    5   CASTOR_HAD   0.00180082   0.00180082   0.00180082   0.00180082   560000A5
   -1   11    6   CASTOR_HAD  0.000729612  0.000729612  0.000729612  0.000729612   560000A6
   -1   11    7   CASTOR_HAD   0.00129714   0.00129714   0.00129714   0.00129714   560000A7
   -1   11    8   CASTOR_HAD   0.00157053   0.00157053   0.00157053   0.00157053   560000A8
   -1   11    9   CASTOR_HAD   0.00109494   0.00109494   0.00109494   0.00109494   560000A9
   -1   11   10   CASTOR_HAD  0.000950857  0.000950857  0.000950857  0.000950857   560000AA
   -1   11   11   CASTOR_HAD    0.0306361    0.0306361    0.0306361    0.0306361   560000AB
   -1   11   12   CASTOR_HAD   0.00219956   0.00219956   0.00219956   0.00219956   560000AC
   -1   11   13   CASTOR_HAD   0.00367775   0.00367775   0.00367775   0.00367775   560000AD
   -1   11   14   CASTOR_HAD   0.00183122   0.00183122   0.00183122   0.00183122   560000AE
   -1   12    1    CASTOR_EM    0.0566418    0.0566418    0.0566418    0.0566418   560000B1
   -1   12    2    CASTOR_EM    0.0352387    0.0352387    0.0352387    0.0352387   560000B2
   -1   12    3   CASTOR_HAD    0.0286775    0.0286775    0.0286775    0.0286775   560000B3
   -1   12    4   CASTOR_HAD    0.0201842    0.0201842    0.0201842    0.0201842   560000B4
   -1   12    5   CASTOR_HAD   0.00192286   0.00192286   0.00192286   0.00192286   560000B5
   -1   12    6   CASTOR_HAD   0.00136028   0.00136028   0.00136028   0.00136028   560000B6
   -1   12    7   CASTOR_HAD  0.000949359  0.000949359  0.000949359  0.000949359   560000B7
   -1   12    8   CASTOR_HAD   0.00141171   0.00141171   0.00141171   0.00141171   560000B8
   -1   12    9   CASTOR_HAD   0.00109117   0.00109117   0.00109117   0.00109117   560000B9
   -1   12   10   CASTOR_HAD   0.00106253   0.00106253   0.00106253   0.00106253   560000BA
   -1   12   11   CASTOR_HAD     0.035415     0.035415     0.035415     0.035415   560000BB
   -1   12   12   CASTOR_HAD   0.00142349   0.00142349   0.00142349   0.00142349   560000BC
   -1   12   13   CASTOR_HAD   0.00112931   0.00112931   0.00112931   0.00112931   560000BD
   -1   12   14   CASTOR_HAD   0.00147149   0.00147149   0.00147149   0.00147149   560000BE
   -1   13    1    CASTOR_EM     0.025883     0.025883     0.025883     0.025883   560000C1
   -1   13    2    CASTOR_EM    0.0305314    0.0305314    0.0305314    0.0305314   560000C2
   -1   13    3   CASTOR_HAD    0.0251348    0.0251348    0.0251348    0.0251348   560000C3
   -1   13    4   CASTOR_HAD    0.0114532    0.0114532    0.0114532    0.0114532   560000C4
   -1   13    5   CASTOR_HAD   0.00143108   0.00143108   0.00143108   0.00143108   560000C5
   -1   13    6   CASTOR_HAD   0.00211439   0.00211439   0.00211439   0.00211439   560000C6
   -1   13    7   CASTOR_HAD   0.00108715   0.00108715   0.00108715   0.00108715   560000C7
   -1   13    8   CASTOR_HAD  0.000977998  0.000977998  0.000977998  0.000977998   560000C8
   -1   13    9   CASTOR_HAD  0.000853163  0.000853163  0.000853163  0.000853163   560000C9
   -1   13   10   CASTOR_HAD   0.00140561   0.00140561   0.00140561   0.00140561   560000CA
   -1   13   11   CASTOR_HAD    0.0410562    0.0410562    0.0410562    0.0410562   560000CB
   -1   13   12   CASTOR_HAD   0.00215635   0.00215635   0.00215635   0.00215635   560000CC
   -1   13   13   CASTOR_HAD    0.0019097    0.0019097    0.0019097    0.0019097   560000CD
   -1   13   14   CASTOR_HAD   0.00176865   0.00176865   0.00176865   0.00176865   560000CE
   -1   14    1    CASTOR_EM     0.025476     0.025476     0.025476     0.025476   560000D1
   -1   14    2    CASTOR_EM    0.0307492    0.0307492    0.0307492    0.0307492   560000D2
   -1   14    3   CASTOR_HAD    0.0258102    0.0258102    0.0258102    0.0258102   560000D3
   -1   14    4   CASTOR_HAD    0.0155824    0.0155824    0.0155824    0.0155824   560000D4
   -1   14    5   CASTOR_HAD    0.0014542    0.0014542    0.0014542    0.0014542   560000D5
   -1   14    6   CASTOR_HAD   0.00158457   0.00158457   0.00158457   0.00158457   560000D6
   -1   14    7   CASTOR_HAD   0.00129179   0.00129179   0.00129179   0.00129179   560000D7
   -1   14    8   CASTOR_HAD  -0.00519445  -0.00519445  -0.00519445  -0.00519445   560000D8
   -1   14    9   CASTOR_HAD  0.000722462  0.000722462  0.000722462  0.000722462   560000D9
   -1   14   10   CASTOR_HAD   0.00109501   0.00109501   0.00109501   0.00109501   560000DA
   -1   14   11   CASTOR_HAD    0.0236529    0.0236529    0.0236529    0.0236529   560000DB
   -1   14   12   CASTOR_HAD   0.00188937   0.00188937   0.00188937   0.00188937   560000DC
   -1   14   13   CASTOR_HAD   0.00234806   0.00234806   0.00234806   0.00234806   560000DD
   -1   14   14   CASTOR_HAD     0.929084     0.929084     0.929084     0.929084   560000DE
   -1   15    1    CASTOR_EM    0.0266442    0.0266442    0.0266442    0.0266442   560000E1
   -1   15    2    CASTOR_EM    0.0416137    0.0416137    0.0416137    0.0416137   560000E2
   -1   15    3   CASTOR_HAD    0.0254082    0.0254082    0.0254082    0.0254082   560000E3
   -1   15    4   CASTOR_HAD    0.0484454    0.0484454    0.0484454    0.0484454   560000E4
   -1   15    5   CASTOR_HAD   0.00123701   0.00123701   0.00123701   0.00123701   560000E5
   -1   15    6   CASTOR_HAD   0.00170739   0.00170739   0.00170739   0.00170739   560000E6
   -1   15    7   CASTOR_HAD  0.000972948  0.000972948  0.000972948  0.000972948   560000E7
   -1   15    8   CASTOR_HAD  0.000792641  0.000792641  0.000792641  0.000792641   560000E8
   -1   15    9   CASTOR_HAD   0.00108196   0.00108196   0.00108196   0.00108196   560000E9
   -1   15   10   CASTOR_HAD   0.00118203   0.00118203   0.00118203   0.00118203   560000EA
   -1   15   11   CASTOR_HAD  0.000393141  0.000393141  0.000393141  0.000393141   560000EB
   -1   15   12   CASTOR_HAD   0.00156574   0.00156574   0.00156574   0.00156574   560000EC
   -1   15   13   CASTOR_HAD   0.00160506   0.00160506   0.00160506   0.00160506   560000ED
   -1   15   14   CASTOR_HAD   0.00205525   0.00205525   0.00205525   0.00205525   560000EE
   -1   16    1    CASTOR_EM    0.0239341    0.0239341    0.0239341    0.0239341   560000F1
   -1   16    2    CASTOR_EM    0.0249594    0.0249594    0.0249594    0.0249594   560000F2
   -1   16    3   CASTOR_HAD    0.0199771    0.0199771    0.0199771    0.0199771   560000F3
   -1   16    4   CASTOR_HAD    0.0424524    0.0424524    0.0424524    0.0424524   560000F4
   -1   16    5   CASTOR_HAD   0.00138683   0.00138683   0.00138683   0.00138683   560000F5
   -1   16    6   CASTOR_HAD   0.00139418   0.00139418   0.00139418   0.00139418   560000F6
   -1   16    7   CASTOR_HAD   0.00110909   0.00110909   0.00110909   0.00110909   560000F7
   -1   16    8   CASTOR_HAD  0.000893952  0.000893952  0.000893952  0.000893952   560000F8
   -1   16    9   CASTOR_HAD    0.0011047    0.0011047    0.0011047    0.0011047   560000F9
   -1   16   10   CASTOR_HAD   0.00134108   0.00134108   0.00134108   0.00134108   560000FA
   -1   16   11   CASTOR_HAD   0.00101914   0.00101914   0.00101914   0.00101914   560000FB
   -1   16   12   CASTOR_HAD   0.00085823   0.00085823   0.00085823   0.00085823   560000FC
   -1   16   13   CASTOR_HAD   0.00161164   0.00161164   0.00161164   0.00161164   560000FD
   -1   16   14   CASTOR_HAD    0.0012504    0.0012504    0.0012504    0.0012504   560000FE
