sec,mod,corr,
1,1,0.015822,
1,2,0.016797,
1,3,0.026847,
1,4,0.013989,
1,5,0.011445,
1,6,0.014209,
1,7,0.015992,
1,8,0.012079,
1,9,0.005056,
1,10,0.011889,
1,11,0.012027,
1,12,0.007798,
1,13,0.016216,
1,14,0.006684,
2,1,0.016103,
2,2,0.014516,
2,3,0.029119,
2,4,0.011811,
2,5,0.000000,
2,6,0.014433,
2,7,0.018347,
2,8,0.013152,
2,9,0.007449,
2,10,0.000000,
2,11,0.013310,
2,12,0.008386,
2,13,0.012012,
2,14,0.009044,
3,1,0.017407,
3,2,0.012979,
3,3,0.024840,
3,4,0.014561,
3,5,0.012946,
3,6,0.013258,
3,7,0.020098,
3,8,0.000000,
3,9,0.006354,
3,10,0.008056,
3,11,0.033306,
3,12,0.015785,
3,13,0.021809,
3,14,0.012769,
4,1,0.017579,
4,2,0.013396,
4,3,0.025479,
4,4,0.012403,
4,5,0.011554,
4,6,0.013505,
4,7,0.024469,
4,8,0.018525,
4,9,0.000000,
4,10,0.011550,
4,11,0.014085,
4,12,0.010028,
4,13,0.006467,
4,14,0.013862,
5,1,0.013392,
5,2,0.013980,
5,3,0.034982,
5,4,0.016522,
5,5,0.010940,
5,6,0.013398,
5,7,0.019598,
5,8,0.023712,
5,9,0.000000,
5,10,0.012556,
5,11,0.009835,
5,12,0.019886,
5,13,0.020594,
5,14,0.016397,
6,1,0.018862,
6,2,0.016868,
6,3,0.023849,
6,4,0.010381,
6,5,0.011695,
6,6,0.012608,
6,7,0.022786,
6,8,0.023471,
6,9,0.011183,
6,10,0.010629,
6,11,0.008924,
6,12,0.022979,
6,13,0.029641,
6,14,0.016763,
7,1,0.012109,
7,2,0.014345,
7,3,0.014553,
7,4,0.007854,
7,5,0.007656,
7,6,0.009827,
7,7,0.021948,
7,8,0.012103,
7,9,0.013201,
7,10,0.213316,
7,11,0.404190,
7,12,0.439938,
7,13,0.046806,
7,14,0.000000,
8,1,0.008794,
8,2,0.009685,
8,3,0.018740,
8,4,0.012507,
8,5,0.012431,
8,6,0.014096,
8,7,0.021543,
8,8,0.016841,
8,9,0.011105,
8,10,0.430812,
8,11,0.288871,
8,12,0.276732,
8,13,0.046460,
8,14,0.012141,
9,1,0.017496,
9,2,0.026264,
9,3,0.030952,
9,4,0.018916,
9,5,0.013694,
9,6,0.030054,
9,7,0.020308,
9,8,0.014355,
9,9,0.008038,
9,10,0.012072,
9,11,0.008795,
9,12,0.013187,
9,13,0.015033,
9,14,0.017106,
10,1,0.019470,
10,2,0.026521,
10,3,0.029023,
10,4,0.015103,
10,5,0.012709,
10,6,0.031933,
10,7,0.016972,
10,8,0.013490,
10,9,0.008658,
10,10,0.012653,
10,11,0.007781,
10,12,0.013634,
10,13,0.013289,
10,14,0.019351,
11,1,0.020757,
11,2,0.015103,
11,3,0.033212,
11,4,0.020627,
11,5,0.014426,
11,6,0.006382,
11,7,0.022470,
11,8,0.027206,
11,9,0.008926,
11,10,0.007612,
11,11,0.272118,
11,12,0.019757,
11,13,0.030527,
11,14,0.015099,
12,1,0.036218,
12,2,0.021567,
12,3,0.043171,
12,4,0.024749,
12,5,0.015957,
12,6,0.011133,
12,7,0.016445,
12,8,0.024454,
12,9,0.008838,
12,10,0.009002,
12,11,0.278542,
12,12,0.012436,
12,13,0.009530,
12,14,0.012553,
13,1,0.016777,
13,2,0.018860,
13,3,0.032452,
13,4,0.017937,
13,5,0.011517,
13,6,0.036627,
13,7,0.018832,
13,8,0.016942,
13,9,0.007216,
13,10,0.011548,
13,11,0.333074,
13,12,0.018360,
13,13,0.018954,
13,14,0.012387,
14,1,0.016380,
14,2,0.018964,
14,3,0.033275,
14,4,0.018993,
14,5,0.011857,
14,6,0.027449,
14,7,0.022377,
14,8,-0.089982,
14,9,0.006057,
14,10,0.009141,
14,11,0.200210,
14,12,0.014622,
14,13,0.018048,
14,14,7.660364,
15,1,0.017453,
15,2,0.026585,
15,3,0.032203,
15,4,0.056726,
15,5,0.010663,
15,6,0.029576,
15,7,0.016854,
15,8,0.013731,
15,9,0.008994,
15,10,0.009748,
15,11,0.007938,
15,12,0.011993,
15,13,0.014198,
15,14,0.017164,
16,1,0.015357,
16,2,0.016553,
16,3,0.025929,
16,4,0.053636,
16,5,0.011151,
16,6,0.024151,
16,7,0.019212,
16,8,0.015486,
16,9,0.009217,
16,10,0.010951,
16,11,0.008116,
16,12,0.007100,
16,13,0.012414,
16,14,0.010634,
