326650	 7442	 LHC_fillingscheme_fill7442.txt	 none 
326710	 7443	 LHC_fillingscheme_fill7443.txt	 none 
326722	 7444	 LHC_fillingscheme_fill7444.txt	 none 
326815	 7449	 LHC_fillingscheme_fill7449.txt	 none 
326790	 7448	 LHC_fillingscheme_fill7448.txt	 none 
326791	 7448	 LHC_fillingscheme_fill7448.txt	 none 
326822	 7450	 LHC_fillingscheme_fill7450.txt	 none 
325590	 7395	 LHC_fillingscheme_fill7395.txt	 none 
325125	 0	 none	 none 
326125	 7409	 LHC_fillingscheme_fill7409.txt	 none 
326236	 7416	 LHC_fillingscheme_fill7416.txt	 none 
326446	 7430	 LHC_fillingscheme_fill7430.txt	 none 
326539	 7437	 LHC_fillingscheme_fill7437.txt	 none 
326583	 7439	 LHC_fillingscheme_fill7439.txt	 none 
326613	 7440	 LHC_fillingscheme_fill7440.txt	 none 
326668	 7442	 LHC_fillingscheme_fill7442.txt	 none 
326721	 7444	 LHC_fillingscheme_fill7444.txt	 none 
326759	 7446	 LHC_fillingscheme_fill7446.txt	 none 
286520   5575    LHC_fillingscheme_fill5575.txt	 none
