# eta phi dep det value DetId
   -1    1    7   CASTOR_HAD            1   56000007
   -1    1    8   CASTOR_HAD            1   56000008
   -1    1    9   CASTOR_HAD            1   56000009
   -1    2    7   CASTOR_HAD            1   56000017
   -1    2    8   CASTOR_HAD            1   56000018
   -1    2    9   CASTOR_HAD            1   56000019
   -1    2   10   CASTOR_HAD            1   5600001A
   -1    3    7   CASTOR_HAD            1   56000027
   -1    3    8   CASTOR_HAD            1   56000028
   -1    3    9   CASTOR_HAD            1   56000029
   -1    3   11   CASTOR_HAD            1   5600002B
   -1    4    7   CASTOR_HAD            1   56000037
   -1    4    8   CASTOR_HAD            1   56000038
   -1    4    9   CASTOR_HAD            1   56000039
   -1    5    4   CASTOR_HAD            1   56000044
   -1    5    7   CASTOR_HAD            1   56000047
   -1    5    8   CASTOR_HAD            1   56000048
   -1    5    9   CASTOR_HAD            1   56000049
   -1    6    7   CASTOR_HAD            1   56000057
   -1    6    8   CASTOR_HAD            1   56000058
   -1    6    9   CASTOR_HAD            1   56000059
   -1    7    5   CASTOR_HAD            1   56000065
   -1    7    7   CASTOR_HAD            1   56000067
   -1    7    8   CASTOR_HAD            1   56000068
   -1    7    9   CASTOR_HAD            1   56000069
   -1    8    7   CASTOR_HAD            1   56000077
   -1    8    8   CASTOR_HAD            1   56000078
   -1    8    9   CASTOR_HAD            1   56000079
   -1    9    4   CASTOR_HAD            1   56000084
   -1    9    7   CASTOR_HAD            1   56000087
   -1    9    8   CASTOR_HAD            1   56000088
   -1    9    9   CASTOR_HAD            1   56000089
   -1   10    7   CASTOR_HAD            1   56000097
   -1   10    8   CASTOR_HAD            1   56000098
   -1   10    9   CASTOR_HAD            1   56000099
   -1   11    7   CASTOR_HAD            1   560000A7
   -1   11    8   CASTOR_HAD            1   560000A8
   -1   11    9   CASTOR_HAD            1   560000A9
   -1   11   11   CASTOR_HAD            1   560000AB
   -1   12    7   CASTOR_HAD            1   560000B7
   -1   12    8   CASTOR_HAD            1   560000B8
   -1   12    9   CASTOR_HAD            1   560000B9
   -1   12   11   CASTOR_HAD            1   560000BB
   -1   12   12   CASTOR_HAD            1   560000BC
   -1   13    7   CASTOR_HAD            1   560000C7
   -1   13    8   CASTOR_HAD            1   560000C8
   -1   13    9   CASTOR_HAD            1   560000C9
   -1   13   11   CASTOR_HAD            1   560000CB
   -1   14    7   CASTOR_HAD            1   560000D7
   -1   14    8   CASTOR_HAD            1   560000D8
   -1   14    9   CASTOR_HAD            1   560000D9
   -1   14   11   CASTOR_HAD            1   560000DB
   -1   15    4   CASTOR_HAD            1   560000E4
   -1   15    7   CASTOR_HAD            1   560000E7
   -1   15    8   CASTOR_HAD            1   560000E8
   -1   15    9   CASTOR_HAD            1   560000E9
   -1   16    4   CASTOR_HAD            1   560000F4
   -1   16    7   CASTOR_HAD            1   560000F7
   -1   16    8   CASTOR_HAD            1   560000F8
   -1   16    9   CASTOR_HAD            1   560000F9
