near;1;3,4;49;1,53E+03;3,06E+04;1,14E+04;3,06E+04;1,14E+04;3,06E+04;1,14E+04;3,06E+04;7,10E+03;3,06E+04;7,10E+03;3,06E+04;7,10E+03;;;4,32;;0,22;;1,61;;;7,75;7,75;7,75;7,75;7,75;7,75
near;1;1,2;50;2,38E+03;4,76E+04;1,77E+04;4,76E+04;1,77E+04;4,76E+04;1,77E+04;4,76E+04;1,08E+04;4,76E+04;1,08E+04;4,76E+04;1,08E+04;;;4,42;;0,22;;1,65;;;4,99;4,99;4,99;4,99;4,99;4,99
near;1;15,16;51;8,99E+02;1,77E+04;9,04E+03;1,77E+04;9,04E+03;1,77E+04;9,04E+03;1,77E+04;5,52E+03;1,77E+04;5,52E+03;1,77E+04;5,52E+03;;;3,21;;0,16;;1,64;;;13,4;13,4;13,4;13,4;13,4;13,4
near;1;13,14;52;2,38E+03;4,76E+04;1,77E+04;4,76E+04;1,77E+04;4,76E+04;9,04E+03;4,76E+04;5,52E+03;4,76E+04;5,52E+03;4,76E+04;5,52E+03;;;8,61;;0,43;;3,21;;;4,99;4,99;4,99;4,99;4,99;4,99
near;2;3,4;53;1,91E+03;3,08E+04;1,15E+04;3,08E+04;1,15E+04;3,08E+04;1,15E+04;3,08E+04;1,15E+04;3,08E+04;1,15E+04;3,08E+04;1,15E+04;;;2,68;;0,17;;1;;;7,72;7,72;7,72;7,72;7,72;7,72
near;2;1,2;54;1,32E+03;1,77E+04;6,67E+03;1,77E+04;6,67E+03;1,77E+04;6,67E+03;1,77E+04;6,67E+03;1,77E+04;6,67E+03;1,77E+04;6,67E+03;;;2,66;;0,2;;1;;;13,4;13,4;13,4;13,4;13,4;13,4
near;2;15,16;55;1,53E+03;4,05E+04;1,51E+04;4,05E+04;1,51E+04;4,05E+04;1,51E+04;4,05E+04;1,51E+04;4,05E+04;1,51E+04;4,05E+04;1,51E+04;;;2,68;;0,1;;1;;;5,87;5,87;5,87;5,87;5,87;5,87
near;2;13,14;56;2,47E+03;4,76E+04;1,77E+04;4,76E+04;1,77E+04;4,76E+04;1,77E+04;4,76E+04;1,77E+04;4,76E+04;1,77E+04;4,76E+04;1,77E+04;;;2,68;;0,14;;1;;;4,99;4,99;4,99;4,99;4,99;4,99
near;3;3,4;57;1,91E+03;3,82E+04;1,51E+04;3,82E+04;1,51E+04;3,82E+04;1,51E+04;3,82E+04;1,51E+04;3,82E+04;1,51E+04;3,82E+04;1,51E+04;;;2,53;;0,13;;1;;;6,21;6,21;6,21;6,21;6,21;6,21
near;3;1,2;58;2,03E+03;4,06E+04;1,51E+04;4,06E+04;1,51E+04;4,06E+04;1,51E+04;4,06E+04;1,51E+04;4,06E+04;1,51E+04;4,06E+04;1,51E+04;;;2,69;;0,13;;1;;;5,85;5,85;5,85;5,85;5,85;5,85
near;3;15,16;59;2,17E+03;3,65E+04;1,35E+04;3,65E+04;1,35E+04;3,65E+04;1,35E+04;3,65E+04;1,35E+04;3,65E+04;1,35E+04;3,65E+04;1,35E+04;;;2,7;;0,16;;1;;;6,52;6,52;6,52;6,52;6,52;6,52
near;3;13,14;60;1,37E+03;3,63E+04;1,43E+04;3,63E+04;1,43E+04;3,63E+04;1,43E+04;3,63E+04;1,43E+04;3,63E+04;1,43E+04;3,63E+04;1,43E+04;;;2,54;;0,1;;1;;;6,55;6,55;6,55;6,55;6,55;6,55
near;4;3,4;61;2,44E+03;1,95E+04;9,59E+03;1,95E+04;9,59E+03;1,95E+04;9,59E+03;1,95E+04;9,59E+03;1,95E+04;9,59E+03;1,95E+04;9,59E+03;;;2,04;;0,25;;1;;;12,18;12,18;12,18;12,18;12,18;12,18
near;4;1,2;62;1,94E+03;3,23E+04;1,21E+04;3,23E+04;1,21E+04;3,23E+04;1,21E+04;3,23E+04;1,21E+04;3,23E+04;1,21E+04;3,23E+04;1,21E+04;;;2,68;;0,16;;1;;;7,35;7,35;7,35;7,35;7,35;7,35
near;4;15,16;63;2,13E+03;4,28E+04;1,59E+04;4,28E+04;1,59E+04;4,28E+04;1,59E+04;4,28E+04;1,59E+04;4,28E+04;1,59E+04;4,28E+04;1,59E+04;;;2,69;;0,13;;1;;;5,55;5,55;5,55;5,55;5,55;5,55
near;4;13,14;64;1,71E+03;3,43E+04;1,28E+04;3,43E+04;1,28E+04;3,43E+04;1,28E+04;3,43E+04;1,28E+04;3,43E+04;1,28E+04;3,43E+04;1,28E+04;;;2,68;;0,13;;1;;;6,94;6,94;6,94;6,94;6,94;6,94
near;5;1-4;65;5,59E+03;1,12E+05;1,77E+04;1,12E+05;1,77E+04;1,12E+05;1,77E+04;1,12E+05;1,77E+04;1,12E+05;1,77E+04;1,12E+05;1,77E+04;;;6,3;;0,32;;1;;;2,13;2,13;2,13;2,13;2,13;2,13
near;5;13-16;66;2,79E+03;1,12E+05;1,59E+04;1,12E+05;1,59E+04;1,12E+05;1,59E+04;1,12E+05;1,59E+04;1,12E+05;1,59E+04;1,12E+05;1,59E+04;;;7,02;;0,18;;1;;;2,13;2,13;2,13;2,13;2,13;2,13
near;6;1-4;67;6,71E+03;1,12E+05;1,12E+05;1,12E+05;1,12E+05;1,12E+05;4,54E+04;1,12E+05;4,54E+04;1,12E+05;4,54E+04;1,12E+05;4,54E+04;;;2,46;;0,15;;2,46;;;2,13;2,13;2,13;2,13;2,13;2,13
near;6;13-16;68;1,12E+04;1,12E+05;1,12E+05;1,12E+05;1,12E+05;1,12E+05;1,12E+05;1,12E+05;1,12E+05;1,12E+05;1,12E+05;1,12E+05;1,12E+05;;;1;;0,1;;1;;;2,13;2,13;2,13;2,13;2,13;2,13
near;7;1-4;69;1,77E+04;2,38E+05;2,38E+05;2,38E+05;2,38E+05;2,38E+05;2,38E+05;2,38E+05;2,38E+05;2,38E+05;2,38E+05;2,38E+05;2,38E+05;;;1;;0,07;;1;;;1;1;1;1;1;1
near;7;13-16;70;1,77E+04;2,38E+05;2,38E+05;2,38E+05;2,38E+05;0,00E+00;0,00E+00;0,00E+00;0,00E+00;0,00E+00;0,00E+00;0,00E+00;0,00E+00;;;;;;;;;;1;1;;;;
near;8;1-4;71;1,77E+04;2,38E+05;2,38E+05;2,38E+05;2,38E+05;2,38E+05;2,38E+05;2,38E+05;2,38E+05;2,38E+05;2,38E+05;2,38E+05;2,38E+05;;;1;;0,07;;1;;;1;1;1;1;1;1
near;8;13-16;72;1,77E+04;0,00E+00;0,00E+00;0,00E+00;0,00E+00;0,00E+00;0,00E+00;0,00E+00;0,00E+00;0,00E+00;0,00E+00;0,00E+00;0,00E+00;;;;;;;;;;;;;;;
near;9;1-4;147;1,77E+04;1,12E+05;1,12E+05;1,12E+05;1,12E+05;1,12E+05;1,12E+05;1,12E+05;1,12E+05;1,12E+05;7,40E+04;1,12E+05;7,40E+04;;;1,51;;0,24;;1,51;;;2,13;2,13;2,13;2,13;2,13;2,13
near;9;13-16;148;1,59E+04;1,12E+05;1,12E+05;1,12E+05;1,12E+05;1,12E+05;1,12E+05;1,12E+05;1,77E+04;1,12E+05;1,77E+04;1,12E+05;1,77E+04;;;6,3;;0,9;;6,3;;;2,13;2,13;2,13;2,13;2,13;2,13
near;10;1-4;149;1,77E+04;1,12E+05;1,77E+04;1,12E+05;1,77E+04;1,12E+05;1,77E+04;1,12E+05;1,77E+04;1,12E+05;1,77E+04;1,12E+05;1,77E+04;;;6,3;;1;;1;;;2,13;2,13;2,13;2,13;2,13;2,13
near;10;13-16;150;1,51E+04;1,12E+05;1,52E+04;1,12E+05;1,52E+04;1,12E+05;1,52E+04;1,12E+05;1,52E+04;1,12E+05;1,52E+04;1,12E+05;1,52E+04;;;7,33;;0,99;;1;;;2,13;2,13;2,13;2,13;2,13;2,13
near;11;1-4;151;1,77E+04;1,12E+05;1,77E+04;1,12E+05;1,77E+04;1,12E+05;1,77E+04;1,12E+05;1,77E+04;1,12E+05;1,77E+04;1,12E+05;1,77E+04;;;6,3;;1;;1;;;2,13;2,13;2,13;2,13;2,13;2,13
near;11;13-16;152;1,77E+04;1,12E+05;1,77E+04;1,12E+05;1,77E+04;1,12E+05;1,77E+04;1,12E+05;1,77E+04;1,12E+05;1,77E+04;1,12E+05;1,77E+04;;;6,3;;1;;1;;;2,13;2,13;2,13;2,13;2,13;2,13
near;12;1-4;152;1,51E+04;1,12E+05;1,52E+04;1,12E+05;1,52E+04;1,12E+05;1,52E+04;1,12E+05;1,52E+04;1,12E+05;1,52E+04;1,12E+05;1,52E+04;;;7,33;;0,99;;1;;;2,13;2,13;2,13;2,13;2,13;2,13
near;12;13-16;154;1,68E+04;1,12E+05;1,70E+04;1,12E+05;1,70E+04;1,12E+05;1,70E+04;1,12E+05;1,70E+04;1,12E+05;1,70E+04;1,12E+05;1,70E+04;;;6,58;;0,99;;1;;;2,13;2,13;2,13;2,13;2,13;2,13
near;13;1-4;155;1,77E+04;1,12E+05;1,77E+04;1,12E+05;1,77E+04;1,12E+05;1,77E+04;1,12E+05;1,77E+04;1,12E+05;1,77E+04;1,12E+05;1,77E+04;;;6,3;;1;;1;;;2,13;2,13;2,13;2,13;2,13;2,13
near;13;13-16;156;1,77E+04;1,12E+05;1,77E+04;1,12E+05;1,77E+04;1,12E+05;1,77E+04;1,12E+05;1,77E+04;1,12E+05;1,77E+04;1,12E+05;1,77E+04;;;6,3;;1;;1;;;2,13;2,13;2,13;2,13;2,13;2,13
near;14;1-4;155;1,28E+04;1,12E+05;1,29E+04;1,12E+05;1,29E+04;1,12E+05;1,29E+04;1,12E+05;1,29E+04;1,12E+05;1,29E+04;1,12E+05;1,29E+04;;;8,66;;0,99;;1;;;2,13;2,13;2,13;2,13;2,13;2,13
near;14;13-16;158;1,35E+04;1,12E+05;1,37E+04;1,12E+05;1,37E+04;1,12E+05;1,37E+04;1,12E+05;1,37E+04;1,12E+05;1,37E+04;1,12E+05;1,37E+04;;;8,14;;0,98;;1;;;2,13;2,13;2,13;2,13;2,13;2,13
far;1;5,6;97;2,38E+03;4,76E+04;1,77E+04;4,76E+04;1,77E+04;4,76E+04;1,08E+04;4,76E+04;1,08E+04;4,76E+04;1,08E+04;4,76E+04;1,08E+04;;;4,42;;0,22;;1,65;;;4,99;4,99;4,99;4,99;4,99;4,99
far;1;7,8;98;2,38E+03;4,76E+04;1,77E+04;4,76E+04;1,77E+04;4,76E+04;1,77E+04;4,76E+04;1,77E+04;4,76E+04;1,77E+04;4,76E+04;1,77E+04;;;2,68;;0,13;;1;;;4,99;4,99;4,99;4,99;4,99;4,99
far;1;9,10;99;2,51E+03;5,57E+04;2,08E+04;5,57E+04;2,08E+04;5,57E+04;2,08E+04;5,57E+04;1,28E+04;5,57E+04;1,28E+04;5,57E+04;1,28E+04;;;4,36;;0,2;;1,63;;;4,26;4,26;4,26;4,26;4,26;4,26
far;1;11,12;100;3,98E+03;7,95E+04;2,96E+04;7,95E+04;2,96E+04;7,95E+04;4,34E+04;7,95E+04;2,68E+04;7,95E+04;2,68E+04;7,95E+04;2,68E+04;;;2,97;;0,15;;1,1;;;2,99;2,99;2,99;2,99;2,99;2,99
far;2;5,6;101;2,13E+03;4,28E+04;1,59E+04;4,28E+04;1,59E+04;4,28E+04;1,59E+04;4,28E+04;1,59E+04;4,28E+04;1,59E+04;4,28E+04;1,59E+04;;;2,69;;0,13;;1;;;5,55;5,55;5,55;5,55;5,55;5,55
far;2;7,8;102;2,47E+03;3,82E+04;1,43E+04;3,82E+04;1,43E+04;3,82E+04;1,43E+04;3,82E+04;1,43E+04;3,82E+04;1,43E+04;3,82E+04;1,43E+04;;;2,68;;0,17;;1;;;6,21;6,21;6,21;6,21;6,21;6,21
far;2;9,10;103;2,38E+03;4,76E+04;1,77E+04;4,76E+04;1,77E+04;4,76E+04;1,77E+04;4,76E+04;1,77E+04;4,76E+04;1,77E+04;4,76E+04;1,77E+04;;;2,68;;0,13;;1;;;4,99;4,99;4,99;4,99;4,99;4,99
far;2;11,12;104;1,68E+03;3,03E+04;1,15E+04;3,03E+04;1,15E+04;3,03E+04;1,15E+04;3,03E+04;1,15E+04;3,03E+04;1,15E+04;3,03E+04;1,15E+04;;;2,65;;0,15;;1;;;7,83;7,83;7,83;7,83;7,83;7,83
far;3;5,6;105;3,33E+03;4,76E+04;1,77E+04;4,76E+04;1,77E+04;4,76E+04;1,77E+04;4,76E+04;1,77E+04;4,76E+04;1,77E+04;4,76E+04;1,77E+04;;;2,68;;0,19;;1;;;4,99;4,99;4,99;4,99;4,99;4,99
far;3;7,8;106;2,26E+03;2,30E+04;8,51E+03;2,30E+04;8,51E+03;2,30E+04;8,51E+03;2,30E+04;8,51E+03;2,30E+04;8,51E+03;2,30E+04;8,51E+03;;;2,71;;0,27;;1;;;10,32;10,32;10,32;10,32;10,32;10,32
far;3;9,10;107;1,51E+03;2,02E+04;7,55E+03;2,02E+04;7,55E+03;2,02E+04;7,55E+03;2,02E+04;7,55E+03;2,02E+04;7,55E+03;2,02E+04;7,55E+03;;;2,68;;0,2;;1;;;11,74;11,74;11,74;11,74;11,74;11,74
far;3;11,12;108;2,38E+03;2,72E+04;1,02E+04;2,72E+04;1,02E+04;2,72E+04;1,02E+04;2,72E+04;1,02E+04;2,72E+04;1,02E+04;2,72E+04;1,02E+04;;;2,68;;0,23;;1;;;8,73;8,73;8,73;8,73;8,73;8,73
far;4;5,6;109;3,64E+03;2,42E+04;9,04E+03;2,42E+04;9,04E+03;2,42E+04;9,04E+03;2,42E+04;9,04E+03;2,42E+04;9,04E+03;2,42E+04;9,04E+03;;;2,68;;0,4;;1;;;9,8;9,8;9,8;9,8;9,8;9,8
far;4;7,8;110;2,85E+03;2,30E+04;8,51E+03;2,30E+04;8,51E+03;2,30E+04;8,51E+03;2,30E+04;8,51E+03;2,30E+04;8,51E+03;2,30E+04;8,51E+03;;;2,71;;0,34;;1;;;10,32;10,32;10,32;10,32;10,32;10,32
far;4;9,10;111;2,20E+03;2,55E+04;9,59E+03;2,55E+04;9,59E+03;2,55E+04;9,59E+03;2,55E+04;9,59E+03;2,55E+04;9,59E+03;2,55E+04;9,59E+03;;;2,66;;0,23;;1;;;9,32;9,32;9,32;9,32;9,32;9,32
far;4;11,12;112;2,72E+03;2,72E+04;1,02E+04;2,72E+04;1,02E+04;2,72E+04;1,02E+04;2,72E+04;1,02E+04;2,72E+04;1,02E+04;2,72E+04;1,02E+04;;;2,68;;0,27;;1;;;8,73;8,73;8,73;8,73;8,73;8,73
far;5;5-8;113;1,12E+04;1,12E+05;2,30E+04;1,12E+05;2,30E+04;1,12E+05;2,30E+04;1,12E+05;2,30E+04;1,12E+05;2,30E+04;1,12E+05;2,30E+04;;;4,85;;0,49;;1;;;2,13;2,13;2,13;2,13;2,13;2,13
far;5;9-12;114;3,35E+03;1,12E+05;1,28E+04;1,12E+05;1,28E+04;1,12E+05;1,28E+04;1,12E+05;1,28E+04;1,12E+05;1,28E+04;1,12E+05;1,28E+04;;;8,75;;0,26;;1;;;2,13;2,13;2,13;2,13;2,13;2,13
far;6;5-8;115;2,96E+04;1,12E+05;1,12E+05;1,12E+05;1,12E+05;1,12E+05;1,12E+05;1,12E+05;1,12E+05;1,12E+05;1,12E+05;1,12E+05;1,12E+05;;;1;;0,26;;1;;;2,13;2,13;2,13;2,13;2,13;2,13
far;6;9-12;116;2,96E+04;1,12E+05;1,12E+05;1,12E+05;1,12E+05;1,12E+05;1,12E+05;1,12E+05;1,12E+05;1,12E+05;1,12E+05;1,12E+05;1,12E+05;;;1;;0,26;;1;;;2,13;2,13;2,13;2,13;2,13;2,13
far;7;5-8;117;1,77E+04;2,38E+05;2,38E+05;2,38E+05;2,38E+05;2,38E+05;2,38E+05;2,38E+05;2,38E+05;2,38E+05;2,38E+05;2,38E+05;2,38E+05;;;1;;0,07;;1;;;1;1;1;1;1;1
far;7;9-12;118;1,77E+04;2,38E+05;2,38E+05;2,38E+05;2,38E+05;2,38E+05;2,38E+05;2,38E+05;2,38E+05;2,38E+05;2,38E+05;2,38E+05;2,38E+05;;;1;;0,07;;1;;;1;1;1;1;1;1
far;8;5-8;119;1,77E+04;2,38E+05;2,38E+05;2,38E+05;2,38E+05;2,38E+05;2,38E+05;2,38E+05;2,38E+05;2,38E+05;2,38E+05;2,38E+05;2,38E+05;;;1;;0,07;;1;;;1;1;1;1;1;1
far;8;9-12;120;1,77E+04;2,38E+05;2,38E+05;2,38E+05;2,38E+05;2,38E+05;2,38E+05;2,38E+05;1,12E+05;2,38E+05;1,12E+05;2,38E+05;1,12E+05;;;2,13;;0,16;;2,13;;;1;1;1;1;1;1
far;9;5-8;159;5,33E+04;1,12E+05;1,12E+05;1,12E+05;1,12E+05;1,12E+05;1,12E+05;1,12E+05;1,12E+05;1,12E+05;1,12E+05;1,12E+05;1,12E+05;;;1;;0,48;;1;;;2,13;2,13;2,13;2,13;2,13;2,13
far;9;9-12;160;1,77E+04;1,12E+05;1,12E+05;1,12E+05;1,12E+05;1,12E+05;1,12E+05;1,12E+05;1,12E+05;1,12E+05;7,46E+04;1,12E+05;7,46E+04;;;1,5;;0,24;;1,5;;;2,13;2,13;2,13;2,13;2,13;2,13
far;12;5-8;161;4,52E+04;1,12E+05;1,53E+04;1,12E+05;1,53E+04;1,12E+05;1,53E+04;1,12E+05;1,53E+04;1,12E+05;1,53E+04;1,12E+05;1,53E+04;;;7,29;;2,95;;1;;;2,13;2,13;2,13;2,13;2,13;2,13
far;10;9-12;162;1,45E+04;1,12E+05;2,11E+04;1,12E+05;2,11E+04;1,12E+05;2,11E+04;1,12E+05;2,11E+04;1,12E+05;2,11E+04;1,12E+05;2,11E+04;;;5,3;;0,69;;1;;;2,13;2,13;2,13;2,13;2,13;2,13
far;11;5-8;163;3,99E+04;1,12E+05;1,61E+04;1,12E+05;1,61E+04;1,12E+05;1,61E+04;1,12E+05;1,61E+04;1,12E+05;1,61E+04;1,12E+05;1,61E+04;;;6,94;;2,48;;1;;;2,13;2,13;2,13;2,13;2,13;2,13
far;11;9-12;164;9,53E+03;1,12E+05;1,62E+04;1,12E+05;1,62E+04;1,12E+05;1,62E+04;1,12E+05;1,62E+04;1,12E+05;1,62E+04;1,12E+05;1,62E+04;;;6,91;;0,59;;1;;;2,13;2,13;2,13;2,13;2,13;2,13
far;10;5-8;165;7,09E+04;1,12E+05;2,40E+04;1,12E+05;2,40E+04;1,12E+05;2,40E+04;1,12E+05;2,40E+04;1,12E+05;2,40E+04;1,12E+05;2,40E+04;;;4,66;;2,95;;1;;;2,13;2,13;2,13;2,13;2,13;2,13
far;12;9-12;166;1,24E+04;1,12E+05;1,77E+04;1,12E+05;1,77E+04;1,12E+05;1,77E+04;1,12E+05;1,77E+04;1,12E+05;1,77E+04;1,12E+05;1,77E+04;;;6,3;;0,7;;1;;;2,13;2,13;2,13;2,13;2,13;2,13
far;13;5-8;167;4,61E+04;1,12E+05;2,34E+04;1,12E+05;2,34E+04;1,12E+05;2,34E+04;1,12E+05;2,34E+04;1,12E+05;2,34E+04;1,12E+05;2,34E+04;;;4,78;;1,97;;1;;;2,13;2,13;2,13;2,13;2,13;2,13
far;13;9-12;168;1,12E+04;1,12E+05;2,27E+04;1,12E+05;2,27E+04;1,12E+05;2,27E+04;1,12E+05;2,27E+04;1,12E+05;2,27E+04;1,12E+05;2,27E+04;;;4,93;;0,49;;1;;;2,13;2,13;2,13;2,13;2,13;2,13
far;14;5-8;169;2,71E+04;1,12E+05;1,37E+04;1,12E+05;1,37E+04;1,12E+05;1,37E+04;1,12E+05;1,37E+04;1,12E+05;1,37E+04;1,12E+05;1,37E+04;;;8,14;;1,97;;1;;;2,13;2,13;2,13;2,13;2,13;2,13
far;14;9-12;170;1,45E+04;1,12E+05;2,46E+04;1,12E+05;2,46E+04;1,12E+05;2,46E+04;1,12E+05;2,46E+04;1,12E+05;2,46E+04;1,12E+05;2,46E+04;;;4,54;;0,59;;1;;;2,13;2,13;2,13;2,13;2,13;2,13
