#             eta             phi             dep             det     cap0     cap1     cap2     cap3      DetId
   -1    1    1    CASTOR_EM   0.00882199   0.00882199   0.00882199   0.00882199   56000001
   -1    1    2    CASTOR_EM    0.0111426    0.0111426    0.0111426    0.0111426   56000002
   -1    1    3   CASTOR_HAD    0.0336843    0.0336843    0.0336843    0.0336843   56000003
   -1    1    4   CASTOR_HAD    0.0172684    0.0172684    0.0172684    0.0172684   56000004
   -1    1    5   CASTOR_HAD   0.00307864   0.00307864   0.00307864   0.00307864   56000005
   -1    1    6   CASTOR_HAD   0.00775729   0.00775729   0.00775729   0.00775729   56000006
   -1    1    7   CASTOR_HAD     0.117548     0.117548     0.117548     0.117548   56000007
   -1    1    8   CASTOR_HAD    0.0104813    0.0104813    0.0104813    0.0104813   56000008
   -1    1    9   CASTOR_HAD    0.0038619    0.0038619    0.0038619    0.0038619   56000009
   -1    1   10   CASTOR_HAD   0.00706032   0.00706032   0.00706032   0.00706032   5600000A
   -1    1   11   CASTOR_HAD    0.0065228    0.0065228    0.0065228    0.0065228   5600000B
   -1    1   12   CASTOR_HAD   0.00431396   0.00431396   0.00431396   0.00431396   5600000C
   -1    1   13   CASTOR_HAD   0.00622631   0.00622631   0.00622631   0.00622631   5600000D
   -1    1   14   CASTOR_HAD    0.0032528    0.0032528    0.0032528    0.0032528   5600000E
   -1    2    1    CASTOR_EM    0.0147433    0.0147433    0.0147433    0.0147433   56000011
   -1    2    2    CASTOR_EM    0.0106021    0.0106021    0.0106021    0.0106021   56000012
   -1    2    3   CASTOR_HAD    0.0506815    0.0506815    0.0506815    0.0506815   56000013
   -1    2    4   CASTOR_HAD    0.0231737    0.0231737    0.0231737    0.0231737   56000014
   -1    2    5   CASTOR_HAD    0.0065732    0.0065732    0.0065732    0.0065732   56000015
   -1    2    6   CASTOR_HAD    0.0205725    0.0205725    0.0205725    0.0205725   56000016
   -1    2    7   CASTOR_HAD     0.129674     0.129674     0.129674     0.129674   56000017
   -1    2    8   CASTOR_HAD    0.0105629    0.0105629    0.0105629    0.0105629   56000018
   -1    2    9   CASTOR_HAD    0.0046945    0.0046945    0.0046945    0.0046945   56000019
   -1    2   10   CASTOR_HAD   0.00714195   0.00714195   0.00714195   0.00714195   5600001A
   -1    2   11   CASTOR_HAD   0.00733797   0.00733797   0.00733797   0.00733797   5600001B
   -1    2   12   CASTOR_HAD   0.00416318   0.00416318   0.00416318   0.00416318   5600001C
   -1    2   13   CASTOR_HAD    0.0090884    0.0090884    0.0090884    0.0090884   5600001D
   -1    2   14   CASTOR_HAD    0.0043284    0.0043284    0.0043284    0.0043284   5600001E
   -1    3    1    CASTOR_EM    0.0172857    0.0172857    0.0172857    0.0172857   56000021
   -1    3    2    CASTOR_EM   0.00666101   0.00666101   0.00666101   0.00666101   56000022
   -1    3    3   CASTOR_HAD    0.0473897    0.0473897    0.0473897    0.0473897   56000023
   -1    3    4   CASTOR_HAD    0.0221816    0.0221816    0.0221816    0.0221816   56000024
   -1    3    5   CASTOR_HAD   0.00647599   0.00647599   0.00647599   0.00647599   56000025
   -1    3    6   CASTOR_HAD   0.00956251   0.00956251   0.00956251   0.00956251   56000026
   -1    3    7   CASTOR_HAD     0.140692     0.140692     0.140692     0.140692   56000027
   -1    3    8   CASTOR_HAD    0.0424238    0.0424238    0.0424238    0.0424238   56000028
   -1    3    9   CASTOR_HAD   0.00717114   0.00717114   0.00717114   0.00717114   56000029
   -1    3   10   CASTOR_HAD   0.00954021   0.00954021   0.00954021   0.00954021   5600002A
   -1    3   11   CASTOR_HAD   0.00680981   0.00680981   0.00680981   0.00680981   5600002B
   -1    3   12   CASTOR_HAD   0.00884959   0.00884959   0.00884959   0.00884959   5600002C
   -1    3   13   CASTOR_HAD   0.00814747   0.00814747   0.00814747   0.00814747   5600002D
   -1    3   14   CASTOR_HAD   0.00510613   0.00510613   0.00510613   0.00510613   5600002E
   -1    4    1    CASTOR_EM     0.019391     0.019391     0.019391     0.019391   56000031
   -1    4    2    CASTOR_EM    0.0112459    0.0112459    0.0112459    0.0112459   56000032
   -1    4    3   CASTOR_HAD      0.01654      0.01654      0.01654      0.01654   56000033
   -1    4    4   CASTOR_HAD   0.00924503   0.00924503   0.00924503   0.00924503   56000034
   -1    4    5   CASTOR_HAD    0.0018234    0.0018234    0.0018234    0.0018234   56000035
   -1    4    6   CASTOR_HAD      0.01549      0.01549      0.01549      0.01549   56000036
   -1    4    7   CASTOR_HAD     0.133895     0.133895     0.133895     0.133895   56000037
   -1    4    8   CASTOR_HAD     0.146302     0.146302     0.146302     0.146302   56000038
   -1    4    9   CASTOR_HAD     0.158957     0.158957     0.158957     0.158957   56000039
   -1    4   10   CASTOR_HAD   0.00988293   0.00988293   0.00988293   0.00988293   5600003A
   -1    4   11   CASTOR_HAD   0.00646378   0.00646378   0.00646378   0.00646378   5600003B
   -1    4   12   CASTOR_HAD   0.00420562   0.00420562   0.00420562   0.00420562   5600003C
   -1    4   13   CASTOR_HAD   0.00321407   0.00321407   0.00321407   0.00321407   5600003D
   -1    4   14   CASTOR_HAD   0.00461433   0.00461433   0.00461433   0.00461433   5600003E
   -1    5    1    CASTOR_EM    0.0145238    0.0145238    0.0145238    0.0145238   56000041
   -1    5    2    CASTOR_EM    0.0127445    0.0127445    0.0127445    0.0127445   56000042
   -1    5    3   CASTOR_HAD    0.0518417    0.0518417    0.0518417    0.0518417   56000043
   -1    5    4   CASTOR_HAD    0.0323831    0.0323831    0.0323831    0.0323831   56000044
   -1    5    5   CASTOR_HAD   0.00892915   0.00892915   0.00892915   0.00892915   56000045
   -1    5    6   CASTOR_HAD    0.0225443    0.0225443    0.0225443    0.0225443   56000046
   -1    5    7   CASTOR_HAD     0.103936     0.103936     0.103936     0.103936   56000047
   -1    5    8   CASTOR_HAD     0.141685     0.141685     0.141685     0.141685   56000048
   -1    5    9   CASTOR_HAD     0.140451     0.140451     0.140451     0.140451   56000049
   -1    5   10   CASTOR_HAD    0.0134878    0.0134878    0.0134878    0.0134878   5600004A
   -1    5   11   CASTOR_HAD   0.00763917   0.00763917   0.00763917   0.00763917   5600004B
   -1    5   12   CASTOR_HAD    0.0084231    0.0084231    0.0084231    0.0084231   5600004C
   -1    5   13   CASTOR_HAD   0.00955168   0.00955168   0.00955168   0.00955168   5600004D
   -1    5   14   CASTOR_HAD   0.00694953   0.00694953   0.00694953   0.00694953   5600004E
   -1    6    1    CASTOR_EM    0.0222233    0.0222233    0.0222233    0.0222233   56000051
   -1    6    2    CASTOR_EM      0.01348      0.01348      0.01348      0.01348   56000052
   -1    6    3   CASTOR_HAD    0.0425406    0.0425406    0.0425406    0.0425406   56000053
   -1    6    4   CASTOR_HAD    0.0145549    0.0145549    0.0145549    0.0145549   56000054
   -1    6    5   CASTOR_HAD   0.00653419   0.00653419   0.00653419   0.00653419   56000055
   -1    6    6   CASTOR_HAD    0.0218592    0.0218592    0.0218592    0.0218592   56000056
   -1    6    7   CASTOR_HAD    0.0928354    0.0928354    0.0928354    0.0928354   56000057
   -1    6    8   CASTOR_HAD      0.13134      0.13134      0.13134      0.13134   56000058
   -1    6    9   CASTOR_HAD    0.0073017    0.0073017    0.0073017    0.0073017   56000059
   -1    6   10   CASTOR_HAD    0.0137134    0.0137134    0.0137134    0.0137134   5600005A
   -1    6   11   CASTOR_HAD   0.00408208   0.00408208   0.00408208   0.00408208   5600005B
   -1    6   12   CASTOR_HAD   0.00753479   0.00753479   0.00753479   0.00753479   5600005C
   -1    6   13   CASTOR_HAD     0.011816     0.011816     0.011816     0.011816   5600005D
   -1    6   14   CASTOR_HAD   0.00644679   0.00644679   0.00644679   0.00644679   5600005E
   -1    7    1    CASTOR_EM    0.0116329    0.0116329    0.0116329    0.0116329   56000061
   -1    7    2    CASTOR_EM    0.0159573    0.0159573    0.0159573    0.0159573   56000062
   -1    7    3   CASTOR_HAD    0.0310618    0.0310618    0.0310618    0.0310618   56000063
   -1    7    4   CASTOR_HAD    0.0198704    0.0198704    0.0198704    0.0198704   56000064
   -1    7    5   CASTOR_HAD   0.00340734   0.00340734   0.00340734   0.00340734   56000065
   -1    7    6   CASTOR_HAD    0.0205327    0.0205327    0.0205327    0.0205327   56000066
   -1    7    7   CASTOR_HAD     0.097447     0.097447     0.097447     0.097447   56000067
   -1    7    8   CASTOR_HAD    0.0446382    0.0446382    0.0446382    0.0446382   56000068
   -1    7    9   CASTOR_HAD   0.00288734   0.00288734   0.00288734   0.00288734   56000069
   -1    7   10   CASTOR_HAD    0.0767646    0.0767646    0.0767646    0.0767646   5600006A
   -1    7   11   CASTOR_HAD     0.042113     0.042113     0.042113     0.042113   5600006B
   -1    7   12   CASTOR_HAD    0.0191247    0.0191247    0.0191247    0.0191247   5600006C
   -1    7   13   CASTOR_HAD    0.0381238    0.0381238    0.0381238    0.0381238   5600006D
   -1    7   14   CASTOR_HAD    0.0790766    0.0790766    0.0790766    0.0790766   5600006E
   -1    8    1    CASTOR_EM    0.0089549    0.0089549    0.0089549    0.0089549   56000071
   -1    8    2    CASTOR_EM   0.00609007   0.00609007   0.00609007   0.00609007   56000072
   -1    8    3   CASTOR_HAD    0.0255633    0.0255633    0.0255633    0.0255633   56000073
   -1    8    4   CASTOR_HAD    0.0209988    0.0209988    0.0209988    0.0209988   56000074
   -1    8    5   CASTOR_HAD    0.0071308    0.0071308    0.0071308    0.0071308   56000075
   -1    8    6   CASTOR_HAD    0.0586397    0.0586397    0.0586397    0.0586397   56000076
   -1    8    7   CASTOR_HAD     0.142635     0.142635     0.142635     0.142635   56000077
   -1    8    8   CASTOR_HAD    0.0114145    0.0114145    0.0114145    0.0114145   56000078
   -1    8    9   CASTOR_HAD   0.00550729   0.00550729   0.00550729   0.00550729   56000079
   -1    8   10   CASTOR_HAD    0.0622929    0.0622929    0.0622929    0.0622929   5600007A
   -1    8   11   CASTOR_HAD      0.13458      0.13458      0.13458      0.13458   5600007B
   -1    8   12   CASTOR_HAD     0.037497     0.037497     0.037497     0.037497   5600007C
   -1    8   13   CASTOR_HAD    0.0229772    0.0229772    0.0229772    0.0229772   5600007D
   -1    8   14   CASTOR_HAD   0.00614431   0.00614431   0.00614431   0.00614431   5600007E
   -1    9    1    CASTOR_EM    0.0148406    0.0148406    0.0148406    0.0148406   56000081
   -1    9    2    CASTOR_EM    0.0201169    0.0201169    0.0201169    0.0201169   56000082
   -1    9    3   CASTOR_HAD    0.0334985    0.0334985    0.0334985    0.0334985   56000083
   -1    9    4   CASTOR_HAD     0.022811     0.022811     0.022811     0.022811   56000084
   -1    9    5   CASTOR_HAD   0.00349253   0.00349253   0.00349253   0.00349253   56000085
   -1    9    6   CASTOR_HAD    0.0253571    0.0253571    0.0253571    0.0253571   56000086
   -1    9    7   CASTOR_HAD     0.153865     0.153865     0.153865     0.153865   56000087
   -1    9    8   CASTOR_HAD   0.00957887   0.00957887   0.00957887   0.00957887   56000088
   -1    9    9   CASTOR_HAD   0.00441264   0.00441264   0.00441264   0.00441264   56000089
   -1    9   10   CASTOR_HAD   0.00600716   0.00600716   0.00600716   0.00600716   5600008A
   -1    9   11   CASTOR_HAD   0.00464382   0.00464382   0.00464382   0.00464382   5600008B
   -1    9   12   CASTOR_HAD   0.00699595   0.00699595   0.00699595   0.00699595   5600008C
   -1    9   13   CASTOR_HAD   0.00739076   0.00739076   0.00739076   0.00739076   5600008D
   -1    9   14   CASTOR_HAD   0.00793166   0.00793166   0.00793166   0.00793166   5600008E
   -1   10    1    CASTOR_EM    0.0156364    0.0156364    0.0156364    0.0156364   56000091
   -1   10    2    CASTOR_EM    0.0218266    0.0218266    0.0218266    0.0218266   56000092
   -1   10    3   CASTOR_HAD     0.053027     0.053027     0.053027     0.053027   56000093
   -1   10    4   CASTOR_HAD    0.0235947    0.0235947    0.0235947    0.0235947   56000094
   -1   10    5   CASTOR_HAD   0.00455404   0.00455404   0.00455404   0.00455404   56000095
   -1   10    6   CASTOR_HAD    0.0806092    0.0806092    0.0806092    0.0806092   56000096
   -1   10    7   CASTOR_HAD     0.155328     0.155328     0.155328     0.155328   56000097
   -1   10    8   CASTOR_HAD   0.00998261   0.00998261   0.00998261   0.00998261   56000098
   -1   10    9   CASTOR_HAD   0.00454472   0.00454472   0.00454472   0.00454472   56000099
   -1   10   10   CASTOR_HAD   0.00586269   0.00586269   0.00586269   0.00586269   5600009A
   -1   10   11   CASTOR_HAD   0.00422658   0.00422658   0.00422658   0.00422658   5600009B
   -1   10   12   CASTOR_HAD   0.00778106   0.00778106   0.00778106   0.00778106   5600009C
   -1   10   13   CASTOR_HAD   0.00826685   0.00826685   0.00826685   0.00826685   5600009D
   -1   10   14   CASTOR_HAD     0.006501     0.006501     0.006501     0.006501   5600009E
   -1   11    1    CASTOR_EM    0.0158333    0.0158333    0.0158333    0.0158333   560000A1
   -1   11    2    CASTOR_EM    0.0184385    0.0184385    0.0184385    0.0184385   560000A2
   -1   11    3   CASTOR_HAD    0.0477231    0.0477231    0.0477231    0.0477231   560000A3
   -1   11    4   CASTOR_HAD    0.0341276    0.0341276    0.0341276    0.0341276   560000A4
   -1   11    5   CASTOR_HAD   0.00628121   0.00628121   0.00628121   0.00628121   560000A5
   -1   11    6   CASTOR_HAD    0.0119666    0.0119666    0.0119666    0.0119666   560000A6
   -1   11    7   CASTOR_HAD     0.125695     0.125695     0.125695     0.125695   560000A7
   -1   11    8   CASTOR_HAD     0.113773     0.113773     0.113773     0.113773   560000A8
   -1   11    9   CASTOR_HAD   0.00698314   0.00698314   0.00698314   0.00698314   560000A9
   -1   11   10   CASTOR_HAD   0.00548773   0.00548773   0.00548773   0.00548773   560000AA
   -1   11   11   CASTOR_HAD    0.0597228    0.0597228    0.0597228    0.0597228   560000AB
   -1   11   12   CASTOR_HAD   0.00819408   0.00819408   0.00819408   0.00819408   560000AC
   -1   11   13   CASTOR_HAD    0.0123306    0.0123306    0.0123306    0.0123306   560000AD
   -1   11   14   CASTOR_HAD    0.0073489    0.0073489    0.0073489    0.0073489   560000AE
   -1   12    1    CASTOR_EM    0.0228203    0.0228203    0.0228203    0.0228203   560000B1
   -1   12    2    CASTOR_EM    0.0207795    0.0207795    0.0207795    0.0207795   560000B2
   -1   12    3   CASTOR_HAD    0.0441681    0.0441681    0.0441681    0.0441681   560000B3
   -1   12    4   CASTOR_HAD    0.0252782    0.0252782    0.0252782    0.0252782   560000B4
   -1   12    5   CASTOR_HAD   0.00503787   0.00503787   0.00503787   0.00503787   560000B5
   -1   12    6   CASTOR_HAD    0.0182344    0.0182344    0.0182344    0.0182344   560000B6
   -1   12    7   CASTOR_HAD     0.112761     0.112761     0.112761     0.112761   560000B7
   -1   12    8   CASTOR_HAD     0.127354     0.127354     0.127354     0.127354   560000B8
   -1   12    9   CASTOR_HAD   0.00911065   0.00911065   0.00911065   0.00911065   560000B9
   -1   12   10   CASTOR_HAD   0.00680382   0.00680382   0.00680382   0.00680382   560000BA
   -1   12   11   CASTOR_HAD    0.0548299    0.0548299    0.0548299    0.0548299   560000BB
   -1   12   12   CASTOR_HAD   0.00800057   0.00800057   0.00800057   0.00800057   560000BC
   -1   12   13   CASTOR_HAD   0.00328406   0.00328406   0.00328406   0.00328406   560000BD
   -1   12   14   CASTOR_HAD   0.00574648   0.00574648   0.00574648   0.00574648   560000BE
   -1   13    1    CASTOR_EM    0.0140221    0.0140221    0.0140221    0.0140221   560000C1
   -1   13    2    CASTOR_EM    0.0171008    0.0171008    0.0171008    0.0171008   560000C2
   -1   13    3   CASTOR_HAD    0.0538765    0.0538765    0.0538765    0.0538765   560000C3
   -1   13    4   CASTOR_HAD    0.0234816    0.0234816    0.0234816    0.0234816   560000C4
   -1   13    5   CASTOR_HAD   0.00438415   0.00438415   0.00438415   0.00438415   560000C5
   -1   13    6   CASTOR_HAD     0.110937     0.110937     0.110937     0.110937   560000C6
   -1   13    7   CASTOR_HAD     0.131697     0.131697     0.131697     0.131697   560000C7
   -1   13    8   CASTOR_HAD     0.136915     0.136915     0.136915     0.136915   560000C8
   -1   13    9   CASTOR_HAD   0.00501255   0.00501255   0.00501255   0.00501255   560000C9
   -1   13   10   CASTOR_HAD   0.00849672   0.00849672   0.00849672   0.00849672   560000CA
   -1   13   11   CASTOR_HAD    0.0839718    0.0839718    0.0839718    0.0839718   560000CB
   -1   13   12   CASTOR_HAD   0.00769447   0.00769447   0.00769447   0.00769447   560000CC
   -1   13   13   CASTOR_HAD    0.0068838    0.0068838    0.0068838    0.0068838   560000CD
   -1   13   14   CASTOR_HAD    0.0057461    0.0057461    0.0057461    0.0057461   560000CE
   -1   14    1    CASTOR_EM     0.013759     0.013759     0.013759     0.013759   560000D1
   -1   14    2    CASTOR_EM    0.0176154    0.0176154    0.0176154    0.0176154   560000D2
   -1   14    3   CASTOR_HAD    0.0553603    0.0553603    0.0553603    0.0553603   560000D3
   -1   14    4   CASTOR_HAD    0.0316934    0.0316934    0.0316934    0.0316934   560000D4
   -1   14    5   CASTOR_HAD   0.00424093   0.00424093   0.00424093   0.00424093   560000D5
   -1   14    6   CASTOR_HAD     0.114757     0.114757     0.114757     0.114757   560000D6
   -1   14    7   CASTOR_HAD     0.142107     0.142107     0.142107     0.142107   560000D7
   -1   14    8   CASTOR_HAD     0.147008     0.147008     0.147008     0.147008   560000D8
   -1   14    9   CASTOR_HAD   0.00426754   0.00426754   0.00426754   0.00426754   560000D9
   -1   14   10   CASTOR_HAD   0.00624246   0.00624246   0.00624246   0.00624246   560000DA
   -1   14   11   CASTOR_HAD    0.0526568    0.0526568    0.0526568    0.0526568   560000DB
   -1   14   12   CASTOR_HAD   0.00693665   0.00693665   0.00693665   0.00693665   560000DC
   -1   14   13   CASTOR_HAD   0.00749475   0.00749475   0.00749475   0.00749475   560000DD
   -1   14   14   CASTOR_HAD    0.0064232    0.0064232    0.0064232    0.0064232   560000DE
   -1   15    1    CASTOR_EM    0.0125945    0.0125945    0.0125945    0.0125945   560000E1
   -1   15    2    CASTOR_EM    0.0201241    0.0201241    0.0201241    0.0201241   560000E2
   -1   15    3   CASTOR_HAD    0.0472462    0.0472462    0.0472462    0.0472462   560000E3
   -1   15    4   CASTOR_HAD    0.0172764    0.0172764    0.0172764    0.0172764   560000E4
   -1   15    5   CASTOR_HAD   0.00224741   0.00224741   0.00224741   0.00224741   560000E5
   -1   15    6   CASTOR_HAD     0.016809     0.016809     0.016809     0.016809   560000E6
   -1   15    7   CASTOR_HAD      0.14564      0.14564      0.14564      0.14564   560000E7
   -1   15    8   CASTOR_HAD    0.0133335    0.0133335    0.0133335    0.0133335   560000E8
   -1   15    9   CASTOR_HAD     0.005744     0.005744     0.005744     0.005744   560000E9
   -1   15   10   CASTOR_HAD   0.00542796   0.00542796   0.00542796   0.00542796   560000EA
   -1   15   11   CASTOR_HAD   0.00421271   0.00421271   0.00421271   0.00421271   560000EB
   -1   15   12   CASTOR_HAD   0.00609169   0.00609169   0.00609169   0.00609169   560000EC
   -1   15   13   CASTOR_HAD   0.00787938   0.00787938   0.00787938   0.00787938   560000ED
   -1   15   14   CASTOR_HAD   0.00900138   0.00900138   0.00900138   0.00900138   560000EE
   -1   16    1    CASTOR_EM    0.0131075    0.0131075    0.0131075    0.0131075   560000F1
   -1   16    2    CASTOR_EM    0.0135848    0.0135848    0.0135848    0.0135848   560000F2
   -1   16    3   CASTOR_HAD    0.0364528    0.0364528    0.0364528    0.0364528   560000F3
   -1   16    4   CASTOR_HAD    0.0283851    0.0283851    0.0283851    0.0283851   560000F4
   -1   16    5   CASTOR_HAD   0.00690764   0.00690764   0.00690764   0.00690764   560000F5
   -1   16    6   CASTOR_HAD    0.0117647    0.0117647    0.0117647    0.0117647   560000F6
   -1   16    7   CASTOR_HAD     0.148598     0.148598     0.148598     0.148598   560000F7
   -1   16    8   CASTOR_HAD   0.00993337   0.00993337   0.00993337   0.00993337   560000F8
   -1   16    9   CASTOR_HAD   0.00473533   0.00473533   0.00473533   0.00473533   560000F9
   -1   16   10   CASTOR_HAD    0.0055869    0.0055869    0.0055869    0.0055869   560000FA
   -1   16   11   CASTOR_HAD   0.00413151   0.00413151   0.00413151   0.00413151   560000FB
   -1   16   12   CASTOR_HAD   0.00369055   0.00369055   0.00369055   0.00369055   560000FC
   -1   16   13   CASTOR_HAD   0.00624992   0.00624992   0.00624992   0.00624992   560000FD
   -1   16   14   CASTOR_HAD   0.00552006   0.00552006   0.00552006   0.00552006   560000FE
