#             eta             phi             dep             det     cap0     cap1     cap2     cap3      DetId
   -1    1    1    CASTOR_EM   0.00233419   0.00233419   0.00233419   0.00233419   56000001
   -1    1    2    CASTOR_EM   0.00514676   0.00514676   0.00514676   0.00514676   56000002
   -1    1    3   CASTOR_HAD    0.0236704    0.0236704    0.0236704    0.0236704   56000003
   -1    1    4   CASTOR_HAD   0.00375553   0.00375553   0.00375553   0.00375553   56000004
   -1    1    5   CASTOR_HAD  0.000727689  0.000727689  0.000727689  0.000727689   56000005
   -1    1    6   CASTOR_HAD   0.00375826   0.00375826   0.00375826   0.00375826   56000006
   -1    1    7   CASTOR_HAD   0.00340743   0.00340743   0.00340743   0.00340743   56000007
   -1    1    8   CASTOR_HAD   0.00545033   0.00545033   0.00545033   0.00545033   56000008
   -1    1    9   CASTOR_HAD   0.00408151   0.00408151   0.00408151   0.00408151   56000009
   -1    1   10   CASTOR_HAD   0.00709072   0.00709072   0.00709072   0.00709072   5600000A
   -1    1   11   CASTOR_HAD   0.00610281   0.00610281   0.00610281   0.00610281   5600000B
   -1    1   12   CASTOR_HAD   0.00116372   0.00116372   0.00116372   0.00116372   5600000C
   -1    1   13   CASTOR_HAD   0.00553881   0.00553881   0.00553881   0.00553881   5600000D
   -1    1   14   CASTOR_HAD   0.00335098   0.00335098   0.00335098   0.00335098   5600000E
   -1    2    1    CASTOR_EM            0            0            0            0   56000011
   -1    2    2    CASTOR_EM            0            0            0            0   56000012
   -1    2    3   CASTOR_HAD    0.0334991    0.0334991    0.0334991    0.0334991   56000013
   -1    2    4   CASTOR_HAD    0.0471681    0.0471681    0.0471681    0.0471681   56000014
   -1    2    5   CASTOR_HAD            0            0            0            0   56000015
   -1    2    6   CASTOR_HAD   0.00909988   0.00909988   0.00909988   0.00909988   56000016
   -1    2    7   CASTOR_HAD   0.00832527   0.00832527   0.00832527   0.00832527   56000017
   -1    2    8   CASTOR_HAD   0.00947915   0.00947915   0.00947915   0.00947915   56000018
   -1    2    9   CASTOR_HAD   0.00179927   0.00179927   0.00179927   0.00179927   56000019
   -1    2   10   CASTOR_HAD            0            0            0            0   5600001A
   -1    2   11   CASTOR_HAD   0.00491419   0.00491419   0.00491419   0.00491419   5600001B
   -1    2   12   CASTOR_HAD    0.0130909    0.0130909    0.0130909    0.0130909   5600001C
   -1    2   13   CASTOR_HAD   0.00517601   0.00517601   0.00517601   0.00517601   5600001D
   -1    2   14   CASTOR_HAD   0.00513339   0.00513339   0.00513339   0.00513339   5600001E
   -1    3    1    CASTOR_EM    0.0224063    0.0224063    0.0224063    0.0224063   56000021
   -1    3    2    CASTOR_EM            0            0            0            0   56000022
   -1    3    3   CASTOR_HAD    0.0409476    0.0409476    0.0409476    0.0409476   56000023
   -1    3    4   CASTOR_HAD    0.0308139    0.0308139    0.0308139    0.0308139   56000024
   -1    3    5   CASTOR_HAD   0.00526435   0.00526435   0.00526435   0.00526435   56000025
   -1    3    6   CASTOR_HAD      0.02078      0.02078      0.02078      0.02078   56000026
   -1    3    7   CASTOR_HAD            0            0            0            0   56000027
   -1    3    8   CASTOR_HAD     0.004568     0.004568     0.004568     0.004568   56000028
   -1    3    9   CASTOR_HAD    0.0184643    0.0184643    0.0184643    0.0184643   56000029
   -1    3   10   CASTOR_HAD   0.00736824   0.00736824   0.00736824   0.00736824   5600002A
   -1    3   11   CASTOR_HAD  0.000351147  0.000351147  0.000351147  0.000351147   5600002B
   -1    3   12   CASTOR_HAD  0.000581869  0.000581869  0.000581869  0.000581869   5600002C
   -1    3   13   CASTOR_HAD  0.000199275  0.000199275  0.000199275  0.000199275   5600002D
   -1    3   14   CASTOR_HAD   0.00030959   0.00030959   0.00030959   0.00030959   5600002E
   -1    4    1    CASTOR_EM            0            0            0            0   56000031
   -1    4    2    CASTOR_EM    0.0162307    0.0162307    0.0162307    0.0162307   56000032
   -1    4    3   CASTOR_HAD    0.0261111    0.0261111    0.0261111    0.0261111   56000033
   -1    4    4   CASTOR_HAD    0.0262882    0.0262882    0.0262882    0.0262882   56000034
   -1    4    5   CASTOR_HAD   0.00914565   0.00914565   0.00914565   0.00914565   56000035
   -1    4    6   CASTOR_HAD    0.0066573    0.0066573    0.0066573    0.0066573   56000036
   -1    4    7   CASTOR_HAD    0.0128187    0.0128187    0.0128187    0.0128187   56000037
   -1    4    8   CASTOR_HAD   0.00885551   0.00885551   0.00885551   0.00885551   56000038
   -1    4    9   CASTOR_HAD   0.00777059   0.00777059   0.00777059   0.00777059   56000039
   -1    4   10   CASTOR_HAD    0.0090751    0.0090751    0.0090751    0.0090751   5600003A
   -1    4   11   CASTOR_HAD   0.00445572   0.00445572   0.00445572   0.00445572   5600003B
   -1    4   12   CASTOR_HAD    0.0116786    0.0116786    0.0116786    0.0116786   5600003C
   -1    4   13   CASTOR_HAD   0.00825441   0.00825441   0.00825441   0.00825441   5600003D
   -1    4   14   CASTOR_HAD   0.00960991   0.00960991   0.00960991   0.00960991   5600003E
   -1    5    1    CASTOR_EM    0.0147448    0.0147448    0.0147448    0.0147448   56000041
   -1    5    2    CASTOR_EM     0.337326     0.337326     0.337326     0.337326   56000042
   -1    5    3   CASTOR_HAD     0.102018     0.102018     0.102018     0.102018   56000043
   -1    5    4   CASTOR_HAD   0.00464768   0.00464768   0.00464768   0.00464768   56000044
   -1    5    5   CASTOR_HAD   0.00353054   0.00353054   0.00353054   0.00353054   56000045
   -1    5    6   CASTOR_HAD   0.00482377   0.00482377   0.00482377   0.00482377   56000046
   -1    5    7   CASTOR_HAD   0.00343708   0.00343708   0.00343708   0.00343708   56000047
   -1    5    8   CASTOR_HAD     0.150343     0.150343     0.150343     0.150343   56000048
   -1    5    9   CASTOR_HAD  0.000202965  0.000202965  0.000202965  0.000202965   56000049
   -1    5   10   CASTOR_HAD  0.000305674  0.000305674  0.000305674  0.000305674   5600004A
   -1    5   11   CASTOR_HAD  0.000637036  0.000637036  0.000637036  0.000637036   5600004B
   -1    5   12   CASTOR_HAD    0.0096129    0.0096129    0.0096129    0.0096129   5600004C
   -1    5   13   CASTOR_HAD   0.00548498   0.00548498   0.00548498   0.00548498   5600004D
   -1    5   14   CASTOR_HAD   0.00458007   0.00458007   0.00458007   0.00458007   5600004E
   -1    6    1    CASTOR_EM    0.0386624    0.0386624    0.0386624    0.0386624   56000051
   -1    6    2    CASTOR_EM    0.0134493    0.0134493    0.0134493    0.0134493   56000052
   -1    6    3   CASTOR_HAD    0.0431927    0.0431927    0.0431927    0.0431927   56000053
   -1    6    4   CASTOR_HAD    0.0333438    0.0333438    0.0333438    0.0333438   56000054
   -1    6    5   CASTOR_HAD   0.00693932   0.00693932   0.00693932   0.00693932   56000055
   -1    6    6   CASTOR_HAD   0.00566778   0.00566778   0.00566778   0.00566778   56000056
   -1    6    7   CASTOR_HAD    0.0059124    0.0059124    0.0059124    0.0059124   56000057
   -1    6    8   CASTOR_HAD   0.00857849   0.00857849   0.00857849   0.00857849   56000058
   -1    6    9   CASTOR_HAD     0.004442     0.004442     0.004442     0.004442   56000059
   -1    6   10   CASTOR_HAD     0.016221     0.016221     0.016221     0.016221   5600005A
   -1    6   11   CASTOR_HAD    0.0167445    0.0167445    0.0167445    0.0167445   5600005B
   -1    6   12   CASTOR_HAD   0.00100102   0.00100102   0.00100102   0.00100102   5600005C
   -1    6   13   CASTOR_HAD   0.00769877   0.00769877   0.00769877   0.00769877   5600005D
   -1    6   14   CASTOR_HAD   0.00789466   0.00789466   0.00789466   0.00789466   5600005E
   -1    7    1    CASTOR_EM     0.013141     0.013141     0.013141     0.013141   56000061
   -1    7    2    CASTOR_EM    0.0130602    0.0130602    0.0130602    0.0130602   56000062
   -1    7    3   CASTOR_HAD    0.0474346    0.0474346    0.0474346    0.0474346   56000063
   -1    7    4   CASTOR_HAD    0.0383371    0.0383371    0.0383371    0.0383371   56000064
   -1    7    5   CASTOR_HAD   0.00791318   0.00791318   0.00791318   0.00791318   56000065
   -1    7    6   CASTOR_HAD    0.0104417    0.0104417    0.0104417    0.0104417   56000066
   -1    7    7   CASTOR_HAD   0.00635022   0.00635022   0.00635022   0.00635022   56000067
   -1    7    8   CASTOR_HAD   0.00834617   0.00834617   0.00834617   0.00834617   56000068
   -1    7    9   CASTOR_HAD    0.0041981    0.0041981    0.0041981    0.0041981   56000069
   -1    7   10   CASTOR_HAD   0.00541351   0.00541351   0.00541351   0.00541351   5600006A
   -1    7   11   CASTOR_HAD   0.00534905   0.00534905   0.00534905   0.00534905   5600006B
   -1    7   12   CASTOR_HAD    0.0201734    0.0201734    0.0201734    0.0201734   5600006C
   -1    7   13   CASTOR_HAD   0.00414683   0.00414683   0.00414683   0.00414683   5600006D
   -1    7   14   CASTOR_HAD   0.00750996   0.00750996   0.00750996   0.00750996   5600006E
   -1    8    1    CASTOR_EM    0.0151538    0.0151538    0.0151538    0.0151538   56000071
   -1    8    2    CASTOR_EM            0            0            0            0   56000072
   -1    8    3   CASTOR_HAD            0            0            0            0   56000073
   -1    8    4   CASTOR_HAD            0            0            0            0   56000074
   -1    8    5   CASTOR_HAD    0.0093299    0.0093299    0.0093299    0.0093299   56000075
   -1    8    6   CASTOR_HAD    0.0113206    0.0113206    0.0113206    0.0113206   56000076
   -1    8    7   CASTOR_HAD    0.0677761    0.0677761    0.0677761    0.0677761   56000077
   -1    8    8   CASTOR_HAD       5.6171       5.6171       5.6171       5.6171   56000078
   -1    8    9   CASTOR_HAD   0.00530454   0.00530454   0.00530454   0.00530454   56000079
   -1    8   10   CASTOR_HAD    0.0149847    0.0149847    0.0149847    0.0149847   5600007A
   -1    8   11   CASTOR_HAD            0            0            0            0   5600007B
   -1    8   12   CASTOR_HAD   0.00833056   0.00833056   0.00833056   0.00833056   5600007C
   -1    8   13   CASTOR_HAD   0.00895573   0.00895573   0.00895573   0.00895573   5600007D
   -1    8   14   CASTOR_HAD    0.0112017    0.0112017    0.0112017    0.0112017   5600007E
   -1    9    1    CASTOR_EM   0.00752017   0.00752017   0.00752017   0.00752017   56000081
   -1    9    2    CASTOR_EM   0.00112509   0.00112509   0.00112509   0.00112509   56000082
   -1    9    3   CASTOR_HAD   0.00521044   0.00521044   0.00521044   0.00521044   56000083
   -1    9    4   CASTOR_HAD   0.00167401   0.00167401   0.00167401   0.00167401   56000084
   -1    9    5   CASTOR_HAD   0.00192042   0.00192042   0.00192042   0.00192042   56000085
   -1    9    6   CASTOR_HAD   0.00922576   0.00922576   0.00922576   0.00922576   56000086
   -1    9    7   CASTOR_HAD   0.00288294   0.00288294   0.00288294   0.00288294   56000087
   -1    9    8   CASTOR_HAD   0.00112979   0.00112979   0.00112979   0.00112979   56000088
   -1    9    9   CASTOR_HAD  0.000484586  0.000484586  0.000484586  0.000484586   56000089
   -1    9   10   CASTOR_HAD  0.000618965  0.000618965  0.000618965  0.000618965   5600008A
   -1    9   11   CASTOR_HAD  0.000964713  0.000964713  0.000964713  0.000964713   5600008B
   -1    9   12   CASTOR_HAD   0.00150552   0.00150552   0.00150552   0.00150552   5600008C
   -1    9   13   CASTOR_HAD   0.00648131   0.00648131   0.00648131   0.00648131   5600008D
   -1    9   14   CASTOR_HAD   0.00327947   0.00327947   0.00327947   0.00327947   5600008E
   -1   10    1    CASTOR_EM   0.00374575   0.00374575   0.00374575   0.00374575   56000091
   -1   10    2    CASTOR_EM   0.00177001   0.00177001   0.00177001   0.00177001   56000092
   -1   10    3   CASTOR_HAD    0.0385257    0.0385257    0.0385257    0.0385257   56000093
   -1   10    4   CASTOR_HAD   0.00293731   0.00293731   0.00293731   0.00293731   56000094
   -1   10    5   CASTOR_HAD   0.00766834   0.00766834   0.00766834   0.00766834   56000095
   -1   10    6   CASTOR_HAD   0.00514128   0.00514128   0.00514128   0.00514128   56000096
   -1   10    7   CASTOR_HAD    0.0028945    0.0028945    0.0028945    0.0028945   56000097
   -1   10    8   CASTOR_HAD   0.00645888   0.00645888   0.00645888   0.00645888   56000098
   -1   10    9   CASTOR_HAD  0.000551128  0.000551128  0.000551128  0.000551128   56000099
   -1   10   10   CASTOR_HAD   0.00571028   0.00571028   0.00571028   0.00571028   5600009A
   -1   10   11   CASTOR_HAD   0.00603609   0.00603609   0.00603609   0.00603609   5600009B
   -1   10   12   CASTOR_HAD    0.0022535    0.0022535    0.0022535    0.0022535   5600009C
   -1   10   13   CASTOR_HAD    0.0050079    0.0050079    0.0050079    0.0050079   5600009D
   -1   10   14   CASTOR_HAD   0.00389978   0.00389978   0.00389978   0.00389978   5600009E
   -1   11    1    CASTOR_EM    0.0158715    0.0158715    0.0158715    0.0158715   560000A1
   -1   11    2    CASTOR_EM            0            0            0            0   560000A2
   -1   11    3   CASTOR_HAD    0.0364463    0.0364463    0.0364463    0.0364463   560000A3
   -1   11    4   CASTOR_HAD      0.13521      0.13521      0.13521      0.13521   560000A4
   -1   11    5   CASTOR_HAD   0.00466867   0.00466867   0.00466867   0.00466867   560000A5
   -1   11    6   CASTOR_HAD   0.00474218   0.00474218   0.00474218   0.00474218   560000A6
   -1   11    7   CASTOR_HAD   0.00956498   0.00956498   0.00956498   0.00956498   560000A7
   -1   11    8   CASTOR_HAD   0.00659911   0.00659911   0.00659911   0.00659911   560000A8
   -1   11    9   CASTOR_HAD    0.0032236    0.0032236    0.0032236    0.0032236   560000A9
   -1   11   10   CASTOR_HAD     0.222215     0.222215     0.222215     0.222215   560000AA
   -1   11   11   CASTOR_HAD    0.0095747    0.0095747    0.0095747    0.0095747   560000AB
   -1   11   12   CASTOR_HAD    0.0102449    0.0102449    0.0102449    0.0102449   560000AC
   -1   11   13   CASTOR_HAD    0.0116763    0.0116763    0.0116763    0.0116763   560000AD
   -1   11   14   CASTOR_HAD   0.00212754   0.00212754   0.00212754   0.00212754   560000AE
   -1   12    1    CASTOR_EM    0.0296194    0.0296194    0.0296194    0.0296194   560000B1
   -1   12    2    CASTOR_EM    0.0371975    0.0371975    0.0371975    0.0371975   560000B2
   -1   12    3   CASTOR_HAD    0.0409631    0.0409631    0.0409631    0.0409631   560000B3
   -1   12    4   CASTOR_HAD     0.061641     0.061641     0.061641     0.061641   560000B4
   -1   12    5   CASTOR_HAD   0.00629549   0.00629549   0.00629549   0.00629549   560000B5
   -1   12    6   CASTOR_HAD   0.00505012   0.00505012   0.00505012   0.00505012   560000B6
   -1   12    7   CASTOR_HAD    0.0217813    0.0217813    0.0217813    0.0217813   560000B7
   -1   12    8   CASTOR_HAD    0.0116458    0.0116458    0.0116458    0.0116458   560000B8
   -1   12    9   CASTOR_HAD   0.00752616   0.00752616   0.00752616   0.00752616   560000B9
   -1   12   10   CASTOR_HAD    0.0184137    0.0184137    0.0184137    0.0184137   560000BA
   -1   12   11   CASTOR_HAD   0.00799783   0.00799783   0.00799783   0.00799783   560000BB
   -1   12   12   CASTOR_HAD   0.00382221   0.00382221   0.00382221   0.00382221   560000BC
   -1   12   13   CASTOR_HAD   0.00790378   0.00790378   0.00790378   0.00790378   560000BD
   -1   12   14   CASTOR_HAD   0.00745778   0.00745778   0.00745778   0.00745778   560000BE
   -1   13    1    CASTOR_EM   0.00290185   0.00290185   0.00290185   0.00290185   560000C1
   -1   13    2    CASTOR_EM   0.00715404   0.00715404   0.00715404   0.00715404   560000C2
   -1   13    3   CASTOR_HAD    0.0287623    0.0287623    0.0287623    0.0287623   560000C3
   -1   13    4   CASTOR_HAD   0.00249979   0.00249979   0.00249979   0.00249979   560000C4
   -1   13    5   CASTOR_HAD   0.00266163   0.00266163   0.00266163   0.00266163   560000C5
   -1   13    6   CASTOR_HAD   0.00689602   0.00689602   0.00689602   0.00689602   560000C6
   -1   13    7   CASTOR_HAD   0.00267688   0.00267688   0.00267688   0.00267688   560000C7
   -1   13    8   CASTOR_HAD    0.0051851    0.0051851    0.0051851    0.0051851   560000C8
   -1   13    9   CASTOR_HAD   0.00442822   0.00442822   0.00442822   0.00442822   560000C9
   -1   13   10   CASTOR_HAD   0.00535993   0.00535993   0.00535993   0.00535993   560000CA
   -1   13   11   CASTOR_HAD   0.00408207   0.00408207   0.00408207   0.00408207   560000CB
   -1   13   12   CASTOR_HAD   0.00676359   0.00676359   0.00676359   0.00676359   560000CC
   -1   13   13   CASTOR_HAD   0.00419696   0.00419696   0.00419696   0.00419696   560000CD
   -1   13   14   CASTOR_HAD    0.0141618    0.0141618    0.0141618    0.0141618   560000CE
   -1   14    1    CASTOR_EM   0.00488543   0.00488543   0.00488543   0.00488543   560000D1
   -1   14    2    CASTOR_EM    0.0112924    0.0112924    0.0112924    0.0112924   560000D2
   -1   14    3   CASTOR_HAD    0.0178812    0.0178812    0.0178812    0.0178812   560000D3
   -1   14    4   CASTOR_HAD   0.00561456   0.00561456   0.00561456   0.00561456   560000D4
   -1   14    5   CASTOR_HAD   0.00315494   0.00315494   0.00315494   0.00315494   560000D5
   -1   14    6   CASTOR_HAD   0.00583541   0.00583541   0.00583541   0.00583541   560000D6
   -1   14    7   CASTOR_HAD   0.00337567   0.00337567   0.00337567   0.00337567   560000D7
   -1   14    8   CASTOR_HAD   0.00554054   0.00554054   0.00554054   0.00554054   560000D8
   -1   14    9   CASTOR_HAD   0.00095066   0.00095066   0.00095066   0.00095066   560000D9
   -1   14   10   CASTOR_HAD   0.00182235   0.00182235   0.00182235   0.00182235   560000DA
   -1   14   11   CASTOR_HAD   0.00620735   0.00620735   0.00620735   0.00620735   560000DB
   -1   14   12   CASTOR_HAD   0.00547573   0.00547573   0.00547573   0.00547573   560000DC
   -1   14   13   CASTOR_HAD   0.00306478   0.00306478   0.00306478   0.00306478   560000DD
   -1   14   14   CASTOR_HAD   0.00511377   0.00511377   0.00511377   0.00511377   560000DE
   -1   15    1    CASTOR_EM    0.0174186    0.0174186    0.0174186    0.0174186   560000E1
   -1   15    2    CASTOR_EM    0.0103126    0.0103126    0.0103126    0.0103126   560000E2
   -1   15    3   CASTOR_HAD    0.0344913    0.0344913    0.0344913    0.0344913   560000E3
   -1   15    4   CASTOR_HAD   0.00886029   0.00886029   0.00886029   0.00886029   560000E4
   -1   15    5   CASTOR_HAD   0.00416582   0.00416582   0.00416582   0.00416582   560000E5
   -1   15    6   CASTOR_HAD   0.00835796   0.00835796   0.00835796   0.00835796   560000E6
   -1   15    7   CASTOR_HAD   0.00664727   0.00664727   0.00664727   0.00664727   560000E7
   -1   15    8   CASTOR_HAD   0.00940949   0.00940949   0.00940949   0.00940949   560000E8
   -1   15    9   CASTOR_HAD   0.00693289   0.00693289   0.00693289   0.00693289   560000E9
   -1   15   10   CASTOR_HAD   0.00495147   0.00495147   0.00495147   0.00495147   560000EA
   -1   15   11   CASTOR_HAD   0.00208471   0.00208471   0.00208471   0.00208471   560000EB
   -1   15   12   CASTOR_HAD   0.00379302   0.00379302   0.00379302   0.00379302   560000EC
   -1   15   13   CASTOR_HAD   0.00956926   0.00956926   0.00956926   0.00956926   560000ED
   -1   15   14   CASTOR_HAD   0.00523517   0.00523517   0.00523517   0.00523517   560000EE
   -1   16    1    CASTOR_EM   0.00867302   0.00867302   0.00867302   0.00867302   560000F1
   -1   16    2    CASTOR_EM    0.0115688    0.0115688    0.0115688    0.0115688   560000F2
   -1   16    3   CASTOR_HAD    0.0285699    0.0285699    0.0285699    0.0285699   560000F3
   -1   16    4   CASTOR_HAD   0.00987715   0.00987715   0.00987715   0.00987715   560000F4
   -1   16    5   CASTOR_HAD   0.00484043   0.00484043   0.00484043   0.00484043   560000F5
   -1   16    6   CASTOR_HAD    0.0013176    0.0013176    0.0013176    0.0013176   560000F6
   -1   16    7   CASTOR_HAD   0.00581954   0.00581954   0.00581954   0.00581954   560000F7
   -1   16    8   CASTOR_HAD   0.00734346   0.00734346   0.00734346   0.00734346   560000F8
   -1   16    9   CASTOR_HAD   0.00630988   0.00630988   0.00630988   0.00630988   560000F9
   -1   16   10   CASTOR_HAD   0.00549782   0.00549782   0.00549782   0.00549782   560000FA
   -1   16   11   CASTOR_HAD    0.0050592    0.0050592    0.0050592    0.0050592   560000FB
   -1   16   12   CASTOR_HAD   0.00477635   0.00477635   0.00477635   0.00477635   560000FC
   -1   16   13   CASTOR_HAD   0.00510286   0.00510286   0.00510286   0.00510286   560000FD
   -1   16   14   CASTOR_HAD   0.00447491   0.00447491   0.00447491   0.00447491   560000FE
