#             eta             phi             dep             det     cap0     cap1     cap2     cap3      DetId
   -1    1    1    CASTOR_EM    0.0127711    0.0127711    0.0127711    0.0127711   56000001
   -1    1    2    CASTOR_EM    0.0141849    0.0141849    0.0141849    0.0141849   56000002
   -1    1    3   CASTOR_HAD    0.0327561    0.0327561    0.0327561    0.0327561   56000003
   -1    1    4   CASTOR_HAD    0.0172725    0.0172725    0.0172725    0.0172725   56000004
   -1    1    5   CASTOR_HAD   0.00350533   0.00350533   0.00350533   0.00350533   56000005
   -1    1    6   CASTOR_HAD   0.00869293   0.00869293   0.00869293   0.00869293   56000006
   -1    1    7   CASTOR_HAD     0.138407     0.138407     0.138407     0.138407   56000007
   -1    1    8   CASTOR_HAD   0.00992479   0.00992479   0.00992479   0.00992479   56000008
   -1    1    9   CASTOR_HAD   0.00353672   0.00353672   0.00353672   0.00353672   56000009
   -1    1   10   CASTOR_HAD   0.00785435   0.00785435   0.00785435   0.00785435   5600000A
   -1    1   11   CASTOR_HAD   0.00739093   0.00739093   0.00739093   0.00739093   5600000B
   -1    1   12   CASTOR_HAD   0.00426004   0.00426004   0.00426004   0.00426004   5600000C
   -1    1   13   CASTOR_HAD   0.00785708   0.00785708   0.00785708   0.00785708   5600000D
   -1    1   14   CASTOR_HAD   0.00380506   0.00380506   0.00380506   0.00380506   5600000E
   -1    2    1    CASTOR_EM    0.0186598    0.0186598    0.0186598    0.0186598   56000011
   -1    2    2    CASTOR_EM    0.0121984    0.0121984    0.0121984    0.0121984   56000012
   -1    2    3   CASTOR_HAD    0.0379178    0.0379178    0.0379178    0.0379178   56000013
   -1    2    4   CASTOR_HAD     0.016442     0.016442     0.016442     0.016442   56000014
   -1    2    5   CASTOR_HAD   0.00506887   0.00506887   0.00506887   0.00506887   56000015
   -1    2    6   CASTOR_HAD    0.0229856    0.0229856    0.0229856    0.0229856   56000016
   -1    2    7   CASTOR_HAD     0.138917     0.138917     0.138917     0.138917   56000017
   -1    2    8   CASTOR_HAD   0.00996019   0.00996019   0.00996019   0.00996019   56000018
   -1    2    9   CASTOR_HAD   0.00461772   0.00461772   0.00461772   0.00461772   56000019
   -1    2   10   CASTOR_HAD   0.00746483   0.00746483   0.00746483   0.00746483   5600001A
   -1    2   11   CASTOR_HAD   0.00806382   0.00806382   0.00806382   0.00806382   5600001B
   -1    2   12   CASTOR_HAD   0.00464508   0.00464508   0.00464508   0.00464508   5600001C
   -1    2   13   CASTOR_HAD   0.00829472   0.00829472   0.00829472   0.00829472   5600001D
   -1    2   14   CASTOR_HAD   0.00426958   0.00426958   0.00426958   0.00426958   5600001E
   -1    3    1    CASTOR_EM    0.0181034    0.0181034    0.0181034    0.0181034   56000021
   -1    3    2    CASTOR_EM    0.0111768    0.0111768    0.0111768    0.0111768   56000022
   -1    3    3   CASTOR_HAD    0.0451517    0.0451517    0.0451517    0.0451517   56000023
   -1    3    4   CASTOR_HAD    0.0230228    0.0230228    0.0230228    0.0230228   56000024
   -1    3    5   CASTOR_HAD   0.00667321   0.00667321   0.00667321   0.00667321   56000025
   -1    3    6   CASTOR_HAD    0.0125735    0.0125735    0.0125735    0.0125735   56000026
   -1    3    7   CASTOR_HAD     0.161621     0.161621     0.161621     0.161621   56000027
   -1    3    8   CASTOR_HAD    0.0510278    0.0510278    0.0510278    0.0510278   56000028
   -1    3    9   CASTOR_HAD   0.00579645   0.00579645   0.00579645   0.00579645   56000029
   -1    3   10   CASTOR_HAD   0.00996526   0.00996526   0.00996526   0.00996526   5600002A
   -1    3   11   CASTOR_HAD   0.00794598   0.00794598   0.00794598   0.00794598   5600002B
   -1    3   12   CASTOR_HAD   0.00942566   0.00942566   0.00942566   0.00942566   5600002C
   -1    3   13   CASTOR_HAD   0.00923022   0.00923022   0.00923022   0.00923022   5600002D
   -1    3   14   CASTOR_HAD   0.00641716   0.00641716   0.00641716   0.00641716   5600002E
   -1    4    1    CASTOR_EM    0.0198174    0.0198174    0.0198174    0.0198174   56000031
   -1    4    2    CASTOR_EM    0.0154951    0.0154951    0.0154951    0.0154951   56000032
   -1    4    3   CASTOR_HAD    0.0260804    0.0260804    0.0260804    0.0260804   56000033
   -1    4    4   CASTOR_HAD    0.0143649    0.0143649    0.0143649    0.0143649   56000034
   -1    4    5   CASTOR_HAD   0.00260797   0.00260797   0.00260797   0.00260797   56000035
   -1    4    6   CASTOR_HAD    0.0224269    0.0224269    0.0224269    0.0224269   56000036
   -1    4    7   CASTOR_HAD     0.146456     0.146456     0.146456     0.146456   56000037
   -1    4    8   CASTOR_HAD     0.166868     0.166868     0.166868     0.166868   56000038
   -1    4    9   CASTOR_HAD     0.156524     0.156524     0.156524     0.156524   56000039
   -1    4   10   CASTOR_HAD    0.0104067    0.0104067    0.0104067    0.0104067   5600003A
   -1    4   11   CASTOR_HAD   0.00870891   0.00870891   0.00870891   0.00870891   5600003B
   -1    4   12   CASTOR_HAD   0.00518993   0.00518993   0.00518993   0.00518993   5600003C
   -1    4   13   CASTOR_HAD   0.00352238   0.00352238   0.00352238   0.00352238   5600003D
   -1    4   14   CASTOR_HAD   0.00524167   0.00524167   0.00524167   0.00524167   5600003E
   -1    5    1    CASTOR_EM    0.0121554    0.0121554    0.0121554    0.0121554   56000041
   -1    5    2    CASTOR_EM    0.0154926    0.0154926    0.0154926    0.0154926   56000042
   -1    5    3   CASTOR_HAD     0.034361     0.034361     0.034361     0.034361   56000043
   -1    5    4   CASTOR_HAD     0.020173     0.020173     0.020173     0.020173   56000044
   -1    5    5   CASTOR_HAD   0.00598038   0.00598038   0.00598038   0.00598038   56000045
   -1    5    6   CASTOR_HAD    0.0174318    0.0174318    0.0174318    0.0174318   56000046
   -1    5    7   CASTOR_HAD     0.101084     0.101084     0.101084     0.101084   56000047
   -1    5    8   CASTOR_HAD     0.139881     0.139881     0.139881     0.139881   56000048
   -1    5    9   CASTOR_HAD     0.149678     0.149678     0.149678     0.149678   56000049
   -1    5   10   CASTOR_HAD   0.00988348   0.00988348   0.00988348   0.00988348   5600004A
   -1    5   11   CASTOR_HAD   0.00606617   0.00606617   0.00606617   0.00606617   5600004B
   -1    5   12   CASTOR_HAD   0.00561264   0.00561264   0.00561264   0.00561264   5600004C
   -1    5   13   CASTOR_HAD   0.00735909   0.00735909   0.00735909   0.00735909   5600004D
   -1    5   14   CASTOR_HAD   0.00537461   0.00537461   0.00537461   0.00537461   5600004E
   -1    6    1    CASTOR_EM    0.0271187    0.0271187    0.0271187    0.0271187   56000051
   -1    6    2    CASTOR_EM    0.0166681    0.0166681    0.0166681    0.0166681   56000052
   -1    6    3   CASTOR_HAD    0.0318124    0.0318124    0.0318124    0.0318124   56000053
   -1    6    4   CASTOR_HAD   0.00752907   0.00752907   0.00752907   0.00752907   56000054
   -1    6    5   CASTOR_HAD   0.00307587   0.00307587   0.00307587   0.00307587   56000055
   -1    6    6   CASTOR_HAD    0.0163421    0.0163421    0.0163421    0.0163421   56000056
   -1    6    7   CASTOR_HAD      0.10275      0.10275      0.10275      0.10275   56000057
   -1    6    8   CASTOR_HAD     0.140025     0.140025     0.140025     0.140025   56000058
   -1    6    9   CASTOR_HAD   0.00843539   0.00843539   0.00843539   0.00843539   56000059
   -1    6   10   CASTOR_HAD    0.0119612    0.0119612    0.0119612    0.0119612   5600005A
   -1    6   11   CASTOR_HAD   0.00440401   0.00440401   0.00440401   0.00440401   5600005B
   -1    6   12   CASTOR_HAD   0.00712515   0.00712515   0.00712515   0.00712515   5600005C
   -1    6   13   CASTOR_HAD      0.01178      0.01178      0.01178      0.01178   5600005D
   -1    6   14   CASTOR_HAD   0.00739063   0.00739063   0.00739063   0.00739063   5600005E
   -1    7    1    CASTOR_EM    0.0219258    0.0219258    0.0219258    0.0219258   56000061
   -1    7    2    CASTOR_EM     0.025615     0.025615     0.025615     0.025615   56000062
   -1    7    3   CASTOR_HAD    0.0428866    0.0428866    0.0428866    0.0428866   56000063
   -1    7    4   CASTOR_HAD   0.00965604   0.00965604   0.00965604   0.00965604   56000064
   -1    7    5   CASTOR_HAD   0.00154818   0.00154818   0.00154818   0.00154818   56000065
   -1    7    6   CASTOR_HAD    0.0130034    0.0130034    0.0130034    0.0130034   56000066
   -1    7    7   CASTOR_HAD     0.112359     0.112359     0.112359     0.112359   56000067
   -1    7    8   CASTOR_HAD    0.0294164    0.0294164    0.0294164    0.0294164   56000068
   -1    7    9   CASTOR_HAD   0.00770333   0.00770333   0.00770333   0.00770333   56000069
   -1    7   10   CASTOR_HAD     0.129695     0.129695     0.129695     0.129695   5600006A
   -1    7   11   CASTOR_HAD    0.0432641    0.0432641    0.0432641    0.0432641   5600006B
   -1    7   12   CASTOR_HAD    0.0198622    0.0198622    0.0198622    0.0198622   5600006C
   -1    7   13   CASTOR_HAD     0.042013     0.042013     0.042013     0.042013   5600006D
   -1    7   14   CASTOR_HAD    0.0736455    0.0736455    0.0736455    0.0736455   5600006E
   -1    8    1    CASTOR_EM    0.0142745    0.0142745    0.0142745    0.0142745   56000071
   -1    8    2    CASTOR_EM    0.0157918    0.0157918    0.0157918    0.0157918   56000072
   -1    8    3   CASTOR_HAD    0.0242828    0.0242828    0.0242828    0.0242828   56000073
   -1    8    4   CASTOR_HAD   0.00843815   0.00843815   0.00843815   0.00843815   56000074
   -1    8    5   CASTOR_HAD   0.00231703   0.00231703   0.00231703   0.00231703   56000075
   -1    8    6   CASTOR_HAD    0.0546976    0.0546976    0.0546976    0.0546976   56000076
   -1    8    7   CASTOR_HAD     0.150979     0.150979     0.150979     0.150979   56000077
   -1    8    8   CASTOR_HAD    0.0154301    0.0154301    0.0154301    0.0154301   56000078
   -1    8    9   CASTOR_HAD   0.00696517   0.00696517   0.00696517   0.00696517   56000079
   -1    8   10   CASTOR_HAD    0.0681487    0.0681487    0.0681487    0.0681487   5600007A
   -1    8   11   CASTOR_HAD    0.0517847    0.0517847    0.0517847    0.0517847   5600007B
   -1    8   12   CASTOR_HAD    0.0299674    0.0299674    0.0299674    0.0299674   5600007C
   -1    8   13   CASTOR_HAD    0.0366128    0.0366128    0.0366128    0.0366128   5600007D
   -1    8   14   CASTOR_HAD   0.00813414   0.00813414   0.00813414   0.00813414   5600007E
   -1    9    1    CASTOR_EM    0.0156429    0.0156429    0.0156429    0.0156429   56000081
   -1    9    2    CASTOR_EM    0.0214631    0.0214631    0.0214631    0.0214631   56000082
   -1    9    3   CASTOR_HAD    0.0328434    0.0328434    0.0328434    0.0328434   56000083
   -1    9    4   CASTOR_HAD    0.0159031    0.0159031    0.0159031    0.0159031   56000084
   -1    9    5   CASTOR_HAD   0.00431895   0.00431895   0.00431895   0.00431895   56000085
   -1    9    6   CASTOR_HAD    0.0388072    0.0388072    0.0388072    0.0388072   56000086
   -1    9    7   CASTOR_HAD      0.16481      0.16481      0.16481      0.16481   56000087
   -1    9    8   CASTOR_HAD   0.00991757   0.00991757   0.00991757   0.00991757   56000088
   -1    9    9   CASTOR_HAD   0.00469143   0.00469143   0.00469143   0.00469143   56000089
   -1    9   10   CASTOR_HAD   0.00685422   0.00685422   0.00685422   0.00685422   5600008A
   -1    9   11   CASTOR_HAD   0.00553006   0.00553006   0.00553006   0.00553006   5600008B
   -1    9   12   CASTOR_HAD   0.00713765   0.00713765   0.00713765   0.00713765   5600008C
   -1    9   13   CASTOR_HAD   0.00734963   0.00734963   0.00734963   0.00734963   5600008D
   -1    9   14   CASTOR_HAD   0.00918938   0.00918938   0.00918938   0.00918938   5600008E
   -1   10    1    CASTOR_EM    0.0198275    0.0198275    0.0198275    0.0198275   56000091
   -1   10    2    CASTOR_EM    0.0234988    0.0234988    0.0234988    0.0234988   56000092
   -1   10    3   CASTOR_HAD    0.0535092    0.0535092    0.0535092    0.0535092   56000093
   -1   10    4   CASTOR_HAD    0.0204977    0.0204977    0.0204977    0.0204977   56000094
   -1   10    5   CASTOR_HAD   0.00416516   0.00416516   0.00416516   0.00416516   56000095
   -1   10    6   CASTOR_HAD     0.086602     0.086602     0.086602     0.086602   56000096
   -1   10    7   CASTOR_HAD     0.149935     0.149935     0.149935     0.149935   56000097
   -1   10    8   CASTOR_HAD     0.010446     0.010446     0.010446     0.010446   56000098
   -1   10    9   CASTOR_HAD   0.00472561   0.00472561   0.00472561   0.00472561   56000099
   -1   10   10   CASTOR_HAD   0.00705591   0.00705591   0.00705591   0.00705591   5600009A
   -1   10   11   CASTOR_HAD   0.00443531   0.00443531   0.00443531   0.00443531   5600009B
   -1   10   12   CASTOR_HAD   0.00862963   0.00862963   0.00862963   0.00862963   5600009C
   -1   10   13   CASTOR_HAD   0.00857407   0.00857407   0.00857407   0.00857407   5600009D
   -1   10   14   CASTOR_HAD   0.00719422   0.00719422   0.00719422   0.00719422   5600009E
   -1   11    1    CASTOR_EM    0.0177082    0.0177082    0.0177082    0.0177082   560000A1
   -1   11    2    CASTOR_EM     0.018938     0.018938     0.018938     0.018938   560000A2
   -1   11    3   CASTOR_HAD    0.0307441    0.0307441    0.0307441    0.0307441   560000A3
   -1   11    4   CASTOR_HAD    0.0192889    0.0192889    0.0192889    0.0192889   560000A4
   -1   11    5   CASTOR_HAD   0.00448105   0.00448105   0.00448105   0.00448105   560000A5
   -1   11    6   CASTOR_HAD    0.0138582    0.0138582    0.0138582    0.0138582   560000A6
   -1   11    7   CASTOR_HAD     0.146889     0.146889     0.146889     0.146889   560000A7
   -1   11    8   CASTOR_HAD     0.110389     0.110389     0.110389     0.110389   560000A8
   -1   11    9   CASTOR_HAD   0.00760847   0.00760847   0.00760847   0.00760847   560000A9
   -1   11   10   CASTOR_HAD   0.00612277   0.00612277   0.00612277   0.00612277   560000AA
   -1   11   11   CASTOR_HAD    0.0526648    0.0526648    0.0526648    0.0526648   560000AB
   -1   11   12   CASTOR_HAD    0.0116328    0.0116328    0.0116328    0.0116328   560000AC
   -1   11   13   CASTOR_HAD     0.013967     0.013967     0.013967     0.013967   560000AD
   -1   11   14   CASTOR_HAD   0.00668847   0.00668847   0.00668847   0.00668847   560000AE
   -1   12    1    CASTOR_EM    0.0255158    0.0255158    0.0255158    0.0255158   560000B1
   -1   12    2    CASTOR_EM    0.0214743    0.0214743    0.0214743    0.0214743   560000B2
   -1   12    3   CASTOR_HAD    0.0503198    0.0503198    0.0503198    0.0503198   560000B3
   -1   12    4   CASTOR_HAD    0.0296916    0.0296916    0.0296916    0.0296916   560000B4
   -1   12    5   CASTOR_HAD   0.00581162   0.00581162   0.00581162   0.00581162   560000B5
   -1   12    6   CASTOR_HAD    0.0168041    0.0168041    0.0168041    0.0168041   560000B6
   -1   12    7   CASTOR_HAD     0.131381     0.131381     0.131381     0.131381   560000B7
   -1   12    8   CASTOR_HAD     0.152527     0.152527     0.152527     0.152527   560000B8
   -1   12    9   CASTOR_HAD   0.00916579   0.00916579   0.00916579   0.00916579   560000B9
   -1   12   10   CASTOR_HAD   0.00727275   0.00727275   0.00727275   0.00727275   560000BA
   -1   12   11   CASTOR_HAD    0.0581717    0.0581717    0.0581717    0.0581717   560000BB
   -1   12   12   CASTOR_HAD   0.00886557   0.00886557   0.00886557   0.00886557   560000BC
   -1   12   13   CASTOR_HAD   0.00419892   0.00419892   0.00419892   0.00419892   560000BD
   -1   12   14   CASTOR_HAD    0.0060982    0.0060982    0.0060982    0.0060982   560000BE
   -1   13    1    CASTOR_EM    0.0180552    0.0180552    0.0180552    0.0180552   560000C1
   -1   13    2    CASTOR_EM    0.0215651    0.0215651    0.0215651    0.0215651   560000C2
   -1   13    3   CASTOR_HAD    0.0451278    0.0451278    0.0451278    0.0451278   560000C3
   -1   13    4   CASTOR_HAD    0.0225279    0.0225279    0.0225279    0.0225279   560000C4
   -1   13    5   CASTOR_HAD   0.00374509   0.00374509   0.00374509   0.00374509   560000C5
   -1   13    6   CASTOR_HAD    0.0915683    0.0915683    0.0915683    0.0915683   560000C6
   -1   13    7   CASTOR_HAD     0.145776     0.145776     0.145776     0.145776   560000C7
   -1   13    8   CASTOR_HAD     0.147394     0.147394     0.147394     0.147394   560000C8
   -1   13    9   CASTOR_HAD   0.00437138   0.00437138   0.00437138   0.00437138   560000C9
   -1   13   10   CASTOR_HAD    0.0076324    0.0076324    0.0076324    0.0076324   560000CA
   -1   13   11   CASTOR_HAD    0.0789496    0.0789496    0.0789496    0.0789496   560000CB
   -1   13   12   CASTOR_HAD   0.00875172   0.00875172   0.00875172   0.00875172   560000CC
   -1   13   13   CASTOR_HAD   0.00751008   0.00751008   0.00751008   0.00751008   560000CD
   -1   13   14   CASTOR_HAD   0.00560596   0.00560596   0.00560596   0.00560596   560000CE
   -1   14    1    CASTOR_EM    0.0179647    0.0179647    0.0179647    0.0179647   560000D1
   -1   14    2    CASTOR_EM    0.0199713    0.0199713    0.0199713    0.0199713   560000D2
   -1   14    3   CASTOR_HAD    0.0587731    0.0587731    0.0587731    0.0587731   560000D3
   -1   14    4   CASTOR_HAD    0.0288637    0.0288637    0.0288637    0.0288637   560000D4
   -1   14    5   CASTOR_HAD   0.00379914   0.00379914   0.00379914   0.00379914   560000D5
   -1   14    6   CASTOR_HAD    0.0915118    0.0915118    0.0915118    0.0915118   560000D6
   -1   14    7   CASTOR_HAD      0.15493      0.15493      0.15493      0.15493   560000D7
   -1   14    8   CASTOR_HAD     0.149807     0.149807     0.149807     0.149807   560000D8
   -1   14    9   CASTOR_HAD    0.0047484    0.0047484    0.0047484    0.0047484   560000D9
   -1   14   10   CASTOR_HAD   0.00642429   0.00642429   0.00642429   0.00642429   560000DA
   -1   14   11   CASTOR_HAD    0.0667381    0.0667381    0.0667381    0.0667381   560000DB
   -1   14   12   CASTOR_HAD   0.00738712   0.00738712   0.00738712   0.00738712   560000DC
   -1   14   13   CASTOR_HAD   0.00861298   0.00861298   0.00861298   0.00861298   560000DD
   -1   14   14   CASTOR_HAD   0.00579477   0.00579477   0.00579477   0.00579477   560000DE
   -1   15    1    CASTOR_EM    0.0156064    0.0156064    0.0156064    0.0156064   560000E1
   -1   15    2    CASTOR_EM    0.0207218    0.0207218    0.0207218    0.0207218   560000E2
   -1   15    3   CASTOR_HAD    0.0426469    0.0426469    0.0426469    0.0426469   560000E3
   -1   15    4   CASTOR_HAD    0.0165211    0.0165211    0.0165211    0.0165211   560000E4
   -1   15    5   CASTOR_HAD   0.00437354   0.00437354   0.00437354   0.00437354   560000E5
   -1   15    6   CASTOR_HAD    0.0205054    0.0205054    0.0205054    0.0205054   560000E6
   -1   15    7   CASTOR_HAD     0.164423     0.164423     0.164423     0.164423   560000E7
   -1   15    8   CASTOR_HAD    0.0164138    0.0164138    0.0164138    0.0164138   560000E8
   -1   15    9   CASTOR_HAD   0.00493132   0.00493132   0.00493132   0.00493132   560000E9
   -1   15   10   CASTOR_HAD   0.00632024   0.00632024   0.00632024   0.00632024   560000EA
   -1   15   11   CASTOR_HAD   0.00469243   0.00469243   0.00469243   0.00469243   560000EB
   -1   15   12   CASTOR_HAD   0.00623245   0.00623245   0.00623245   0.00623245   560000EC
   -1   15   13   CASTOR_HAD   0.00831195   0.00831195   0.00831195   0.00831195   560000ED
   -1   15   14   CASTOR_HAD    0.0100614    0.0100614    0.0100614    0.0100614   560000EE
   -1   16    1    CASTOR_EM    0.0158996    0.0158996    0.0158996    0.0158996   560000F1
   -1   16    2    CASTOR_EM     0.016925     0.016925     0.016925     0.016925   560000F2
   -1   16    3   CASTOR_HAD     0.035552     0.035552     0.035552     0.035552   560000F3
   -1   16    4   CASTOR_HAD    0.0300548    0.0300548    0.0300548    0.0300548   560000F4
   -1   16    5   CASTOR_HAD   0.00808774   0.00808774   0.00808774   0.00808774   560000F5
   -1   16    6   CASTOR_HAD    0.0139874    0.0139874    0.0139874    0.0139874   560000F6
   -1   16    7   CASTOR_HAD     0.164806     0.164806     0.164806     0.164806   560000F7
   -1   16    8   CASTOR_HAD    0.0100343    0.0100343    0.0100343    0.0100343   560000F8
   -1   16    9   CASTOR_HAD   0.00556388   0.00556388   0.00556388   0.00556388   560000F9
   -1   16   10   CASTOR_HAD   0.00622598   0.00622598   0.00622598   0.00622598   560000FA
   -1   16   11   CASTOR_HAD   0.00479616   0.00479616   0.00479616   0.00479616   560000FB
   -1   16   12   CASTOR_HAD   0.00380374   0.00380374   0.00380374   0.00380374   560000FC
   -1   16   13   CASTOR_HAD   0.00746214   0.00746214   0.00746214   0.00746214   560000FD
   -1   16   14   CASTOR_HAD   0.00592283   0.00592283   0.00592283   0.00592283   560000FE
